00000010
00000010
00001000
00000000
00000010
00100010
10001000
10000000

00100010
00101010
50001000
01000111
00300010
10101111
10001010
01101011

00101050
10101010
11011101
10101010
00501051
10101010
51015110
10101001

10301051
01010111
51105010
00111110
10301051
10101111
50105110
01011031

10311031
10111131
51101010
11111111
10551061
11113134
61506300
60350000

00351050
01501134
61103161
11653300
51530000
01000000
00000000
00000000

10C33300
35300000
53000000
00000000
00000000
00000000
00000000
00000000

00000000
00000000
00000000
00000000
00000000
00000000
00000000
00000000

000000C0
000000C0
00000040
000000C0
00000010
00000000
00000000
00000000

44440061
14C11131
C4444410
14C1C401
41C41410
40141101
C0144110
C0C4C114

33310061
35511011
33101110
30110001
50331031
61131011
60513000
31351100

11101050
30111011
65115110
31110010
50531011
31040051
65111010
51111101

00000000
01000000
10000000
00000000
00000000
00000000
00000000
00000000

10130000
50110000
30000000
10010000
30030000
10010000
30000000
30010000

00106013
00103115
00006101
00101000
00101000
00100100
00005100
00101000

000050C6
000030E3
00005063
000050C3
000010C6
000030C6
00003063
00001063

66C666CC
6666C6C6
CE66CCCC
CCC6C663
6CCC63CC
C6E366C6
C663C6E3
C6C666C6

66CCFCFF
C6C6FCFF
E663FCFF
6363F6FF
66C6F6FF
63E3FCFF
C663FCFF
66C3C6FC

FFFF6CC6
FFFFCCE3
FFFFCF63
FFFFCF63
FFFFCFC6
FFFFFFC6
FFFFFF6C
FFFFFFCC

66CC66CC
C6E6C6C6
C666CC66
C3C366C6
66CC66CC
C3C6C6C6
CE63CC66
C3C6C6C6

00000010
05000030
56000060
03000030
530000C0
36100031
C6040060
C60300C0

00000000
00000000
03000000
04000000
53000000
30100000
66000000
66000000

00C15C30
00C13C31
00E0EC30
00E13611
00E06663
00C0C634
0040CC34
00C1CC33

11635163
31613131
63503331
11353135
50635163
316435E4
61316350
31353465

51C65333
35E46314
3651E351
61336335
51C36163
616433E3
3653E364
64333365

61CC5363
34C66334
6463C661
31E56336
51C363C3
35E16363
6641C663
3135E566

63C63363
33E36363
E363E661
6333E366
54C66363
63E363E3
3363C6E3
636366E6

51633363
35E46563
E3546654
30656536
11C35466
15313434
13405E50
14E11430

10655313
15316315
3550E310
11316153
51316163
333030E3
6610E363
66356063

00300033
00013131
50503550
10513031
01301133
15303534
53503663
13313033

50335033
10503014
33503350
30313035
113351C3
33333333
E360E363
3363E365

50331033
30313034
63303351
30613431
60C31031
63333010
E3505300
63331001

00000000
00000000
00000000
00000000
00000000
00000000
00000000
00000000

00F00F00
00FFFF00
00FFFF00
00F00F00
00F00F00
00000000
00F00F00
00000000

00FFF00F
00FFF00F
00FFF00F
00000000
00000000
00000000
00000000
00000000

00FFF00F
00FFF00F
F0FFFFFF
00FFF00F
F0FFFFFF
00FFF00F
00FFF00F
00000000

00F00F00
00FFFF0F
F00F0000
00FFFF00
0000F00F
F0FFFF00
00F00F00
00000000

00000000
F00F00FF
F00FF00F
0000FF00
00F00F00
00FF00FF
F00F00FF
00000000

00F0FF00
00FFF00F
00F0FF00
00FF0FFF
F00FFF0F
F00FF00F
00FF0FFF
00000000

0000FF00
0000FF00
00F00F00
00000000
00000000
00000000
00000000
00000000

0000FF00
00F00F00
00FF0000
00FF0000
00FF0000
00F00F00
0000FF00
00000000

00FF0000
00F00F00
0000FF00
0000FF00
0000FF00
00F00F00
00FF0000
00000000

00000000
F00FF00F
00FFFF00
FFFFFFFF
00FFFF00
F00FF00F
00000000
00000000

00000000
00F00F00
00F00F00
F0FFFF0F
00F00F00
00F00F00
00000000
00000000

00000000
00000000
00000000
00000000
00F00F00
00000F00
00F00000
00000000

00000000
00000000
00000000
F0FFFF0F
00000000
00000000
00000000
00000000

00000000
00000000
00000000
00000000
00000000
00F00F00
00F00F00
00000000

000000FF
0000F00F
0000FF00
00F00F00
00FF0000
F00F0000
FF000000
00000000

00F0FF00
000FF00F
F00F00FF
F00F00FF
F00F00FF
00FF000F
00F0FF00
00000000

0000FF00
00F0FF00
0000FF00
0000FF00
0000FF00
0000FF00
00FFFFFF
00000000

00FFFF0F
F00F00FF
0000F0FF
00F0FF0F
00FFFF00
F0FF0000
F0FFFFFF
00000000

00FFFFFF
0000F00F
0000FF00
00F0FF0F
000000FF
F00F00FF
00FFFF0F
00000000

0000FF0F
00F0FF0F
00FFF00F
F00FF00F
F0FFFFFF
0000F00F
0000F00F
00000000

F0FFFF0F
F00F0000
F0FFFF0F
000000FF
000000FF
F00F00FF
00FFFF0F
00000000

00F0FF00
00FF0000
F00F0000
F0FFFF0F
F00F00FF
F00F00FF
00FFFF0F
00000000

F0FFFFFF
F00F00FF
0000F00F
0000FF00
00F00F00
00F00F00
00F00F00
00000000

00FFFF00
F00F000F
F0FF000F
00FFFF00
F000FFFF
F00000FF
00FFFF0F
00000000

00FFFF0F
F00F00FF
F00F00FF
00FFFFFF
000000FF
0000F00F
00FFFF00
00000000

00000000
00000000
00F00F00
00F00F00
00000000
00F00F00
00F00F00
00000000

00000000
00F00F00
00F00F00
00000000
00FF0F00
00F00F00
00FF0000
00000000

0000FF00
00F00F00
00FF0000
F00F0000
00FF0000
00F00F00
0000FF00
00000000

00000000
00000000
F0FFFF0F
00000000
F0FFFF0F
00000000
00000000
00000000

00FF0000
00F00F00
0000FF00
0000F00F
0000FF00
00F00F00
00FF0000
00000000

F0FFFF00
FF00F00F
0000F00F
00F0FF00
00FF0000
00000000
00FF0000
00000000

00FFFF0F
F00F00FF
F00FFFFF
F00FFFFF
F00FFFFF
F00F0000
00FFFF00
00000000

00F0FF00
00FFF00F
F00F00FF
F00F00FF
F0FFFFFF
F00F00FF
F00F00FF
00000000

F0FFFF0F
F00F00FF
F00F00FF
F0FFFF0F
F00F00FF
F00F00FF
F0FFFF0F
00000000

00F0FF0F
00FF00FF
F00F0000
F00F0000
F00F0000
00FF00FF
00F0FF0F
00000000

F0FFFF00
F00FF00F
F00F00FF
F00F00FF
F00F00FF
F00FF00F
F0FFFF00
00000000

00FFFFFF
00FF0000
00FF0000
00FFFF0F
00FF0000
00FF0000
00FFFFFF
00000000

F0FFFFFF
F00F0000
F00F0000
F0FFFF0F
F00F0000
F00F0000
F00F0000
00000000

00F0FFFF
00FF0000
F00F0000
F00FF0FF
F00F00FF
00FF00FF
00F0FFFF
00000000

F00F00FF
F00F00FF
F00F00FF
F0FFFFFF
F00F00FF
F00F00FF
F00F00FF
00000000

00FFFFFF
0000FF00
0000FF00
0000FF00
0000FF00
0000FF00
00FFFFFF
00000000

000000FF
000000FF
000000FF
000000FF
000000FF
F00F00FF
00FFFF0F
00000000

F00F00FF
F00FF00F
F00FFF00
F0FF0F00
F0FFFF00
F00FFF0F
F00FF0FF
00000000

00FF0000
00FF0000
00FF0000
00FF0000
00FF0000
00FF0000
00FFFFFF
00000000

F00F00FF
F0FFF0FF
F0FFFFFF
F0FFFFFF
F00F0FFF
F00F00FF
F00F00FF
00000000

F00F00FF
F0FF00FF
F0FF0FFF
F0FFFFFF
F00FFFFF
F00FF0FF
F00F00FF
00000000

00FFFF0F
F00F00FF
F00F00FF
F00F00FF
F00F00FF
F00F00FF
00FFFF0F
00000000

F0FFFF0F
F00F00FF
F00F00FF
F00F00FF
F0FFFF0F
F00F0000
F00F0000
00000000

00FFFF0F
F00F00FF
F00F00FF
F00F00FF
F00FFFFF
F00FF00F
00FFFFF0
00000000

F0FFFF0F
F00F00FF
F00F00FF
F00FF0FF
F0FFFF00
F00FFF0F
F00FF0FF
00000000

00FFFF00
F00FF00F
F00F0000
00FFFF0F
000000FF
F00F00FF
00FFFF0F
00000000

00FFFFFF
0000FF00
0000FF00
0000FF00
0000FF00
0000FF00
0000FF00
00000000

F00F00FF
F00F00FF
F00F00FF
F00F00FF
F00F00FF
F00F00FF
00FFFF0F
00000000

F00F00FF
F00F00FF
F00F00FF
F0FFF0FF
00FFFF0F
00F0FF00
00000F00
00000000

F00F00FF
F00F00FF
F00F0FFF
F0FFFFFF
F0FFFFFF
F0FFF0FF
F00F00FF
00000000

F00F00FF
F0FFF0FF
00FFFF0F
00F0FF00
00FFFF0F
F0FFF0FF
F00F00FF
00000000

00FF00FF
00FF00FF
00FF00FF
00F0FF0F
0000FF00
0000FF00
0000FF00
00000000

F0FFFFFF
0000F0FF
0000FF0F
00F0FF00
00FF0F00
F0FF0000
F0FFFFFF
00000000

00000000
00000000
00000000
00FFFF00
00FFFF00
00000000
00000000
00000000

00000000
00000000
00000000
F0FFFFFF
F0FFFFFF
00000000
00000000
00000000

00000000
00000000
00000000
00000000
00000000
00F00F00
00F00F00
00000000

00F00F00
00FFFF00
00FFFF00
00F00F00
00F00F00
00000000
00F00F00
00000000

00FFFF00
F000000F
0FF0FFF0
0F0F00F0
0F0F00F0
0FF0FFF0
F000000F
00FFFF00

00105003
01105101
11003100
00005101
00505001
01501100
15105300
01101100

00000000
00000000
00000000
00000000
00000000
00000000
00000000
00000000

0000650C
0000330E
00003506
0000350C
0000610C
0000630C
00003306
00003106

00000000
00000000
00000000
00000000
00000000
00000000
00000000
00000000

00000000
00000000
00000000
00000000
00000000
00000000
00000000
00000000

00000000
00000000
00000000
00000000
00000000
00100000
00001000
00000000

00000000
00000000
00000000
00000000
00000000
00000000
00000000
00000000

00000000
00000000
00000000
00000000
00000000
00000000
00000000
00000000

00000000
00000000
00000000
00000000
00000000
00000000
00000000
00000000

00004034
00001014
00001010
000000C1
000000C1
000000C4
00000041
000000C1

4034616E
411441C6
C454C5E6
C454C1E6
445350CE
44C11151
C4416330
C4446100

1051E1CE
1551E636
CE00C004
66015100
54311011
14615010
65111100
10300100

00000000
01000010
00003000
00000000
00000011
00100000
00001010
00000000

10C30110
10C40310
10601600
00C51300
00C51630
00E03311
1160E600
10356315

001051CC
101065C3
51106163
1011E063
103551C6
101034E4
50516151
10353135

53551031
63141015
C6115110
63555135
66631061
C3E33464
E6666631
C3CC6615

50C6C6CC
11C1C6CC
5163CC66
3163C6C6
506363C6
35E563E6
E363CCCC
31C3C633

63661063
63E363C3
EC61E663
3361C366
503363C6
33616433
6E503361
303530C6

63CC5311
63633510
C664E611
6363E366
60C66366
35E363E3
E6516663
C6636063

00100010
00000000
51000000
11000000
51110010
33110011
66005000
64551101

00C5CCCC
00C1CCC6
0061FF6C
0031FCFF
0030F6FF
0010F6FF
0010FEFF
00C0FCFF

66CC66CC
C6C6C6E6
C666C666
CCC6F6FF
FFFFFFFF
FFFFFFFF
FFFFFFFF
FFFFFFFF

63FF6FC1
F6FF6CC1
FFFF6CC3
FFCF61C6
FFCF60FF
FFECC3CC
FFCCFCCC
FFC6CCCC

CCFC3C66
CCCCCC63
CFCCCC56
FCF6C636
6CCFCCCC
FCF6F6C6
FECCFC6C
FCC6CCCC

006051C3
111134E4
5114C554
64153115
63545054
E6143114
E6016101
E3013015

63C663C6
63E365E4
E361C663
60666333
50C663C6
30E363E3
C066E363
61666363

63C663C6
65E363E5
E663C663
63636363
63C663C6
33E363C3
C663E663
6363E366

63C601C1
65E355C5
E66166E6
336366E6
63C663CE
63E363C6
C663C653
636666E3

16C166C6
54C14631
1EE41E50
56E45660
54C546C1
54C446C1
33646EE4
34E6C6E4

53636166
633435E3
EE516363
66363463
E6C551C6
E6E433E0
3E31E661
C6613335

51C6CCFC
33C3F6FC
6360CCCC
6363F6FF
333363FC
6334C3FC
C6633666
6163E3F3

66C663C6
C6C3C3C6
CF63C663
CCC6C6C6
66CC66CC
CFC6C6C6
FF6FCC6C
CFC6C6C6

00301000
01101100
13305100
11101000
01301000
11100100
51101100
14100100

00000000
00000000
00000000
00000000
00000000
00000000
00000000
00000000

00000000
00000000
00000000
00000000
00000000
00000000
00000000
00000000

00000000
00000000
00000000
00000000
00000000
00000000
00000000
00000000

00000000
00000000
00000000
00000000
00000000
00000000
00000000
00000000

00100000
00100000
10001000
00000000
00100000
00100000
10001000
00000000

00000000
00000000
00000000
00000000
00000000
00000000
00000000
00000000

00000000
00000000
00000000
00000000
00000000
00000000
00000000
00000000

00000000
00000000
00000000
00000000
00000000
00000000
00000000
00000000

00000050
00000050
00000000
000000C0
000000C0
000000C0
00000000
00000000

44C41101
44C40000
C5545000
C4C41100
44CE5400
34C44400
C4446410
31C43431

00610100
00110100
10313300
00511400
00635131
10643134
E3316300
33616400

00100010
00100010
00000000
10010030
105010C6
111061E6
0050E363
00603363

10616313
01316011
1110E511
65C36635
CCFFFFCF
C3C6CCCC
C6663350
63330100

10635163
106035C4
5050E363
10313463
136163C6
3631C4C3
515066E3
003163C6

63FC6663
C3C6CC66
C4C6CC66
C6CCCCC6
63FCC6FC
C6C6CCFC
CCCCFCCC
C6CCCCFC

31330050
01000110
11005510
13106435
16305033
3C113131
EC106150
EC151035

50336136
00616633
1060CC66
016566C6
10315035
15101010
33001010
34000031

50C653C3
01306533
66103353
36113035
10101063
10101061
15011001
51110110

63331010
63330110
E3515100
63350000
11530000
35110000
531010C0
110130FC

00C1FCFF
00C5FFFF
00C1FFFF
31C6CCC6
E0FC6CCC
F4CFC6CC
FFCCFCCC
FFCCFCFC

FFFFFFFF
FFFFFFCC
FFCCCCC6
C6C6CCCC
6CCFCCFC
CCCCF6CC
FC6CCFCC
F6F6CCCC

C6FCCCCF
CCCCF6F6
FCC6CF6C
FCF6F6FC
6CFF6CCC
CCF6F6FC
FE6CCF6C
FCF6F6CC

6CFFC6CF
FCF6CCFC
CFCCF6C6
CCCCCCFC
CCFCCCFC
F6CCF6CC
CFC6CFC6
CCFCC6FC

66115034
C6155111
CC336541
C6E66155
6CCC11C3
CCC613C1
FCEC5341
C6CC33E5

50C663C6
356464E3
6151E366
C1116363
56C166C6
14C4C6C3
5EE1EE63
16E13635

63C666C6
63E363E6
E663E663
66636666
63C663C6
63E3C6C3
C666E6E3
66636366

66C663C6
C6C363E3
C666EC66
C3C666C6
66CC63C6
C3C666C6
EC66CE66
C6C366C3

E6CEE4C5
E6C6E631
CEE66456
63C6E4E5
66C653CE
63E3E3C3
C6E3C6E3
C3636366

14C56363
35E46633
64E3E663
6663E363
66C566C6
E6E6C6E3
EE66EE66
C6C6E666

63C663CC
65E333C3
C363C663
63C6C666
63C663C6
66E36666
C663C6E3
6660E3C3

F6CF6FCF
6FEFC6F3
F3F6F666
C6CFCFF6
66CF6FCF
66F3CFF6
E666F66F
C3C6F6F6

11300000
15110100
53105000
34010000
11511000
34110000
63005000
34111000

00000000
00000000
00000000
00000000
00000000
00000000
00000000
00000000

00000000
00000000
00000000
00000000
00000000
00000000
00000000
00000000

00000000
00000000
00000000
00000000
00000000
00000000
00000000
00000000

00000000
00000000
00000000
00000000
00000000
00000000
00000000
00000000

00100000
00100010
10001000
00000000
00510051
00101110
10001000
10001001

00000000
00000000
00000000
00000000
00000000
00000000
00000000
00000000

00000000
00000000
00000000
00000000
00000000
00000000
00000000
00000000

00000000
00000000
00000000
00000000
00000000
00000000
00000000
00000000

00000000
00000000
00000000
00000000
00000000
00000000
00000000
00000000

40C45435
41C43501
C1546300
C1C4C104
10C44401
00C44411
0044C401
00C41400

00503301
00303501
00506300
00506301
00303353
00303310
50501300
31353101

00C053C3
00303364
30513531
30353136
00315031
00101110
00005051
00000010

63130010
34110010
13001010
00000001
00101050
00101100
53101010
31551101

001050C6
101011E1
11011040
10000010
10311011
01100010
50101010
01010101

66FCCCFF
C6C6CCFC
CE66CCEC
61C6C613
10C66611
01E13611
1000E316
1000E0CC

CFCE1163
CC631130
15001111
00000065
001010F6
101031C6
1100E06C
6635C1CC

10101063
01001034
31103131
63C31311
CFFC3630
CCC66611
FCCC1310
FCFF3600

11331050
15611110
E3143300
31351401
10611151
51103501
51505111
10313455

0050C6FF
00C4FCFC
E1C6FFCC
C1FCCCCC
61FCCCFF
C1FCFCFC
C6CCFCCC
C5E6C3F6

CCFFCCFC
CCCCF6CC
FCFCFFC6
FCF6FCFC
CCFF6CFC
FCCCFCCC
CF6CFCC6
F6C6CFFC

6CCFC6FF
FCF6CCCC
FC6CFFC6
F6F6CCCC
6CCFCCFC
FCFCF6FC
FC66CF6C
F6F6F6F6

C6FCC6FC
FCF6CCFC
CF6CFFF6
CCFCCCCC
C6CFC6FF
CCFCCCF6
FCC6F6CC
CFCCFCC6

C6FCCCFC
CCCCCCCC
FECCFCC6
FCC6CCCF
C6FF6CFC
CCF6F6CC
FC6CCFC6
FCF6CCFC

CCFC66C3
F6CCC6C6
FFC6CCE6
CCFCC6E6
CCCFCCCC
F6F6CCC6
CFCCFE6C
F6CCFCCC

54C356C1
16C41661
1EE15EE0
14E556C4
11C144C5
33C456C4
CEE66E41
C6C654E4

66CC66C6
C6E3C6E3
CE63C666
CC6066C3
56C366CC
36E066C3
6E60CC63
366566C6

63CC66C6
66C6C3E6
C666EC63
C6C3C3C6
63C666CC
C3E6C6C6
EC63EC66
C366C3C6

66CC66C6
C6C3C3E6
C663EC66
C6C6C366
66CC66C6
C6E6C6C6
CC66E666
C663E3C6

63CC66C6
C6C6C6C6
CC63C666
C6C6C6C6
66CC66CC
C6C6C6C6
C6C6C666
C6F6C6C6

63CC63CC
66E363C3
CC66E6E3
6663E363
66CC63C6
C6C666C3
CE66C653
C6C666C3

66C63FCF
C336F3F6
CCC6ECC6
C3C666CC
63CCC6CC
63C3C6CC
EC66CC66
63C6C6CC

50130000
31100000
65115000
30350000
10630100
30330500
30311300
51650400

00000000
00000000
00000000
00000000
00000000
00000000
00000000
00000000

00000000
00000000
00000000
00000000
00000000
00000000
00000000
00000000

00000000
00000000
00000000
00000000
00000000
00000000
00000000
00000000

00000000
00000000
00000000
00000000
00000010
00000000
00001000
00000000

00501050
00010101
50105010
00015110
00300051
10311511
50303150
00155031

00000000
01100000
10000000
00000000
00100000
10100010
51001000
11000000

00000000
00000000
00001000
00000000
00100010
00100050
10003000
00000000

00000000
00000000
00000000
00000000
00000000
00000000
10000000
00000000

00000000
00000000
00000000
00000000
00000000
00000000
00000000
00000000

10C44450
40C41111
C014C111
10011114
10544434
00C14414
3040C411
10C4C410

10311010
11111131
50003151
00113111
10355151
11613431
51501350
10315031

00501010
51E5C636
3151C666
60110060
10530010
11110010
63011010
10000010

10635131
10313511
6C113151
66151131
50331051
10110151
11015110
10101101

10301030
11110101
51005010
31110101
51331010
30611101
11513510
10313151

001050F6
101010E5
10003063
10003033
00105033
00103134
10105350
01101135

6CC666C6
66E463C3
3660E663
303333C3
61C360C6
30646333
3333E563
65353335

CCFFCF36
C3C3C6E6
CC333130
63050000
53100010
53100010
15001000
01000000

10636163
01103163
3650E363
1035E336
00316166
00103133
10005011
00000010

513563FF
1531F6CC
1360CCC6
01C1FCCC
10C36CFC
31C3FCF6
6363CECC
61F6FCCC

CCFFC6FC
CCF6CCCC
FCCCCE6C
FCC6FCF6
C6FFC3CF
CCF6CCFC
FC6CCF6C
FCF6F6CC

6CCFCCFC
FCF6F6CC
CF6CFFC6
CCFCCCFC
CCCC6CCF
F6FCF6F6
CF6CCF6C
FCF6FCF6

C6FFC6FF
CCF6CCF6
FFCCFCCC
F6C6FCC6
6CFF66FF
F6F6FCF6
CFCCFCC6
C6CCCFCF

C6CFCCFC
CCFCF6CC
F6C6FCC6
CCCCCCCF
C6FCC6FC
CCFCCCCC
FCC6FEC6
CFCCCFFC

6CFCC6FC
FCF6CCFC
FCFCFCCC
CCCCCCFC
6CCFCCFF
FCF6F6FC
CFCCFFFC
F6C6FCFF

6CC656C3
CCE63534
FFEC6361
FFECC6E6
FFFF6CC6
FFFFCCE3
FFFFFF66
FFFFCCC6

56C663CC
66E363C6
EE66EC63
C363C363
63C666C6
63E6C3E6
E663CC63
E6C366C6

66C666CC
C6E3C6C3
E6E6C616
C66666C6
63C666C6
C366C3E6
CE63CC66
C6C6C366

66CC63C6
C6E633E3
CF66C660
E3C63333
66FC63C3
C6C3C633
C666CC63
C666CC66

6CCCC6CC
C3F6C3F6
CC66CC66
63C6C6C6
63CC66CC
60C3C6C6
3360CCC6
3365636C

66CC66C6
C6C666C6
CC66C666
C6C6C6C6
66CC66CC
F6C6C6C6
CC66CFC6
C6CC666C

63CC66CC
63C6C3C6
CC63C666
C6C3C3C6
66CC66CC
C6C6C6C6
C6E6C666
F6C6C6C6

10630000
15E01500
13503600
14303400
11C13301
05616301
1330E300
54316405

00000000
00000000
00001000
00001000
00100050
00300010
50005110
00100001

00000000
00000010
10001000
00000000
00500050
00501050
50005110
50300035

00100000
00000050
00001000
10000000
00100030
11100151
50505550
30010151

00100010
00100010
10001000
01000001
00310050
11101030
31503010
30353131

10331053
10313131
30305110
11313431
10631133
31313530
35543551
31353135

10300050
31511010
55105000
30351000
10511050
35300151
63313300
31351000

00301030
10100010
31003130
00301001
50535030
10303131
31306350
00103011

10110000
31111010
31005100
10510010
10311055
31115010
35503154
10353111

00000000
00000000
00000000
00000000
00000000
01000000
01000000
00000000

00C44451
10C43415
5044C454
1031C134
005144C4
00614444
0040C414
00C1C411

11331133
35141131
63011010
01000000
00000030
00101011
10103350
01313115

00100011
01100011
10005000
00000111
00501030
11110111
11105100
30111011

10311050
11100111
50105100
11100110
10311031
01111101
31005110
11100101

10311163
11511131
51101110
10113011
003151C3
101011C4
11011000
10011110

10515033
31310010
51000000
10000000
11000030
C6C6C6C6
E366CC66
01305451

11636133
00101011
00005010
00001011
51330030
F6FC6C11
E363FC56
34151164

00100010
00100011
11001110
00001010
00100010
01100010
10000010
54100100

10100010
00100010
10001000
10001000
00110010
01100000
11015110
10010000

60FF6CFC
30C3FCCC
5060CFCC
0030C3CF
000060CF
000030F3
10100060
00010060

66CFCCFC
FFF6F6CC
CCCCFFC6
FCF6C6FC
6CCFCFCC
FCF6F6FC
FF6CCFC6
C6F6FCFC

C6CFC6CF
CCFCCCFC
CF6CCF6C
F6F6F6F6
6CFF6CFF
F6C6CFC6
CFCCFCCC
F6CCCCCC

CCFCC6FC
F6F6F6CC
CF6FFFC6
F6C6CCCF
6CFFC6FC
FCF6F6CC
CF6CFFC6
F6F6CCF6

C6FCC3CF
FCCCCCFC
CCCCFCC6
CCCCCCCF
F6FCF6FC
CCFCF6CC
FCCCFFC6
F6C6CFCC

6CFFFCFF
F6F6FCFF
CFFCFFFF
CCFCFFFF
C6FFFFFF
CFFCFFFF
FEFCFFFF
FCFFFFFC

FFFFCCCC
FFCCF6CC
FFCCCFCC
FFFCF6F6
CFFFC6CF
FFF6CCFC
FF6CFCC6
FCF6CFCF

66C663C6
C6C666E6
CC66C663
F6C663C3
CCCC66CC
F6FCC6C3
F6C6F666
CCFCF6C6

63C666CC
C6E666C6
C666EC66
C3C6C3C3
66CC66CC
66C6C6C6
EC66EC66
C3C6C6C6

36CC63CC
C6C3C6C6
C666C666
66C6C6C6
66CC66CC
66E6C6C6
C666CE66
C6C6C6C6

103563CC
663333C6
EC33E363
C6633365
66CC1333
F6C63300
CCC63600
C6C65600

66C66CCC
CCECC6CC
CEC3CC66
66CCF6C6
60C666FC
30C3F6C6
0030CCC6
0030C3C6

66FC66CC
F6C3C6C6
CE66CFEC
CCF6C6C6
64CFC6CE
6CF6C3C6
F666F6C6
66C6C6CC

