00000000
00000000
00000000
00000000
00000000
00000000
00000000
00000000

00000000
00000000
00000000
00000000
00000000
00000000
00000000
00000000

00000000
00000000
00000000
00000000
00000000
00000000
00000000
00000000

00000000
00000000
00000000
00000000
00000000
00000000
00000000
00000000

00000000
00000000
00000000
00000000
00505500
00505555
00000055
00000055

55050000555500005555000050550000
55550000555500005555000055550000
00550000000000000000000000000000
00000000005055000000000000000000
00000000050000000500000000000000
00000000050000000000000000000000
00000000000000000000000000000000
00000500000000000050050000500500
50555500005555000055550000505500
00000500000000000000000000000000
00505555000000000000000000000000
00000000000000000000000000000000
55550050005000000050000000000000
00000000000000000000005000000050
00000000050000000500000055555500
55555555555555555555550555555505
00505505005055050050550500500000
55500000000000000000000000000000
00005505005055050050550500505555
00555555005055550000555500005555
55550500555505005555050055552501
55557551555577775500d77c5500d77c
00000000000000000000000000000000
00000000000000000000000000000000
00000000000000000000000000000000
00000000000000000000000000000000
00000000000000000000000000000000
00000000000000000000000000000000
00000000000000000000000000000000
00000000000000000000000000000000
00000000000000000000000000000000
000000000000000000000050000011c7
00500000000000000000000000000000
000000000010000011c71517cccccccf
00000000000050000000000000000000
00000000000000000000000077111105
00000000000000000000000000000000
00000000000000000000000000000000
00500500000000000000000000000000
00000000000000000000005000000055
00000000005505000055050000550500
50550000550500005505000055050000
00000000000050000000505500005055
00005011000010110000101100005011
00000050000000000500000005000000
51000000510000005105005505555555
55555505555555055555555555555555
55555555555555055555550550555500
00000000000000000000000000000000
00000000000000000000000000000000
00000055000050550050555500505555
00555555005555550055555500555555
5500707c550050510500205705002057
05005057000000050000000000000000
00000000000000000000000000000000
00000000000000000000000000000000
00000000000000000000000000000000
00000000000000000000000000000000
00000000000000000000000000000000
00000000000000000000000000000000
00000000000000000000000000005055
001097c9001097c95091cccc1199c9cc
000011c70075cccc71cccccccccccccc
cccccccccccccccccccccccccccccccc
cccccccfccccccfccccccccccccccccc
cccccccccccccccccccccccccccccccc
77111105ffcccc5cfcffcccccccccccc
cccccccccccccccccccccccccccccccc
0000000050050000cc1c5171ffffccfc
fffcfffffffcffffcccccccccccccccc
00000055005571cc77ccccffffffcfcc
ffcfccccffcfcccccccccccccccccccc
55050000c7575505ffcccc57cfcccccc
cccccccccccccccccccccccccccccccc
000050110010055555750150cccc0750
ccff0c00ccff0c00cccc7cc7cccccccc
05555555000055550500555500005555
00005055000050557c005505cc050000
50555500055055000500000005000000
00000000000000000000000000000000
00000000000000000000000000000000
00000000000000000000000000000000
00555555005055050050550500000000
00000000000000000005000000550000
00000000000000000000000000005055
00005055000050550000505500000005
00000000000000000000000000000000
00000000000000000000000000000000
00000000000000000000000000000000
00000000000000000000000000000000
00000010000000100000509100001599
00009199000091990000919900009199
999999c9999999c99999999999999999
99999999999999999999999999999999
9cc9cccc9cc9cccc9999cccc999999c9
9999999c9999c9999999c99999999999
ccccccccccccccccccccc9cccccccccc
999999c9999999999999999999999999
cccccccccccccccccccccccccccccccc
ccccccccc9ccccccc9ccccccc9cc9ccc
cccccccccccccccccccccccccccccccc
cccccccccccccccccccccccccccccccc
cccccccccccccccccccccccccccccccc
cccccccccccccccccccccccccccccccc
cccccccccccccccccccccccccccccccc
cccccccccccccccccccccccccccccccc
cccccccccccccccccccccccccccccccc
cccccccccccccccccccccccccccccccc
cc7c0050cc7c0050cc7c00559c590550
cccc7c55cccccc7ccccccc7ccccccfff
05000000050000000500000005000000
00000000000000000000000005000000
00000000000000000000000000000000
00000000000000000000000000000055
00500500005005000000000000000000
00000000000000000000000005000055
00005005000050050000555500000055
00000550005055500050555005505755
00000000550000005500000077050000
7f050000570000000000000000000000
00000000000000000000000000000000
00000000000000000000000000000000
00009199000091990000919900009199
00001111000010110000001100000011
99999999999999999999999999999999
11999999919999191191991111919911
99999999999999c9999999c9999999c9
997997cc79ccccccc7ccccccc7cccccc
99999999ccccccc9ccccccc9cccccccc
ccccffccccffffcfccccffffccccffff
c9cc99c9cccc9999cccc9999cc9c9999
cc9c9999cccccccccccccccccccccccc
ccccccccccccccccccccccccc9cccccc
cccccccccccccccccccccccccccccccc
cccccccccccccc9ccccccc9ccccccc9c
cccccc99cccc9c99cccc9c99cccc9c99
cccccccc9ccccccc9ccccccc9999c9cc
cc99cccccc9999c99999999999999999
cccccccccccccccccccccccccccccccc
cccccccccccccccc9999cccc9999cccc
ccfcfcffccfccffcccfccffccccccccc
cccccccccccccccccccccccccccccccc
5c0000507f0500507f050050ff570055
fc7c0555cccc5c55cccccc55cccccc55
00005055050050750500507505005055
05005055050055750550557505505575
01005555575555555755555557555555
55757757577777575775cc775775cc77
55555755555555555555555555555555
55555555555555005555050055550500
00000000000000000000000000000000
00000000000000050000000000000000
00000000000000000000000000000000
00000000000000000000000555000000
00000010000000c5000000f7000000f7
000050ff000070ff0000c5ff0000f1ff
cc111911cc111111cf171111cf171111
ff7c1111ffcc1711ffcc1c11ffcfcc11
c7ccccccc7ccccccc1ccccccc1cccccc
c1cccccc71ccccfc71ccccffc7ccccff
7777fcff7770fcffccc7fcccccc7fccc
ccccccccccccccccffffccccffcfcccc
cfcfccccffcfccccfccfccccfccfcccc
ccffccccccffccccfcffccccfccfcccc
ccccccccc9cccccccccccccccccccccc
cccccccccccccccccccccccccccccccc
cccc9c99cc9c9999cc9c9cc9cc9c9cc9
cc9c9c99cccc9c99cccc9c99cc9999c9
999999999c9999999999999999999999
c9ccccc9c9ccccccc9cccccccccccccc
999999c9999999c9c99999ccc99999cc
cccccccccccccccccccc9c99cccc9999
cccc9c99cccc9c99cccc99c9cccc99c9
9c9999999999cccc9999c9ccc99c9999
cccccc55cccccc05cccccc05cccccc05
cccccc55cccccc55cccccc55cccccc71
00505555000055550000505500005055
0500505505005005050050057c005005
5755c77c55557b7c5555b5775555b577
55555575005555750050555500005055
77c7570077cc5755777c5500777c5500
77570500775505005755050055505550
00000000000000000000005500000000
00000000000000000000000000000000
55000000050000500500000000000000
00000000000000000000000000000000
0000f1ff0500f1ff5005f7fc5555f7cc
0000fccc0000fccc0000cccc0000cccc
ffcfcc11ffcfcc51ffcf7c51ffff7c11
ffcf7c11ffcf7c11ffcf7c11fccf7c27
c7ccccffc1ccccff75ccccff15cccccc
15c7ccfc15c7ccfc11c7cffc71ccffcc
ffcfccccffcfccffffffccffccffffff
ffffffffffffffffffffffffffffffff
fccfccccffffccccffffccccffcfcccc
ffcfccccffcfccccffcfccccfccfcccc
cccccccccccccccccccccccccccccccc
cccccccccccccccccccccccccccccccc
cc9999c9cc9999c9cc999999cc9c9999
cccc9999cccc9999cccc99c9cccccccc
cccccccccccccccc99c9cccc99c9cccc
9999cc999999cc999c9999999c999999
cccc9999cc9999999c9999999c999999
999999c9999999c99999999999999999
c99c9999c9999999c999c999cc99cc99
9cc9cccc9cc9cccc99c999c9999999c9
cccccc71c9ccccffc9ccccffc9ccfcff
99ccfccf99ccfccfcccccccccccccccc
7c005005cf055555cf055055cf515555
cccccc51cccccc51cccccc57fccccc55
00005055005000550050550505505505
55555555555555555555051055550055
555055500050555500555575507777c7
107777cc107777cc157777cc557777cc
00000000000000000000000000000000
00000000000000000000000000000000
00000000000000000000000000000000
00000000000000000000000000000000
0000cccc0000cccc0000cccc0000cccc
0000cccc0000c7cc0000c7cc0000c1cc
cccf7c77cccf7c77cccc7c22cccc1751
cccc1151cc7c1105cc7c1105cc7c1105
11c7fcff11c7fcff5571fcff0010fcff
0010fcff0050f7ff0050f7ff0000f1ff
ffffffffffffffffffffffffffffffff
ffffffffffffffffffffffffffffffff
cccfcccccccfccccffcfccccffcfcccc
ffcfccccffffccccffffccccffffcccc
cccccccccccccccccccccccccccccccc
cccccccccccccc9ccccccc9ccccccc99
cccccccccccccccccccccccccc9cc9cc
cc9999cc999999cc999999cc99999999
9c9999999c9999999c9999999c9999c9
9c9999cc9c99c9cc9c99c9cc9999cccc
99999999999999999999999999999999
999999999c9999999c9999999c9999c9
c999c999c999c9999999c999c999c999
cc999999999999999999999999999999
ccccccfcccccccfccccccccccccccccc
ccccfccfccfcffcfccfcffcfccfcffcf
ffcfcc1cffcfcc1cfccccc9ccccccc99
cccc9c99cccc9999cccc99999cc99999
9719555597195555cccc1c55c9cccc55
cccccc5ccccccc7ccccccc7cccfcffcc
557577775575777755557555555b5555
557b5555557557555575575559555555
00000000000000000000000000000000
00000000000000000000000000000000
00000000000000000000000000000000
00000000000000100000001500000015
0000c1cc000070cc000070cc000010cc
000000c7000000c10000007500000075
cc7c1199cc7c1199cc7c1199cc771199
cc771119cc171111cc171111cc171111
5100f1ff1111f7ff1111f7ff111177ff
112172c7211711112711111127111111
ffffffffffffffcfffffffcfffffffcf
ffffcfccc7ffcfcc5171cfcc5171cfcc
ffcfcccccccfcccccccfcccccccccccc
ccccccccfccccccccccccccccccccccc
cccc9c999c9999999c9999999c999999
cc999999cc999999cc999999cc999999
99999999999999999999999999999999
99999999999999999999999999999999
999999c9999999c9999999c9999999cc
9999999c999999999999999999999999
9c9999c99c9999999c99999999999999
99999999999999999999999999999999
9999999999999999999999999999c999
9999c7999979c79c9977c7cc9977c7cc
c9fcffcf99ccffff99ccffff99c9ffff
99c9ffff99c9ccfc99c9ccfc99c9ccfc
9c9999c9cc999999cc999999cf9c9999
cf9c9999cf9c9999cfcc9999cfcc9999
c9cccc9f99cccc9c99cccc9c99cccccc
9999cccc9999cccc9999cccc9999cccc
17555555775555557755555577515575
cc5c5577cc7c5575cccf5555cccf5555
00000000000000000000000000000000
00000000000000000050555555777777
00000050000000500000005000000050
00000050000000000000000005000000
05000015550000155500001055000010
5505001050050015505550c1001575cc
77171127779971771191771711917717
11997911cc999999cc999999cc999919
12111111121151110050111100501111
00005155110051059911515591115505
1150cccc111171cc1111157111111571
11515515505150055505000055050050
ccccccc9ccc79c997797999977979999
91999999919999999599999991999999
cc999999999999999999999999999999
99999999999999999999999999999999
99999999999999999999999999999999
99999999999999999999999999999999
99999999999999999999999999999999
99999999999999199999999999999999
99999999199999991111999911119999
511591c911159177111191c9119199c9
9977ccccc9c7ccccccc7ccccccc7cccc
cccccccccccccccccc999999cc999999
99c9cccc99c9cccc9999cccc9999cccc
9c99c9cccc9999cc9999999c99999999
ffcf9999ffff9999ffcfcc99ffcfcc99
cccccc99cccccc99cccc9999c9cc9999
9999c9cc999999c99999999999999999
999999cc99c9cccc99cccccc99c99c99
c7cc05509cc90c00ccc95c55ccc95c55
7ccc9c551cc79c51ccc19c59cc999c9c
5577777777cc7777ddcd7c77dccc7777
cc777777cc777777bb7b7777bbbb7717
05000000070000005c0000005c000000
57000000570000000700005005000070
001575cc0015cccc0010cccc50c1cc9c
75cccccc75cccccccccccccccccc99cc
cc9999199c999919cc999c99c9999999
cc999999cc999999cc9999999c999999
91115505991111159999995199999911
999999119999991199999911c9999919
55050050111515111111111111111199
11111191111111911111111111111115
91999999999999999999919999199199
99199199991991999901919911051099
99999999999999999999999999999999
99999999999999999999199999991991
99999999999999999999999999999999
99999199999991999999119999991191
99999999999999999999999999999999
99999999999999999999999999999999
119199c9999999999999999999999999
99999999999999999999999999999999
cc999999999999999999999999999999
99999999999999999999999999999999
99999999999999999999999999999999
99999999999999999999999999999999
c9cc999999cc999999c9999999999999
9999999999999999999999999999c999
99c99c999999c99c99999c9c91999999
919999999199999999999999999999c9
cc999c9cccc99c9ccccc9cc9c9cc9cc9
99c99ccc99c99ccc99c99ccc9c999cc9
bb5b5500bb5b5500bb7b0500bb7b0500
77c70700555505005555050000000000
000000c0000000c0000000c0000000c1
0000009c0000109c0000109c000070c9
cccccccccccccccccccccccc9cc9cc9c
11c9cc9999999c9999999c99cc999999
9c9999999c9999999999991999999919
9999991999999999999999999991c999
c99c9199c99c9199919c199971991911
11999911119179551191795511111155
19111155191111559911115119111111
11111111111151551111515511115155
51551091515510915511559115110195
11110190111151151111511511115115
99991991999919919991191199911911
19111911111119111111191111111111
99911111999111119991191119111911
11111111111111111111111111111111
99999999999999999199199191191191
11111111111111111111111111111119
99999999999999999999999999999999
11999919111111111111111111111191
99999999999999999999999991999999
91999999999999999999999999999999
99999999999999999999999999999999
99999999999999999999999999999999
9999999c9999999c9999999999999999
99999999999999999999999999999999
99999999999999999999999999999999
99991991999911919999119199991199
99999c7599999c7599997c559999c951
9999c9579999c95c9999c95c9999c95c
00505505507577555075775577cccc77
ccccddcd7777ccccbbbb7777bbbb7777
000071cc0500c7cc0500c7cc0510cccc
0775cc1c5cc1cc1c57c79c1957c79c19
9c9999191c9999991c99999911999999
119999c9919999999999999999999999
11119999111111911111119119111191
9c999911999999119999991199999911
11515555195100551951005599115505
99111105111111551111115111111151
11115555111151151111511511111111
11111111111111111111111111111111
11111111111111111111111111111111
11111111111111111111551111115511
11111111111111111111111111111111
11111111111111111111111111111111
11111111111111111111111111111111
11111111111111111111111111111111
11111119111199191111991911111111
11111111111111911111119111111191
11111199111191991111919911119999
99999999999999999999999999999999
99999999999999999999999999999999
99999999999999999999999999999999
99999999999999999999999999999999
99999999999999999999999999999999
99999999999999999999999999999999
99999999999999999999999999999999
999911c9999911c9999911c999991191
99991991999919199999991999999919
9999795c1999791c1999791c17917c1c
77777c7c77777777727f7777727f7777
5bbb7b77555555557755055077550550
cc0c5050cc5c50557b77550055c77c05
55159911551599915595999955959999
559599c9559199c9509999991099999c
99999999999999999999999999999999
9c99999999999999999c999999991191
99999911999999119999991199999911
99999911999999119999991199999919
99191111999911119999191199991911
99999911919999111199991111111111
11111111111111111111111111111111
11111111111111111111111111111115
11115511111155151111551511115515
11111515115110151151501011010010
11111111111111111111111111111111
11111111111191111111911111119111
11111111111111111111111111111111
11111111111191991111919911199199
11111199111111991111119111111191
11111991111191991911919999199199
99999999999999999999999999999999
99999999999999999999999999999999
99999999999999999999999999999999
99999999999999999999999999999999
99999999999999999999999999999999
99999999999999999999999999999999
99999999999999999999999999999999
99999999999999999999999999999999
99991919999919119999111199991111
99991111991911119919111199191111
72ff7d2772ff7f5772ff7f5d72ff7f5d
22f87f2f21f87f7f2188782f2188782f
55c77c0575dcdd07c7dccc077bc77c05
bb777705bb777705bb575500bb5b0500
1099999c909c779c707c7797c07c7c17
7077ff177077ff1710d78f1750f7ff17
99991191999911919919119111111199
50101199501011995515119171111191
99999919999999999999999999991991
99991991999919919999119199991111
11111111991911119919111199991111
99991111999911111911111199991111
11111115111151501111510011111105
11111101111111011111111111111111
11010010110500101100001005000010
05000015050000150000001150501011
11119111111111111111111111111111
11111111111111111111991911119919
11199199111991191199999911999991
91999991919999919999999991999999
99199199919199199999991999999919
99999919999999199999999999999991
99999999919999991199999911919999
11919999119199991191999911119999
99999999999999999999999999999999
99999999999999999999999999999999
99999999999999999999999999999999
99999999999999999999999999999999
99999999999999999999999999999999
99999199999991999999919999999199
99191111991911119999111199991191
99991199999911999999199999991999
2188782f2188282f2188282f2187282f
21872f2f21872f2f11872f2f11872f28
bb5b5555bb5b5555557555c7505575c7
005075c7555577c7555577c757bb75c7
05f7ff1705f7ff1757ffff1727ff8f72
ddff7f72fdff7f71fdff7f71fd8f2891
7799119177991191c799199997991991
97999991999999999999999999999999
99991111999911119999191199991911
99991111999951119999511111995915
99991911999919119999191191991111
11995111111155151111551551555510
11111111111111111111111111111111
11111111111111111111111111111111
15101111151011111111111111111111
11111111111111111111111111111111
11919919119199191191999911999999
11999999119999991199999991999991
99999999999999999999999999999999
99999999999999999999999999999999
99999919999999199999999999999999
99999999999999999999999999999999
11119999111199991111999999119999
99999999999999999999999999999999
99999999999999999999999999999999
99999999999999999999999999999999
99999999999999999999999999999999
99999999999999999999999999999999
99991199999911999999999999199999
99199199991991999919919999199199
99999999999999999999999999999999
99999999999999999999999999999999
11872828118728281987277711872777
11872727117727571177275711872757
