
00000000
00000000
00000000
00000000
00000000
00000000
00000000
00000000
 
11111111
11111111
11111111
11111111
11111111
11111111
11111111
11111111
 
22222222
22222222
22222222
22222222
22222222
22222222
22222222
22222222
 
33333333
33333333
33333333
33333333
33333333
33333333
33333333
33333333
 
44444444
44444444
44444444
44444444
44444444
44444444
44444444
44444444
 
55555555
55555555
55555555
55555555
55555555
55555555
55555555
55555555
 
66666666
66666666
66666666
66666666
66666666
66666666
66666666
66666666
 
77777777
77777777
77777777
77777777
77777777
77777777
77777777
77777777
 
88888888
88888888
88888888
88888888
88888888
88888888
88888888
88888888
 
99999999
99999999
99999999
99999999
99999999
99999999
99999999
99999999
 
AAAAAAAA
AAAAAAAA
AAAAAAAA
AAAAAAAA
AAAAAAAA
AAAAAAAA
AAAAAAAA
AAAAAAAA
 
BBBBBBBB
BBBBBBBB
BBBBBBBB
BBBBBBBB
BBBBBBBB
BBBBBBBB
BBBBBBBB
BBBBBBBB
 
CCCCCCCC
CCCCCCCC
CCCCCCCC
CCCCCCCC
CCCCCCCC
CCCCCCCC
CCCCCCCC
CCCCCCCC
 
DDDDDDDD
DDDDDDDD
DDDDDDDD
DDDDDDDD
DDDDDDDD
DDDDDDDD
DDDDDDDD
DDDDDDDD
 
EEEEEEEE
EEEEEEEE
EEEEEEEE
EEEEEEEE
EEEEEEEE
EEEEEEEE
EEEEEEEE
EEEEEEEE
 
FFFFFFFF
FFFFFFFF
FFFFFFFF
FFFFFFFF
FFFFFFFF
FFFFFFFF
FFFFFFFF
FFFFFFFF
 
FFFFFFFF
FFFFFFFF
FFFFFFFF
FFFFFFFF
FFFFFFFF
FFFFFFFF
FFFFFFFF
FFFFFFFF
 
0000FFFF
0000FFFF
0000FFFF
0000FFFF
00000000
00000000
00000000
00000000
 
FFFF0000
FFFF0000
FFFF0000
FFFF0000
00000000
00000000
00000000
00000000
 
FFFFFFFF
FFFFFFFF
FFFFFFFF
FFFFFFFF
00000000
00000000
00000000
00000000
 
00000000
00000000
00000000
00000000
0000FFFF
0000FFFF
0000FFFF
0000FFFF
 
0000FFFF
0000FFFF
0000FFFF
0000FFFF
0000FFFF
0000FFFF
0000FFFF
0000FFFF
 
FFFF0000
FFFF0000
FFFF0000
FFFF0000
0000FFFF
0000FFFF
0000FFFF
0000FFFF
 
FFFFFFFF
FFFFFFFF
FFFFFFFF
FFFFFFFF
0000FFFF
0000FFFF
0000FFFF
0000FFFF
 
00000000
00000000
00000000
00000000
FFFF0000
FFFF0000
FFFF0000
FFFF0000
 
0000FFFF
0000FFFF
0000FFFF
0000FFFF
FFFF0000
FFFF0000
FFFF0000
FFFF0000
 
FFFF0000
FFFF0000
FFFF0000
FFFF0000
FFFF0000
FFFF0000
FFFF0000
FFFF0000
 
FFFFFFFF
FFFFFFFF
FFFFFFFF
FFFFFFFF
FFFF0000
FFFF0000
FFFF0000
FFFF0000
 
00000000
00000000
00000000
00000000
FFFFFFFF
FFFFFFFF
FFFFFFFF
FFFFFFFF
 
0000FFFF
0000FFFF
0000FFFF
0000FFFF
FFFFFFFF
FFFFFFFF
FFFFFFFF
FFFFFFFF
 
FFFF0000
FFFF0000
FFFF0000
FFFF0000
FFFFFFFF
FFFFFFFF
FFFFFFFF
FFFFFFFF
 
FFFFFFFF
FFFFFFFF
FFFFFFFF
FFFFFFFF
FFFFFFFF
FFFFFFFF
FFFFFFFF
FFFFFFFF
 
00000000
00000000
00000000
00000000
00000000
00000000
00000000
00000000
 
00000000
00AAAA00
00AFFF50
00AFFF50
00AFFF50
00055550
00AAAA00
00055550
 
00000000
0AAA0A00
0AFF5A50
00555050
00000000
00000000
00000000
00000000
 
00000000
0AAA0A00
AAFFFAF0
0FFF5F55
0AFF5A50
AAFFFAF0
0FFF5F55
00555050
 
00000000
00AAA000
AAAFFFA0
A5FFF555
AFAFFFA0
05FFF5F5
AAAFFFA5
05FFF555
 
00000000
0AA00AAA
0AF5AAF5
005FAF55
00AAF550
0AAF5FA0
AAF55AF5
05550055
 
00000000
0AAAA000
FAFF5F00
0FFFF050
AAFFF5A0
AFFF5F05
0FFFF0F0
00555505
 
00000000
000AA000
00AAF500
00A55500
000F0000
00005000
00000000
00000000
 
000000A0
0000AA05
000AA550
000AF500
000AF500
000AF500
0000FF00
000005F0
 
0A000000
00FA0000
000FF000
000AF500
000AF500
000AF500
00AA5500
0A055000
 
00000000
00000000
0AAA0A00
00FFF050
AAAFFFA0
05FFF555
0AAF5F00
00555050
 
00000000
000AA000
0000F500
00000500
0AAAAAAA
00555555
0000A000
000AAF00
 
00000000
00000000
00000000
00000000
00000000
5AAAAA00
00FFFF50
0AAFF550
 
00000000
00000000
00000000
00000000
0AAAAA00
00555550
00000000
00000000
 
00000000
00000000
00000000
00000000
00000000
0AAAA000
0AFFF500
00555500
 
00000000
00000000
0000AAAA
000AAFF5
00AAFF55
0AAFF550
AAFF5500
05555000
 
00000000
0AAAA0A0
AAFF5F05
FFF5F0F0
AF5F0FA5
A5F05AF5
0F0FAA55
00505550
 
00000000
0AAAA000
AAFFF500
0FFFF500
0AFFF500
0AFFF500
AAFFFF00
05555550
 
00000000
0AAAAA00
AAFFFFF0
0555FFF5
00AAAF55
AAAF5550
AFFFFAA0
05555555
 
00000000
0AAAAA00
AA55FFF0
055AAF55
000AFFF0
AA00FFF5
0FFAAF55
00555550
 
00000000
000AAA00
00AAFF50
0AA5FF50
AA55AF50
AFFAAFF0
0555FF55
00000550
 
00000000
AAAAAAA0
AFFF5555
AFFFFA00
0555FFF0
AA00AFF5
0FFAAF55
00555550
 
00000000
0AAAAAA0
AAFF5555
AFFFFA00
AFFF5FF0
AFFF5AF5
0FFFFA55
00555550
 
00000000
AAAAAAA0
AFFFFFF5
055FFF55
00AAF550
0AAF5500
0AFF5000
00555000
 
00000000
0AAAAA00
AAFF5FF0
0FFFFA55
AAFF5FF0
AFFF5AF5
0FFFFA55
00555550
 
00000000
0AAAAA00
AAFF5FF0
AFFF5AF5
0FFFFAF5
0055FFF5
0AAAAF55
00555550
 
00000000
00000000
00AA0000
00AF5000
00055000
00AA0000
00AF5000
00055000
 
00000000
00000000
00AA0000
00AF5000
00055000
00AA0000
000F5000
00A05000
 
00000000
00000000
000AAAA0
00AAFF55
0AAFF550
00FFFF00
000FFFF0
00005555
 
00000000
00000000
00000000
0AAAAAA0
00555555
0AAAAAA0
00555555
00000000
 
00000000
00000000
0AAAA000
00FFFF00
000FFFF0
00AAFF55
0AAFF550
00555500
 
00000000
0AAAAA00
AA5FFFF0
055AFFF5
00AAFF55
00055550
00AAA000
00055500
 
00000000
0AAAAA00
AA55FFF0
AF5AAFF5
AF5AFFF5
AF505555
0FFAAA00
00555550
 
00000000
0AAAAA00
AAFF5FF0
AFFF5AF5
AFFFFAF5
AFFF5FF5
AFFF5AF5
05555055
 
00000000
AAAAAA00
AFFF5FF0
AFFFFA55
AFFF5FF0
AFFF5AF5
AFFFFA55
05555550
 
00000000
0AAAAA00
AAFF5FF0
AFF55055
AFF50000
AFFF0AA0
0FFFFA55
00555550
 
00055500
AAAAA000
AFF5FF00
AFF50FF0
AFF50AF5
AFF5AA55
AFFFA550
05555500
 
00000000
AAAAAAA0
AFFF5555
AFFFFA00
AFFF5550
AFFF5000
AFFFFAA0
05555555
 
00000000
AAAAAAA0
AFFF5555
AFFFFA00
AFFF5550
AFFF5000
AFFF5000
05555000
 
00000000
0AAAAA00
AAFF5FF0
AFF55055
AFF5AAA0
AFF50FF5
0FFFAA55
00555550
 
00000005
AAAA00A0
AFFF50A5
AFFFFAA5
AFFF55F5
AFFF50A5
AFFF50A5
05555005
 
00500000
AAAAAA00
0FFFF550
0AFFF500
0AFFF500
0AFFF500
AAFFFF00
05555550
 
00000000
0000AAA0
0000AFF5
0000AFF5
AA00AFF5
AFF0AFF5
0FFFAF55
00555550
 
00005550
AAA0AA00
AFFFA550
AFFF5500
AFFFF000
AFF5FF00
AFF50FF0
05550055
 
00555500
AAAA0000
AFFF5000
AFFF5000
AFFF5000
AFFF5000
AFFFFAA0
05555555
 
00000000
AA0000A0
AFF00AA5
AFFFA0F5
AFF555A5
AFF500A5
AFF500A5
05550005
 
00000000
AAA000A0
AFF500A5
AFFF00A5
AFFFF0A5
AFFF5FA5
AFFF50F5
05555005
 
00000000
0AAAAA00
AAFF5FF0
AFFF5AF5
AFFF5AF5
AFFF5AF5
0FFFFA55
00555550
 
00000000
AAAAAA00
AFFF5FF0
AFFF5AF5
AFFFFA55
AFFF5550
AFFF5000
05555000
 
00000000
0AAAAA00
AAFF5FF0
AFFF5AF5
AFF5F0F5
AFFF0F05
0FFFF0F0
00555505
 
00000000
AAAAAA00
AFFF5FF0
AFFF5AF5
AFFFFA55
AFFFFF50
AFFF5FF0
05555055
 
00000000
0AAAAA00
AAFF5550
0FFFFA00
0055FFF0
AAA0AFF5
0FFFAF55
00555550
 
00000000
AAAAAAA0
05FFF555
00AFF500
00AFF500
00AFF500
00AFF500
00055500
 
00000000
AAAA00A0
AFFF50A5
AFFF50A5
AFFF50A5
AFFF50A5
0FFFFA05
00555550
 
00000000
AAAA00A0
AFFF50A5
AFFF5A05
AFFF5A50
AFFFF050
AFFFF500
05555500
 
00000000
AAA000A0
AFF500A5
AFF500A5
AFF5A0A5
AFFFAFA5
0FF55F55
00550050
 
00000000
AAA00AA0
0FFFAA55
00FFF550
00AFF500
0AAFFF00
AAF55FF0
05550055
 
00000000
AAA00AA0
0FFFAA55
00FFF550
00AFF500
00AFF500
00AFF500
00055500
 
00000000
AAAAAAA0
AFFFFFF5
055FFF55
00AAF550
0AAFFFA0
AAFFFFF5
05555555
 
00050000
00AAAAA0
00AFFF55
00AFFF50
00AFFF50
00AFFF50
00AFFFF0
00055555
 
00000000
00000000
AAAA0000
0FFFF000
00FFFF00
000FFFF0
0000FFFF
00000555
 
00000000
0AAAAA00
00FFFF50
00AFFF50
00AFFF50
00AFFF50
0AAFFF50
50555550
 
00000000
000AAA00
00AAFFF0
0AAFF55F
00555500
00000000
00000000
00000000
 
00000000
00000000
00000000
00000000
50000000
00000000
00000000
AAAAAAAA
 
00000000
00000000
00000000
00000000
00000000
00000000
00000000
00000000
 
00000000
000A00A0
00AA5AA5
00AF5AF5
00A55A55
0A05A050
00500500
0A00A000
 
00000000
0AA0AA00
0AF5AF50
00F50F50
0A05A050
00500500
00000000
00000000
 
00000000
00A00A00
AAAFAAF0
05F55F55
0A050A50
0A50A050
AAFAAFA0
0F55F555
 
00000000
0000A000
00AAAFA0
00A5F555
00AFAFA0
0005F5F5
00AAAFA5
0005F555
 
00000000
0A000AA0
A0F0AA55
0F0FA550
005A5500
00AA5A00
0AA5F0F0
AA550F05
 
00000000
0AAA0000
AA5FF000
0FFA5500
0AFF5000
AA5FF0A0
AF50FFA5
0FFAAF55
 
00000000
000AA000
000AF500
0000F500
000A0500
00005000
00000000
00000000
 
00000000
0000AA00
000AA550
00AA5500
00AF5000
00AF5000
000FF000
0000FF00
 
00000000
00AA0000
000FF000
0000FF00
0000AF50
0000AF50
000AA550
00AA5500
 
00000000
00000000
0AA0AA00
00FFA550
AAAFFFA0
05FFF555
0AA5FF00
00550550
 
00000000
00000000
000AA000
000AF500
0AAAFFA0
005FF555
000AF500
00005500
 
00000000
00000000
00000000
00000000
00AA0000
00AF5000
000F5000
00A05000
 
00000000
00000000
00000000
00000000
0AAAAAA0
00555555
00000000
00000000
 
00000000
00000000
00000000
00000000
00000000
00000000
0AA00000
0AF50000
 
00000000
000000A0
00000AA5
0000AA55
000AA550
00AA5500
0AA55000
AA550000
 
00000000
0AAAA000
AA55FF00
AF5A0FF0
AF5A5AF5
AF5A5AF5
0FF05AF5
00FFAA55
 
00000000
000AA000
00AAF500
000FF500
000AF500
000AF500
000AF500
0AAAFFA0
 
00000000
0AAAAA00
AA555FF0
0550AA55
00AAA550
0AA55500
AA550AA0
AFFAAAF5
 
00000000
AAAAAAA0
0555FF55
000AAF50
00005FF0
00000AF5
AA00AA55
0FFAA550
 
00000000
00AA0000
00AF5000
0AA5FA00
0AF5AF50
AAFFAFF0
0555FF55
0000AF50
 
00000000
AAAAAA00
AF555550
AFFAAA00
05555FF0
00000AF5
AA00AA55
0FFAA550
 
00000000
00AAAA00
0AA55550
AAFF0000
AF55FA00
AF500FF0
AF500AF5
0FFAAA55
 
00000000
AAAAAAA0
AF555FF5
0550AA55
000AA550
000AF500
000AF500
000AF500
 
00000000
0AAAA000
AA55FF00
0FFAAF50
AA555FF0
AF500AF5
0FF00AF5
00FFAA55
 
00000000
0AAAA000
AA55FF00
AF500FF0
0FF00AF5
00FFAAF5
00055FF5
0AAAAA55
 
00000000
00000000
00000000
0AA00000
0AF50000
00550000
0AA00000
0AF50000
 
00000000
00000000
0AA00000
0AF50000
00550000
0AA00000
00F50000
0A050000
 
00000000
0000AA00
0000A550
00AA0500
AAA55000
05FF0000
0005F000
0000AF00
 
00000000
00000000
00000000
0AAAAAA0
00555555
0AAAAAA0
00555555
00000000
 
00000000
0AA00000
00F50000
000FA000
0000FFA0
000AA555
00A05500
0AA50000
 
05555555
0AAAAA00
AA555FF0
0550AA55
000AA550
00005500
00AA0000
00AF5000
 
00000000
0AAAAA00
A05555F0
A5AAA0A5
A5A555A5
A5AFA0A5
A50555A5
0FAAAA05
 
00500500
000AAAA0
00AA5FF5
0AA55AF5
0AF50AF5
AAFFAAF5
0FF55FF5
AAF50AF5
 
00000000
AAAAA000
0FF5FF00
0AF5AF50
AAFFAFF0
0FF55FF5
0AF50AF5
AAFFAA55
 
00500500
0AAA0A00
AA55FA50
AF500550
AF500000
AF500000
0FF00AA0
00FFAA55
 
00000500
AAAAA000
0FF5FF00
0AF50FF0
0AF50AF5
0AF50AF5
0AF50AF5
AAFFAA55
 
05500050
AAAAAA00
0FF5FF50
0AF50550
AAFFAAA0
0FF55555
0AF50AA0
AAFFAAF5
 
00555550
AAAAAA00
0FF5FF50
0AF50550
AAFFAAA0
0FF55555
0AF50000
AAF50000
 
00000000
0AAA0A00
AA55FA50
AF500550
AF5AAAA0
AF505FF5
0FF0AAF5
00FFA5F5
 
00000550
AAA00AA0
0FF50AF5
0AF50AF5
AAFFAAF5
0FF55FF5
0AF50AF5
AAF50AF5
 
00055000
00AAAA00
000FF550
000AF500
000AF500
000AF500
000AF500
00AAFF00
 
00000000
0A0AAAA0
0AF05FF5
00550AF5
00000AF5
00000AF5
AA00AA55
0FFAA550
 
00000000
AAA00A00
0FF5AA50
AAFFA550
0FFFF500
0AF5FF00
0AF50FF0
AAF50AF5
 
00050000
AAA00000
0FF50000
0AF50000
0AF50000
0AF50000
0AF50AA0
AAFFAAF5
 
00000000
AA000AA0
0FF0AAF5
0AFFAFF5
0AFF5FF5
0A5F5AF5
0A505AF5
AA500AF5
 
00550000
AAA00AA0
0FFF0AF5
0AFF5AF5
0AF5FAF5
0AF5AFF5
0AF50FF5
AAF50AF5
 
05500000
0AAAA000
AA55FF00
AF500FF0
AF500AF5
AF500AF5
0FF00AF5
00FFAA55
 
00055550
AAAAA000
0FF5FF00
0AF50FF0
0AF50AF5
AAFFAA55
0FF55550
AAF50000
 
00555555
0AAAA000
AA55FF00
AF500FF0
AF5A0AF5
AF5AFAF5
0FF0FFF5
00FFAFF5
 
05555555
AAAAA000
0FF5FF00
0AF50FF0
0AF50AF5
AAFFAA55
0FF5FFF0
AAF50FF5
 
00555500
0AAAAA00
AA555550
0FFAA000
0055FF00
00000FF0
AA000AF5
0FFAAA55
 
00000550
AAAAAAA0
AF5FF555
055AF500
000AF500
000AF500
000AF500
00AAF500
 
00555500
AAA00AA0
0FF50AF5
0AF50AF5
0AF50AF5
0AF50AF5
00FF0AF5
000FFA55
 
00555550
AAA00AA0
0FF50AF5
0AF50AF5
0AF50AF5
0AF50AF5
0AF5AA55
0AFFA550
 
00005500
AA000AA0
0F500AF5
0A5A0AF5
0AFA5AF5
0AFFFAF5
0AF5FFF5
AA550FF5
 
00055550
AAA00AA0
05FFAAF5
000FF555
00AAFF00
0AA55FF0
0AF50AF5
AAF50AF5
 
00555550
AAA00AA0
0FF500F5
00FF0AA5
00AFFA55
000FF550
000AF500
00AAF500
 
00550000
0AAAAAA0
AA555FF5
0550AA55
000AA550
00AA5500
0AA55AA0
0AFFAAF5
 
005AAAA0
00AA5555
0005500A
000000A0
0000AA0F
0A0005FA
0A5A0A0F
0A5A50F0
 
00000550
00000000
00000000
50000000
00000000
50000000
50000000
50000000
 
00000000
00000000
00000000
00000000
00000000
00000000
00000000
00000000
 
00550000
00000000
00000000
00000000
00000000
00000000
00000000
00000000
 
00055000
00000000
00000000
00000000
00000000
00000000
00000000
00000000
 
00555550
00000000
00000000
00000000
00000000
00000000
00000000
00000000
 
05550055
00AA0000
00AF5000
00AF5000
00AF5000
00055000
00AA0000
00055000
 
05555550
AA0AA000
AF5AF500
05505500
00000000
00000000
00000000
00000000
 
00055550
AA0AA000
AFFAF500
AF5FF500
AF5AF500
AFFAF500
AF5FF500
05505500
 
05555550
00A00000
AAAFA000
AF555500
AFFAA000
055FF500
AAAAF500
05F55500
 
05555555
AA0AA000
AF5AF500
05FA5500
0AA55000
AA5FA000
AF5AF500
05505500
 
05550000
0AAA0000
AA5FF000
0FFA5500
0AFFFA00
AA5FF550
0FFAFF00
00555550
 
00055505
0000AA00
000AA550
00005500
00000000
00000000
00000000
00000000
 
05550055
00AA0000
0AA55000
0AF50000
0AF50000
0AF50000
00FF0000
00055000
 
00055550
00AA0000
000FF000
000AF500
000AF500
000AF500
00AA5500
00055000
 
00555500
00000000
AA0AA000
0FFA5500
AAFFF000
0FFF5500
AA5FF000
05505500
 
05550055
00000000
00AA0000
00AF5000
AAAFFA00
05FF5550
00AF5000
00055000
 
05555555
00000000
00000000
00000000
00000000
00000000
00AA0000
00A55000
 
05500055
00000000
00000000
00000000
AAAAA000
05555500
00000000
00000000
 
05550055
00000000
00000000
00000000
00000000
00AA0000
00AF5000
00055000
 
00055550
0000A000
000AA500
00AA5500
0AA55000
AA550000
A5500000
05000000
 
05550000
AAAAA000
AF5FF500
AF5AF500
AF5AF500
AF5AF500
AFFAF500
05555500
 
00055555
0AAA0000
0AFF5000
00FF5000
00AF5000
00AF5000
00AF5000
00055000
 
05550055
AAAAA000
AF5FF500
055AF500
AAAAF500
AF555500
AFFAA000
05555500
 
00555550
AAAAA000
AF5FF500
05FAF500
000FF500
AA0AF500
AFFAF500
05555500
 
00055500
AA0AA000
AF5AF500
AFFAF500
AFFFF500
055FF500
000AF500
00005500
 
00005550
AAAAA000
AF555500
AFFAA000
055FF500
AA0AF500
AFFAF500
05555500
 
00555500
AAAAA000
AF555500
AFFAA000
AF5FF500
AF5AF500
AFFAF500
05555500
 
05500055
AAAAA000
055FF500
000AF500
00AA5500
0AA55000
0AF50000
00550000
 
05550055
AAAAA000
AF5FF500
0FFA5500
AA5FF000
AF5AF500
AFFAF500
05555500
 
00055500
AAAAA000
AF5FF500
AF5AF500
AFFAF500
055FF500
AAAAF500
05555500
 
00555555
00000000
00AA0000
00055000
00000000
00AA0000
00055000
00000000
 
00505005
00000000
00000000
00AA0000
00055000
00000000
00AA0000
00A55000
 
00000000
00000000
000AA000
00AA5500
0AA55000
00FF0000
000FF000
00005500
 
00000000
00000000
00000000
0AAAA000
00555500
0AAAA000
00555500
00000000
 
00000000
00000000
0AA00000
00FF0000
000FF000
00AA5500
0AA55000
00550000
 
00000000
0AAA0000
AA5FF000
05FA5500
0AA55000
00550000
0AA00000
00550000
 
00000000
0AAA0000
AA5FF000
AFFAF500
AFFFF500
AF555500
0FFA0000
00555000
 
00000000
AAAAA000
AF5FF500
AFFAF500
AF5FF500
AF5AF500
AF5AF500
05505500
 
00000000
AAAAA000
AF5FF500
AFFA5500
AF5FF000
AF5AF500
AFFAF500
05555500
 
00000000
AAAAA000
AF555500
AF500000
AF500000
AF500000
AFFAA000
05555500
 
00050000
AAAA0000
AF5FF000
AF5AF500
AF5AF500
AF5AF500
AFFA5500
05555000
 
00000000
AAAAA000
AF555500
AFFA0000
AF555000
AF500000
AFFAA000
05555500
 
00000000
AAAAA000
AF555500
AFFA0000
AF555000
AF500000
AF500000
05500000
 
00000000
AAAAA000
AF555500
AF500000
AF5AA000
AF5AF500
AFFAF500
05555500
 
00000000
AA0AA000
AF5AF500
AFFAF500
AF5FF500
AF5AF500
AF5AF500
05505500
 
00000000
0AAAA000
00FF5500
00AF5000
00AF5000
00AF5000
0AAFF000
00555500
 
00000000
000AA000
000AF500
000AF500
000AF500
AA0AF500
AFFAF500
05555500
 
00000000
AA0AA000
AF5AF500
AFF05500
AF5FA000
AF5AF500
AF5AF500
05505500
 
00050000
AA000000
AF500000
AF500000
AF500000
AF500000
AFFAA000
05555500
 
00000000
AA0AA000
AFFAF500
AF5FF500
AF5AF500
AF5AF500
AF5AF500
05505500
 
00000000
AAAAA000
AF5FF500
AF5AF500
AF5AF500
AF5AF500
AF5AF500
05505500
 
00000000
AAAAA000
AF5FF500
AF5AF500
AF5AF500
AF5AF500
AFFAF500
05555500
 
00000000
AAAAA000
AF5FF500
AF5AF500
AFFAF500
AF555500
AF500000
05500000
 
00000000
AAAAA000
AF5FF500
AF5AF500
AFFAF500
AF5F5500
AFFAF000
05555500
 
00000000
AAAAA000
AF5FF500
AF5AF500
AFFA5500
AF5FF000
AF5AF500
05505500
 
00000000
AAAAA000
AF555500
AFFAA000
055FF500
000AF500
AAAAF500
05555500
 
00000000
AAAAAA00
05FF5550
00AF5000
00AF5000
00AF5000
00AF5000
00055000
 
00000000
AA0AA000
AF5AF500
AF5AF500
AF5AF500
AF5AF500
AFFAF500
05555500
 
00000000
AA0AA000
AF5AF500
AF5AF500
AF5AF500
0FFA5500
0AFF5000
00555000
 
00000000
AA0AA000
AF5AF500
AF5AF500
AF5AF500
AFFAF500
AF5FF500
05505500
 
00000000
AA0AA000
AF5AF500
0FFA5500
0AFF5000
AA5FF000
AF5AF500
05505500
 
00000000
AA0AA000
AF5AF500
AFFAF500
0FFF5500
0AFF5000
0AFF5000
00555000
 
00000000
AAAAA000
055FF500
00AA5500
0AA55000
AA550000
AFFAA000
05555500
 
00050000
0AAA0000
0AF55000
0AF50000
0AF50000
0AF50000
0AFF0000
00555000
 
00000000
00000000
AA000000
0FF00000
00FF0000
000FF000
0000FF00
00000550
 
00000000
0AAA0000
00FF5000
00AF5000
00AF5000
00AF5000
0AAF5000
00555000
 
00000000
00000000
00A00000
0AAF0000
AA5FF000
A550F500
05000500
00000000
 
00000000
00000000
00000000
00000000
00000000
00000000
00000000
AAAAAA00
 
00000000
00AAA000
0AA55500
AAFF0000
0FF55000
0AF50000
AAFFA000
05555500
 
00000000
00000000
AAAAA000
055FF500
AAAAF500
AF5FF500
AFFAF500
05555500
 
00000000
AA000000
AFFAA000
AF5FF500
AF5AF500
AF5AF500
AFFAF500
05555500
 
00000000
00000000
AAAAA000
AF555500
AF500000
AF500000
AFFAA000
05555500
 
00000000
000AA000
AAAAF500
AF5FF500
AF5AF500
AF5AF500
AFFAF500
05555500
 
00000000
00000000
AAAAA000
AF5FF500
AFFAF500
AF555500
AFFAA000
05555500
 
00000000
0AAAA000
0AF55500
0AFF0000
0AF55000
0AF50000
0AF50000
00550000
 
00000000
00000000
AAAAA000
AF5FF500
AF5AF500
AFFAF500
055FF500
AAAAF500
 
00000000
AA000000
AFFAA000
AF5FF500
AF5AF500
AF5AF500
AF5AF500
05505500
 
00000000
00000000
0AAAA000
00FF5500
00AF5000
00AF5000
0AAFF000
00555500
 
00000000
00000000
000AA000
000AF500
000AF500
000AF500
AA0AF500
AFFAF500
 
00000000
AA000000
AF5AA000
AFFA5500
AFFF5000
AF5FF000
AF5AF500
05505500
 
00000000
0AA00000
0AF50000
0AF50000
0AF50000
0AF50000
0AFFA000
00555500
 
00000000
00000000
AA0AA000
AFFAF500
AF5FF500
AF5AF500
AF5AF500
05505500
 
00000000
00000000
AAAAA000
AF5FF500
AF5AF500
AF5AF500
AF5AF500
05505500
 
00000000
00000000
AAAAA000
AF5FF500
AF5AF500
AF5AF500
AFFAF500
05555500
 
00000000
00000000
AAAAA000
AF5FF500
AF5AF500
AFFAF500
AF555500
AF500000
 
00000000
00000000
AAAAA000
AF5FF500
AF5AF500
AFFAF500
055FF500
000AFF00
 
00000000
00000000
AAAAA000
AF5FF500
AF505500
AF500000
AF500000
05500000
 
00000000
00000000
AAAAA000
AF555500
AFFAA000
055FF500
AAAAF500
05555500
 
00000000
0AA00000
AAFF0000
0FF55000
0AF50000
0AF50000
0AFFA000
00555500
 
00000000
00000000
AA0AA000
AF5AF500
AF5AF500
AF5AF500
AFFAF500
05555500
 
00000000
00000000
AA0AA000
AF5AF500
0FFA5500
0AFF5000
00F55000
00050000
 
00000000
00000000
AA0AA000
AFFAF500
AFFFF500
AFFFF500
0F5F5500
00505000
 
00000000
00000000
AA0AA000
0FFA5500
00F55000
0AAF0000
AA5FF000
05505500
 
00000000
00000000
AA0AA000
AF5AF500
AF5AF500
AFFAF500
055FF500
AAAAF500
 
00000000
00000000
AAAAA000
05FF5500
0AA55000
AA550000
AFFAA000
05555500
 
00000000
0AAA0000
0AF55000
AA550000
0FF00000
0AF50000
0AFF0000
00555000
 
00000000
00AA0000
00AF5000
00AF5000
00AF5000
00AF5000
00AF5000
00055000
 
00000000
0AAA0000
00FF5000
000FF000
00AA5500
00AF5000
0AAF5000
00555000
 
00000000
00000000
A000A000
AF0AA500
0FFA5500
00F55000
00050000
00000000
 
05555550
0AA00000
AAFF0000
AFFF5000
0FF55000
0AF50000
0AF50000
00550000
 
FFFFFFFF
FFFFFFFF
FFFFFFFF
FFFFFFFF
FFFFFFFF
FFFFFFFF
FFFFFFFF
FFFFFFFF
 
AAAAAAAA
AAAAAAAA
AAAAAAAA
AAAAAAAA
AAAAAAAA
AAAAAAAA
AAAAAAAA
AAAAAAAA
 
55555555
55555555
55555555
55555555
55555555
55555555
55555555
55555555
 
00000000
00000000
00000000
00000000
00000000
00000000
00000000
00000000
 
0FFFFFFF
00FFFFF0
000FFF00
0000F000
00000000
00000000
00000000
00000000
 
00000000
0000000F
000000FF
00000FFF
0000FFFF
00000FFF
000000FF
0000000F
 
00000000
00000000
00000000
00000000
000F0000
00FFF000
0FFFFF00
FFFFFFF0
 
F0000000
FF000000
FFF00000
FFFF0000
FFF00000
FF000000
F0000000
00000000
 
FFFFFFFF
FFFFFFF0
FFFFFF00
FFFFF000
FFFF0000
FFF00000
FF000000
F0000000
 
FFFFFFFF
0FFFFFFF
00FFFFFF
000FFFFF
0000FFFF
00000FFF
000000FF
0000000F
 
0FFFFFFF
00FFFFF0
000FFF00
0000F000
0000F000
000FFF00
00FFFFF0
0FFFFFFF
 
F0F0F0F0
0F0F0F0F
F0F0F0F0
0F0F0F0F
F0F0F0F0
0F0F0F0F
F0F0F0F0
0F0F0F0F
 
F0F0F0F0
0F0F0F0F
F0F0F0F0
0F0F0F0F
00000000
00000000
00000000
00000000
 
00000000
00000000
00000000
00000000
F0F0F0F0
0F0F0F0F
F0F0F0F0
0F0F0F0F
 
F0F00000
0F0F0000
F0F00000
0F0F0000
F0F00000
0F0F0000
F0F00000
0F0F0000
 
0000F0F0
00000F0F
0000F0F0
00000F0F
0000F0F0
00000F0F
0000F0F0
00000F0F
 
00000000
00000000
00000000
00000000
00000000
00000000
00000000
00000000
 
0000FFFF
0000FFFF
0000FFFF
0000FFFF
00000000
00000000
00000000
00000000
 
FFFF0000
FFFF0000
FFFF0000
FFFF0000
00000000
00000000
00000000
00000000
 
FFFFFFFF
FFFFFFFF
FFFFFFFF
FFFFFFFF
00000000
00000000
00000000
00000000
 
00000000
00000000
00000000
00000000
0000FFFF
0000FFFF
0000FFFF
0000FFFF
 
0000FFFF
0000FFFF
0000FFFF
0000FFFF
0000FFFF
0000FFFF
0000FFFF
0000FFFF
 
FFFF0000
FFFF0000
FFFF0000
FFFF0000
0000FFFF
0000FFFF
0000FFFF
0000FFFF
 
FFFFFFFF
FFFFFFFF
FFFFFFFF
FFFFFFFF
0000FFFF
0000FFFF
0000FFFF
0000FFFF
 
00000000
00000000
00000000
00000000
FFFF0000
FFFF0000
FFFF0000
FFFF0000
 
0000FFFF
0000FFFF
0000FFFF
0000FFFF
FFFF0000
FFFF0000
FFFF0000
FFFF0000
 
FFFF0000
FFFF0000
FFFF0000
FFFF0000
FFFF0000
FFFF0000
FFFF0000
FFFF0000
 
FFFFFFFF
FFFFFFFF
FFFFFFFF
FFFFFFFF
FFFF0000
FFFF0000
FFFF0000
FFFF0000
 
00000000
00000000
00000000
00000000
FFFFFFFF
FFFFFFFF
FFFFFFFF
FFFFFFFF
 
0000FFFF
0000FFFF
0000FFFF
0000FFFF
FFFFFFFF
FFFFFFFF
FFFFFFFF
FFFFFFFF
 
FFFF0000
FFFF0000
FFFF0000
FFFF0000
FFFFFFFF
FFFFFFFF
FFFFFFFF
FFFFFFFF
 
FFFFFFFF
FFFFFFFF
FFFFFFFF
FFFFFFFF
FFFFFFFF
FFFFFFFF
FFFFFFFF
FFFFFFFF
 
00000000
00000000
00000000
00000000
00000000
00000000
00000000
00000000
 
00000000
00AAAA00
00AFFF50
00AFFF50
00AFFF50
00055550
00AAAA00
00055550
 
00000000
0AAA0A00
0AFF5A50
00555050
00000000
00000000
00000000
00000000
 
00000000
0AAA0A00
AAFFFAF0
0FFF5F55
0AFF5A50
AAFFFAF0
0FFF5F55
00555050
 
00000000
00AAA000
AAAFFFA0
A5FFF555
AFAFFFA0
05FFF5F5
AAAFFFA5
05FFF555
 
00000000
0AA00AAA
0AF5AAF5
005FAF55
00AAF550
0AAF5FA0
AAF55AF5
05550055
 
00000000
0AAAA000
FAFF5F00
0FFFF050
AAFFF5A0
AFFF5F05
0FFFF0F0
00555505
 
00000000
000AA000
00AAF500
00A55500
000F0000
00005000
00000000
00000000
 
000000A0
0000AA05
000AA550
000AF500
000AF500
000AF500
0000FF00
000005F0
 
0A000000
00FA0000
000FF000
000AF500
000AF500
000AF500
00AA5500
0A055000
 
00000000
00000000
0AAA0A00
00FFF050
AAAFFFA0
05FFF555
0AAF5F00
00555050
 
00000000
000AA000
0000F500
00000500
0AAAAAAA
00555555
0000A000
000AAF00
 
00000000
00000000
00000000
00000000
00000000
5AAAAA00
00FFFF50
0AAFF550
 
00000000
00000000
00000000
00000000
0AAAAA00
00555550
00000000
00000000
 
00000000
00000000
00000000
00000000
00000000
0AAAA000
0AFFF500
00555500
 
00000000
00000000
0000AAAA
000AAFF5
00AAFF55
0AAFF550
AAFF5500
05555000
 
00000000
0AAAA0A0
AAFF5F05
FFF5F0F0
AF5F0FA5
A5F05AF5
0F0FAA55
00505550
 
00000000
0AAAA000
AAFFF500
0FFFF500
0AFFF500
0AFFF500
AAFFFF00
05555550
 
00000000
0AAAAA00
AAFFFFF0
0555FFF5
00AAAF55
AAAF5550
AFFFFAA0
05555555
 
00000000
0AAAAA00
AA55FFF0
055AAF55
000AFFF0
AA00FFF5
0FFAAF55
00555550
 
00000000
000AAA00
00AAFF50
0AA5FF50
AA55AF50
AFFAAFF0
0555FF55
00000550
 
00000000
AAAAAAA0
AFFF5555
AFFFFA00
0555FFF0
AA00AFF5
0FFAAF55
00555550
 
00000000
0AAAAAA0
AAFF5555
AFFFFA00
AFFF5FF0
AFFF5AF5
0FFFFA55
00555550
 
00000000
AAAAAAA0
AFFFFFF5
055FFF55
00AAF550
0AAF5500
0AFF5000
00555000
 
00000000
0AAAAA00
AAFF5FF0
0FFFFA55
AAFF5FF0
AFFF5AF5
0FFFFA55
00555550
 
00000000
0AAAAA00
AAFF5FF0
AFFF5AF5
0FFFFAF5
0055FFF5
0AAAAF55
00555550
 
00000000
00000000
00AA0000
00AF5000
00055000
00AA0000
00AF5000
00055000
 
00000000
00000000
00AA0000
00AF5000
00055000
00AA0000
000F5000
00A05000
 
00000000
00000000
000AAAA0
00AAFF55
0AAFF550
00FFFF00
000FFFF0
00005555
 
00000000
00000000
00000000
0AAAAAA0
00555555
0AAAAAA0
00555555
00000000
 
00000000
00000000
0AAAA000
00FFFF00
000FFFF0
00AAFF55
0AAFF550
00555500
 
00000000
0AAAAA00
AA5FFFF0
055AFFF5
00AAFF55
00055550
00AAA000
00055500
 
00000000
0AAAAA00
AA55FFF0
AF5AAFF5
AF5AFFF5
AF505555
0FFAAA00
00555550
 
00000000
0AAAAA00
AAFF5FF0
AFFF5AF5
AFFFFAF5
AFFF5FF5
AFFF5AF5
05555055
 
00000000
AAAAAA00
AFFF5FF0
AFFFFA55
AFFF5FF0
AFFF5AF5
AFFFFA55
05555550
 
00000000
0AAAAA00
AAFF5FF0
AFF55055
AFF50000
AFFF0AA0
0FFFFA55
00555550
 
00055500
AAAAA000
AFF5FF00
AFF50FF0
AFF50AF5
AFF5AA55
AFFFA550
05555500
 
00000000
AAAAAAA0
AFFF5555
AFFFFA00
AFFF5550
AFFF5000
AFFFFAA0
05555555
 
00000000
AAAAAAA0
AFFF5555
AFFFFA00
AFFF5550
AFFF5000
AFFF5000
05555000
 
00000000
0AAAAA00
AAFF5FF0
AFF55055
AFF5AAA0
AFF50FF5
0FFFAA55
00555550
 
00000005
AAAA00A0
AFFF50A5
AFFFFAA5
AFFF55F5
AFFF50A5
AFFF50A5
05555005
 
00500000
AAAAAA00
0FFFF550
0AFFF500
0AFFF500
0AFFF500
AAFFFF00
05555550
 
00000000
0000AAA0
0000AFF5
0000AFF5
AA00AFF5
AFF0AFF5
0FFFAF55
00555550
 
00005550
AAA0AA00
AFFFA550
AFFF5500
AFFFF000
AFF5FF00
AFF50FF0
05550055
 
00555500
AAAA0000
AFFF5000
AFFF5000
AFFF5000
AFFF5000
AFFFFAA0
05555555
 
00000000
AA0000A0
AFF00AA5
AFFFA0F5
AFF555A5
AFF500A5
AFF500A5
05550005
 
00000000
AAA000A0
AFF500A5
AFFF00A5
AFFFF0A5
AFFF5FA5
AFFF50F5
05555005
 
00000000
0AAAAA00
AAFF5FF0
AFFF5AF5
AFFF5AF5
AFFF5AF5
0FFFFA55
00555550
 
00000000
AAAAAA00
AFFF5FF0
AFFF5AF5
AFFFFA55
AFFF5550
AFFF5000
05555000
 
00000000
0AAAAA00
AAFF5FF0
AFFF5AF5
AFF5F0F5
AFFF0F05
0FFFF0F0
00555505
 
00000000
AAAAAA00
AFFF5FF0
AFFF5AF5
AFFFFA55
AFFFFF50
AFFF5FF0
05555055
 
00000000
0AAAAA00
AAFF5550
0FFFFA00
0055FFF0
AAA0AFF5
0FFFAF55
00555550
 
00000000
AAAAAAA0
05FFF555
00AFF500
00AFF500
00AFF500
00AFF500
00055500
 
00000000
AAAA00A0
AFFF50A5
AFFF50A5
AFFF50A5
AFFF50A5
0FFFFA05
00555550
 
00000000
AAAA00A0
AFFF50A5
AFFF5A05
AFFF5A50
AFFFF050
AFFFF500
05555500
 
00000000
AAA000A0
AFF500A5
AFF500A5
AFF5A0A5
AFFFAFA5
0FF55F55
00550050
 
00000000
AAA00AA0
0FFFAA55
00FFF550
00AFF500
0AAFFF00
AAF55FF0
05550055
 
00000000
AAA00AA0
0FFFAA55
00FFF550
00AFF500
00AFF500
00AFF500
00055500
 
00000000
AAAAAAA0
AFFFFFF5
055FFF55
00AAF550
0AAFFFA0
AAFFFFF5
05555555
 
00050000
00AAAAA0
00AFFF55
00AFFF50
00AFFF50
00AFFF50
00AFFFF0
00055555
 
00000000
00000000
AAAA0000
0FFFF000
00FFFF00
000FFFF0
0000FFFF
00000555
 
00000000
0AAAAA00
00FFFF50
00AFFF50
00AFFF50
00AFFF50
0AAFFF50
50555550
 
00000000
000AAA00
00AAFFF0
0AAFF55F
00555500
00000000
00000000
00000000
 
00000000
00000000
00000000
00000000
50000000
00000000
00000000
AAAAAAAA
 
00000000
00000000
00000000
00000000
00000000
00000000
00000000
00000000
 
00000000
000A00A0
00AA5AA5
00AF5AF5
00A55A55
0A05A050
00500500
0A00A000
 
00000000
0AA0AA00
0AF5AF50
00F50F50
0A05A050
00500500
00000000
00000000
 
00000000
00A00A00
AAAFAAF0
05F55F55
0A050A50
0A50A050
AAFAAFA0
0F55F555
 
00000000
0000A000
00AAAFA0
00A5F555
00AFAFA0
0005F5F5
00AAAFA5
0005F555
 
00000000
0A000AA0
A0F0AA55
0F0FA550
005A5500
00AA5A00
0AA5F0F0
AA550F05
 
00000000
0AAA0000
AA5FF000
0FFA5500
0AFF5000
AA5FF0A0
AF50FFA5
0FFAAF55
 
00000000
000AA000
000AF500
0000F500
000A0500
00005000
00000000
00000000
 
00000000
0000AA00
000AA550
00AA5500
00AF5000
00AF5000
000FF000
0000FF00
 
00000000
00AA0000
000FF000
0000FF00
0000AF50
0000AF50
000AA550
00AA5500
 
00000000
00000000
0AA0AA00
00FFA550
AAAFFFA0
05FFF555
0AA5FF00
00550550
 
00000000
00000000
000AA000
000AF500
0AAAFFA0
005FF555
000AF500
00005500
 
00000000
00000000
00000000
00000000
00AA0000
00AF5000
000F5000
00A05000
 
00000000
00000000
00000000
00000000
0AAAAAA0
00555555
00000000
00000000
 
00000000
00000000
00000000
00000000
00000000
00000000
0AA00000
0AF50000
 
00000000
000000A0
00000AA5
0000AA55
000AA550
00AA5500
0AA55000
AA550000
 
00000000
0AAAA000
AA55FF00
AF5A0FF0
AF5A5AF5
AF5A5AF5
0FF05AF5
00FFAA55
 
00000000
000AA000
00AAF500
000FF500
000AF500
000AF500
000AF500
0AAAFFA0
 
00000000
0AAAAA00
AA555FF0
0550AA55
00AAA550
0AA55500
AA550AA0
AFFAAAF5
 
00000000
AAAAAAA0
0555FF55
000AAF50
00005FF0
00000AF5
AA00AA55
0FFAA550
 
00000000
00AA0000
00AF5000
0AA5FA00
0AF5AF50
AAFFAFF0
0555FF55
0000AF50
 
00000000
AAAAAA00
AF555550
AFFAAA00
05555FF0
00000AF5
AA00AA55
0FFAA550
 
00000000
00AAAA00
0AA55550
AAFF0000
AF55FA00
AF500FF0
AF500AF5
0FFAAA55
 
00000000
AAAAAAA0
AF555FF5
0550AA55
000AA550
000AF500
000AF500
000AF500
 
00000000
0AAAA000
AA55FF00
0FFAAF50
AA555FF0
AF500AF5
0FF00AF5
00FFAA55
 
00000000
0AAAA000
AA55FF00
AF500FF0
0FF00AF5
00FFAAF5
00055FF5
0AAAAA55
 
00000000
00000000
00000000
0AA00000
0AF50000
00550000
0AA00000
0AF50000
 
00000000
00000000
0AA00000
0AF50000
00550000
0AA00000
00F50000
0A050000
 
00000000
0000AA00
0000A550
00AA0500
AAA55000
05FF0000
0005F000
0000AF00
 
00000000
00000000
00000000
0AAAAAA0
00555555
0AAAAAA0
00555555
00000000
 
00000000
0AA00000
00F50000
000FA000
0000FFA0
000AA555
00A05500
0AA50000
 
05555555
0AAAAA00
AA555FF0
0550AA55
000AA550
00005500
00AA0000
00AF5000
 
00000000
0AAAAA00
A05555F0
A5AAA0A5
A5A555A5
A5AFA0A5
A50555A5
0FAAAA05
 
00500500
000AAAA0
00AA5FF5
0AA55AF5
0AF50AF5
AAFFAAF5
0FF55FF5
AAF50AF5
 
00000000
AAAAA000
0FF5FF00
0AF5AF50
AAFFAFF0
0FF55FF5
0AF50AF5
AAFFAA55
 
00500500
0AAA0A00
AA55FA50
AF500550
AF500000
AF500000
0FF00AA0
00FFAA55
 
00000500
AAAAA000
0FF5FF00
0AF50FF0
0AF50AF5
0AF50AF5
0AF50AF5
AAFFAA55
 
05500050
AAAAAA00
0FF5FF50
0AF50550
AAFFAAA0
0FF55555
0AF50AA0
AAFFAAF5
 
00555550
AAAAAA00
0FF5FF50
0AF50550
AAFFAAA0
0FF55555
0AF50000
AAF50000
 
00000000
0AAA0A00
AA55FA50
AF500550
AF5AAAA0
AF505FF5
0FF0AAF5
00FFA5F5
 
00000550
AAA00AA0
0FF50AF5
0AF50AF5
AAFFAAF5
0FF55FF5
0AF50AF5
AAF50AF5
 
00055000
00AAAA00
000FF550
000AF500
000AF500
000AF500
000AF500
00AAFF00
 
00000000
0A0AAAA0
0AF05FF5
00550AF5
00000AF5
00000AF5
AA00AA55
0FFAA550
 
00000000
AAA00A00
0FF5AA50
AAFFA550
0FFFF500
0AF5FF00
0AF50FF0
AAF50AF5
 
00050000
AAA00000
0FF50000
0AF50000
0AF50000
0AF50000
0AF50AA0
AAFFAAF5
 
00000000
AA000AA0
0FF0AAF5
0AFFAFF5
0AFF5FF5
0A5F5AF5
0A505AF5
AA500AF5
 
00550000
AAA00AA0
0FFF0AF5
0AFF5AF5
0AF5FAF5
0AF5AFF5
0AF50FF5
AAF50AF5
 
05500000
0AAAA000
AA55FF00
AF500FF0
AF500AF5
AF500AF5
0FF00AF5
00FFAA55
 
00055550
AAAAA000
0FF5FF00
0AF50FF0
0AF50AF5
AAFFAA55
0FF55550
AAF50000
 
00555555
0AAAA000
AA55FF00
AF500FF0
AF5A0AF5
AF5AFAF5
0FF0FFF5
00FFAFF5
 
05555555
AAAAA000
0FF5FF00
0AF50FF0
0AF50AF5
AAFFAA55
0FF5FFF0
AAF50FF5
 
00555500
0AAAAA00
AA555550
0FFAA000
0055FF00
00000FF0
AA000AF5
0FFAAA55
 
00000550
AAAAAAA0
AF5FF555
055AF500
000AF500
000AF500
000AF500
00AAF500
 
00555500
AAA00AA0
0FF50AF5
0AF50AF5
0AF50AF5
0AF50AF5
00FF0AF5
000FFA55
 
00555550
AAA00AA0
0FF50AF5
0AF50AF5
0AF50AF5
0AF50AF5
0AF5AA55
0AFFA550
 
00005500
AA000AA0
0F500AF5
0A5A0AF5
0AFA5AF5
0AFFFAF5
0AF5FFF5
AA550FF5
 
00055550
AAA00AA0
05FFAAF5
000FF555
00AAFF00
0AA55FF0
0AF50AF5
AAF50AF5
 
00555550
AAA00AA0
0FF500F5
00FF0AA5
00AFFA55
000FF550
000AF500
00AAF500
 
00550000
0AAAAAA0
AA555FF5
0550AA55
000AA550
00AA5500
0AA55AA0
0AFFAAF5
 
005AAAA0
00AA5555
0005500A
000000A0
0000AA0F
0A0005FA
0A5A0A0F
0A5A50F0
 
00000550
00000000
00000000
50000000
00000000
50000000
50000000
50000000
 
00000000
00000000
00000000
00000000
00000000
00000000
00000000
00000000
 
00550000
00000000
00000000
00000000
00000000
00000000
00000000
00000000
 
00055000
00000000
00000000
00000000
00000000
00000000
00000000
00000000
 
00555550
00000000
00000000
00000000
00000000
00000000
00000000
00000000
 
05550055
00AA0000
00AF5000
00AF5000
00AF5000
00055000
00AA0000
00055000
 
05555550
AA0AA000
AF5AF500
05505500
00000000
00000000
00000000
00000000
 
00055550
AA0AA000
AFFAF500
AF5FF500
AF5AF500
AFFAF500
AF5FF500
05505500
 
05555550
00A00000
AAAFA000
AF555500
AFFAA000
055FF500
AAAAF500
05F55500
 
05555555
AA0AA000
AF5AF500
05FA5500
0AA55000
AA5FA000
AF5AF500
05505500
 
05550000
0AAA0000
AA5FF000
0FFA5500
0AFFFA00
AA5FF550
0FFAFF00
00555550
 
00055505
0000AA00
000AA550
00005500
00000000
00000000
00000000
00000000
 
05550055
00AA0000
0AA55000
0AF50000
0AF50000
0AF50000
00FF0000
00055000
 
00055550
00AA0000
000FF000
000AF500
000AF500
000AF500
00AA5500
00055000
 
00555500
00000000
AA0AA000
0FFA5500
AAFFF000
0FFF5500
AA5FF000
05505500
 
05550055
00000000
00AA0000
00AF5000
AAAFFA00
05FF5550
00AF5000
00055000
 
05555555
00000000
00000000
00000000
00000000
00000000
00AA0000
00A55000
 
05500055
00000000
00000000
00000000
AAAAA000
05555500
00000000
00000000
 
05550055
00000000
00000000
00000000
00000000
00AA0000
00AF5000
00055000
 
00055550
0000A000
000AA500
00AA5500
0AA55000
AA550000
A5500000
05000000
 
05550000
AAAAA000
AF5FF500
AF5AF500
AF5AF500
AF5AF500
AFFAF500
05555500
 
00055555
0AAA0000
0AFF5000
00FF5000
00AF5000
00AF5000
00AF5000
00055000
 
05550055
AAAAA000
AF5FF500
055AF500
AAAAF500
AF555500
AFFAA000
05555500
 
00555550
AAAAA000
AF5FF500
05FAF500
000FF500
AA0AF500
AFFAF500
05555500
 
00055500
AA0AA000
AF5AF500
AFFAF500
AFFFF500
055FF500
000AF500
00005500
 
00005550
AAAAA000
AF555500
AFFAA000
055FF500
AA0AF500
AFFAF500
05555500
 
00555500
AAAAA000
AF555500
AFFAA000
AF5FF500
AF5AF500
AFFAF500
05555500
 
05500055
AAAAA000
055FF500
000AF500
00AA5500
0AA55000
0AF50000
00550000
 
05550055
AAAAA000
AF5FF500
0FFA5500
AA5FF000
AF5AF500
AFFAF500
05555500
 
00055500
AAAAA000
AF5FF500
AF5AF500
AFFAF500
055FF500
AAAAF500
05555500
 
00555555
00000000
00AA0000
00055000
00000000
00AA0000
00055000
00000000
 
00505005
00000000
00000000
00AA0000
00055000
00000000
00AA0000
00A55000
 
00000000
00000000
000AA000
00AA5500
0AA55000
00FF0000
000FF000
00005500
 
00000000
00000000
00000000
0AAAA000
00555500
0AAAA000
00555500
00000000
 
00000000
00000000
0AA00000
00FF0000
000FF000
00AA5500
0AA55000
00550000
 
00000000
0AAA0000
AA5FF000
05FA5500
0AA55000
00550000
0AA00000
00550000
 
00000000
0AAA0000
AA5FF000
AFFAF500
AFFFF500
AF555500
0FFA0000
00555000
 
00000000
AAAAA000
AF5FF500
AFFAF500
AF5FF500
AF5AF500
AF5AF500
05505500
 
00000000
AAAAA000
AF5FF500
AFFA5500
AF5FF000
AF5AF500
AFFAF500
05555500
 
00000000
AAAAA000
AF555500
AF500000
AF500000
AF500000
AFFAA000
05555500
 
00050000
AAAA0000
AF5FF000
AF5AF500
AF5AF500
AF5AF500
AFFA5500
05555000
 
00000000
AAAAA000
AF555500
AFFA0000
AF555000
AF500000
AFFAA000
05555500
 
00000000
AAAAA000
AF555500
AFFA0000
AF555000
AF500000
AF500000
05500000
 
00000000
AAAAA000
AF555500
AF500000
AF5AA000
AF5AF500
AFFAF500
05555500
 
00000000
AA0AA000
AF5AF500
AFFAF500
AF5FF500
AF5AF500
AF5AF500
05505500
 
00000000
0AAAA000
00FF5500
00AF5000
00AF5000
00AF5000
0AAFF000
00555500
 
00000000
000AA000
000AF500
000AF500
000AF500
AA0AF500
AFFAF500
05555500
 
00000000
AA0AA000
AF5AF500
AFF05500
AF5FA000
AF5AF500
AF5AF500
05505500
 
00050000
AA000000
AF500000
AF500000
AF500000
AF500000
AFFAA000
05555500
 
00000000
AA0AA000
AFFAF500
AF5FF500
AF5AF500
AF5AF500
AF5AF500
05505500
 
00000000
AAAAA000
AF5FF500
AF5AF500
AF5AF500
AF5AF500
AF5AF500
05505500
 
00000000
AAAAA000
AF5FF500
AF5AF500
AF5AF500
AF5AF500
AFFAF500
05555500
 
00000000
AAAAA000
AF5FF500
AF5AF500
AFFAF500
AF555500
AF500000
05500000
 
00000000
AAAAA000
AF5FF500
AF5AF500
AFFAF500
AF5F5500
AFFAF000
05555500
 
00000000
AAAAA000
AF5FF500
AF5AF500
AFFA5500
AF5FF000
AF5AF500
05505500
 
00000000
AAAAA000
AF555500
AFFAA000
055FF500
000AF500
AAAAF500
05555500
 
00000000
AAAAAA00
05FF5550
00AF5000
00AF5000
00AF5000
00AF5000
00055000
 
00000000
AA0AA000
AF5AF500
AF5AF500
AF5AF500
AF5AF500
AFFAF500
05555500
 
00000000
AA0AA000
AF5AF500
AF5AF500
AF5AF500
0FFA5500
0AFF5000
00555000
 
00000000
AA0AA000
AF5AF500
AF5AF500
AF5AF500
AFFAF500
AF5FF500
05505500
 
00000000
AA0AA000
AF5AF500
0FFA5500
0AFF5000
AA5FF000
AF5AF500
05505500
 
00000000
AA0AA000
AF5AF500
AFFAF500
0FFF5500
0AFF5000
0AFF5000
00555000
 
00000000
AAAAA000
055FF500
00AA5500
0AA55000
AA550000
AFFAA000
05555500
 
00050000
0AAA0000
0AF55000
0AF50000
0AF50000
0AF50000
0AFF0000
00555000
 
00000000
00000000
AA000000
0FF00000
00FF0000
000FF000
0000FF00
00000550
 
00000000
0AAA0000
00FF5000
00AF5000
00AF5000
00AF5000
0AAF5000
00555000
 
00000000
00000000
00A00000
0AAF0000
AA5FF000
A550F500
05000500
00000000
 
00000000
00000000
00000000
00000000
00000000
00000000
00000000
AAAAAA00
 
00000000
00AAA000
0AA55500
AAFF0000
0FF55000
0AF50000
AAFFA000
05555500
 
00000000
00000000
AAAAA000
055FF500
AAAAF500
AF5FF500
AFFAF500
05555500
 
00000000
AA000000
AFFAA000
AF5FF500
AF5AF500
AF5AF500
AFFAF500
05555500
 
00000000
00000000
AAAAA000
AF555500
AF500000
AF500000
AFFAA000
05555500
 
00000000
000AA000
AAAAF500
AF5FF500
AF5AF500
AF5AF500
AFFAF500
05555500
 
00000000
00000000
AAAAA000
AF5FF500
AFFAF500
AF555500
AFFAA000
05555500
 
00000000
0AAAA000
0AF55500
0AFF0000
0AF55000
0AF50000
0AF50000
00550000
 
00000000
00000000
AAAAA000
AF5FF500
AF5AF500
AFFAF500
055FF500
AAAAF500
 
00000000
AA000000
AFFAA000
AF5FF500
AF5AF500
AF5AF500
AF5AF500
05505500
 
00000000
00000000
0AAAA000
00FF5500
00AF5000
00AF5000
0AAFF000
00555500
 
00000000
00000000
000AA000
000AF500
000AF500
000AF500
AA0AF500
AFFAF500
 
00000000
AA000000
AF5AA000
AFFA5500
AFFF5000
AF5FF000
AF5AF500
05505500
 
00000000
0AA00000
0AF50000
0AF50000
0AF50000
0AF50000
0AFFA000
00555500
 
00000000
00000000
AA0AA000
AFFAF500
AF5FF500
AF5AF500
AF5AF500
05505500
 
00000000
00000000
AAAAA000
AF5FF500
AF5AF500
AF5AF500
AF5AF500
05505500
 
00000000
00000000
AAAAA000
AF5FF500
AF5AF500
AF5AF500
AFFAF500
05555500
 
00000000
00000000
AAAAA000
AF5FF500
AF5AF500
AFFAF500
AF555500
AF500000
 
00000000
00000000
AAAAA000
AF5FF500
AF5AF500
AFFAF500
055FF500
000AFF00
 
00000000
00000000
AAAAA000
AF5FF500
AF505500
AF500000
AF500000
05500000
 
00000000
00000000
AAAAA000
AF555500
AFFAA000
055FF500
AAAAF500
05555500
 
00000000
0AA00000
AAFF0000
0FF55000
0AF50000
0AF50000
0AFFA000
00555500
 
00000000
00000000
AA0AA000
AF5AF500
AF5AF500
AF5AF500
AFFAF500
05555500
 
00000000
00000000
AA0AA000
AF5AF500
0FFA5500
0AFF5000
00F55000
00050000
 
00000000
00000000
AA0AA000
AFFAF500
AFFFF500
AFFFF500
0F5F5500
00505000
 
00000000
00000000
AA0AA000
0FFA5500
00F55000
0AAF0000
AA5FF000
05505500
 
00000000
00000000
AA0AA000
AF5AF500
AF5AF500
AFFAF500
055FF500
AAAAF500
 
00000000
00000000
AAAAA000
05FF5500
0AA55000
AA550000
AFFAA000
05555500
 
00000000
0AAA0000
0AF55000
AA550000
0FF00000
0AF50000
0AFF0000
00555000
 
00000000
00AA0000
00AF5000
00AF5000
00AF5000
00AF5000
00AF5000
00055000
 
00000000
0AAA0000
00FF5000
000FF000
00AA5500
00AF5000
0AAF5000
00555000
 
00000000
00000000
A000A000
AF0AA500
0FFA5500
00F55000
00050000
00000000
 
05555550
0AA00000
AAFF0000
AFFF5000
0FF55000
0AF50000
0AF50000
00550000
 
00000000
00000000
00000000
00000000
00000000
00000000
00000000
00000000
 
11111111
11111111
11111111
11111111
11111111
11111111
11111111
11111111
 
22222222
22222222
22222222
22222222
22222222
22222222
22222222
22222222
 
33333333
33333333
33333333
33333333
33333333
33333333
33333333
33333333
 
44444444
44444444
44444444
44444444
44444444
44444444
44444444
44444444
 
55555555
55555555
55555555
55555555
55555555
55555555
55555555
55555555
 
66666666
66666666
66666666
66666666
66666666
66666666
66666666
66666666
 
77777777
77777777
77777777
77777777
77777777
77777777
77777777
77777777
 
88888888
88888888
88888888
88888888
88888888
88888888
88888888
88888888
 
99999999
99999999
99999999
99999999
99999999
99999999
99999999
99999999
 
AAAAAAAA
AAAAAAAA
AAAAAAAA
AAAAAAAA
AAAAAAAA
AAAAAAAA
AAAAAAAA
AAAAAAAA
 
BBBBBBBB
BBBBBBBB
BBBBBBBB
BBBBBBBB
BBBBBBBB
BBBBBBBB
BBBBBBBB
BBBBBBBB
 
CCCCCCCC
CCCCCCCC
CCCCCCCC
CCCCCCCC
CCCCCCCC
CCCCCCCC
CCCCCCCC
CCCCCCCC
 
DDDDDDDD
DDDDDDDD
DDDDDDDD
DDDDDDDD
DDDDDDDD
DDDDDDDD
DDDDDDDD
DDDDDDDD
 
EEEEEEEE
EEEEEEEE
EEEEEEEE
EEEEEEEE
EEEEEEEE
EEEEEEEE
EEEEEEEE
EEEEEEEE
 
FFFFFFFF
FFFFFFFF
FFFFFFFF
FFFFFFFF
FFFFFFFF
FFFFFFFF
FFFFFFFF
FFFFFFFF
 
FFFFFFFF
FFFFFFFF
FFFFFFFF
FFFFFFFF
FFFFFFFF
FFFFFFFF
FFFFFFFF
FFFFFFFF
 
0000FFFF
0000FFFF
0000FFFF
0000FFFF
00000000
00000000
00000000
00000000
 
FFFF0000
FFFF0000
FFFF0000
FFFF0000
00000000
00000000
00000000
00000000
 
FFFFFFFF
FFFFFFFF
FFFFFFFF
FFFFFFFF
00000000
00000000
00000000
00000000
 
00000000
00000000
00000000
00000000
0000FFFF
0000FFFF
0000FFFF
0000FFFF
 
0000FFFF
0000FFFF
0000FFFF
0000FFFF
0000FFFF
0000FFFF
0000FFFF
0000FFFF
 
FFFF0000
FFFF0000
FFFF0000
FFFF0000
0000FFFF
0000FFFF
0000FFFF
0000FFFF
 
FFFFFFFF
FFFFFFFF
FFFFFFFF
FFFFFFFF
0000FFFF
0000FFFF
0000FFFF
0000FFFF
 
00000000
00000000
00000000
00000000
FFFF0000
FFFF0000
FFFF0000
FFFF0000
 
0000FFFF
0000FFFF
0000FFFF
0000FFFF
FFFF0000
FFFF0000
FFFF0000
FFFF0000
 
FFFF0000
FFFF0000
FFFF0000
FFFF0000
FFFF0000
FFFF0000
FFFF0000
FFFF0000
 
FFFFFFFF
FFFFFFFF
FFFFFFFF
FFFFFFFF
FFFF0000
FFFF0000
FFFF0000
FFFF0000
 
00000000
00000000
00000000
00000000
FFFFFFFF
FFFFFFFF
FFFFFFFF
FFFFFFFF
 
0000FFFF
0000FFFF
0000FFFF
0000FFFF
FFFFFFFF
FFFFFFFF
FFFFFFFF
FFFFFFFF
 
FFFF0000
FFFF0000
FFFF0000
FFFF0000
FFFFFFFF
FFFFFFFF
FFFFFFFF
FFFFFFFF
 
FFFFFFFF
FFFFFFFF
FFFFFFFF
FFFFFFFF
FFFFFFFF
FFFFFFFF
FFFFFFFF
FFFFFFFF
 
00000000
00000000
00000000
00000000
00000000
00000000
00000000
00000000
 
00000000
00AAAA00
00AFFF50
00AFFF50
00AFFF50
00055550
00AAAA00
00055550
 
00000000
0AAA0A00
0AFF5A50
00555050
00000000
00000000
00000000
00000000
 
00000000
0AAA0A00
AAFFFAF0
0FFF5F55
0AFF5A50
AAFFFAF0
0FFF5F55
00555050
 
00000000
00AAA000
AAAFFFA0
A5FFF555
AFAFFFA0
05FFF5F5
AAAFFFA5
05FFF555
 
00000000
0AA00AAA
0AF5AAF5
005FAF55
00AAF550
0AAF5FA0
AAF55AF5
05550055
 
00000000
0AAAA000
FAFF5F00
0FFFF050
AAFFF5A0
AFFF5F05
0FFFF0F0
00555505
 
00000000
000AA000
00AAF500
00A55500
000F0000
00005000
00000000
00000000
 
000000A0
0000AA05
000AA550
000AF500
000AF500
000AF500
0000FF00
000005F0
 
0A000000
00FA0000
000FF000
000AF500
000AF500
000AF500
00AA5500
0A055000
 
00000000
00000000
0AAA0A00
00FFF050
AAAFFFA0
05FFF555
0AAF5F00
00555050
 
00000000
000AA000
0000F500
00000500
0AAAAAAA
00555555
0000A000
000AAF00
 
00000000
00000000
00000000
00000000
00000000
5AAAAA00
00FFFF50
0AAFF550
 
00000000
00000000
00000000
00000000
0AAAAA00
00555550
00000000
00000000
 
00000000
00000000
00000000
00000000
00000000
0AAAA000
0AFFF500
00555500
 
00000000
00000000
0000AAAA
000AAFF5
00AAFF55
0AAFF550
AAFF5500
05555000
 
00000000
0AAAA0A0
AAFF5F05
FFF5F0F0
AF5F0FA5
A5F05AF5
0F0FAA55
00505550
 
00000000
0AAAA000
AAFFF500
0FFFF500
0AFFF500
0AFFF500
AAFFFF00
05555550
 
00000000
0AAAAA00
AAFFFFF0
0555FFF5
00AAAF55
AAAF5550
AFFFFAA0
05555555
 
00000000
0AAAAA00
AA55FFF0
055AAF55
000AFFF0
AA00FFF5
0FFAAF55
00555550
 
00000000
000AAA00
00AAFF50
0AA5FF50
AA55AF50
AFFAAFF0
0555FF55
00000550
 
00000000
AAAAAAA0
AFFF5555
AFFFFA00
0555FFF0
AA00AFF5
0FFAAF55
00555550
 
00000000
0AAAAAA0
AAFF5555
AFFFFA00
AFFF5FF0
AFFF5AF5
0FFFFA55
00555550
 
00000000
AAAAAAA0
AFFFFFF5
055FFF55
00AAF550
0AAF5500
0AFF5000
00555000
 
00000000
0AAAAA00
AAFF5FF0
0FFFFA55
AAFF5FF0
AFFF5AF5
0FFFFA55
00555550
 
00000000
0AAAAA00
AAFF5FF0
AFFF5AF5
0FFFFAF5
0055FFF5
0AAAAF55
00555550
 
00000000
00000000
00AA0000
00AF5000
00055000
00AA0000
00AF5000
00055000
 
00000000
00000000
00AA0000
00AF5000
00055000
00AA0000
000F5000
00A05000
 
00000000
00000000
000AAAA0
00AAFF55
0AAFF550
00FFFF00
000FFFF0
00005555
 
00000000
00000000
00000000
0AAAAAA0
00555555
0AAAAAA0
00555555
00000000
 
00000000
00000000
0AAAA000
00FFFF00
000FFFF0
00AAFF55
0AAFF550
00555500
 
00000000
0AAAAA00
AA5FFFF0
055AFFF5
00AAFF55
00055550
00AAA000
00055500
 
00000000
0AAAAA00
AA55FFF0
AF5AAFF5
AF5AFFF5
AF505555
0FFAAA00
00555550
 
00000000
0AAAAA00
AAFF5FF0
AFFF5AF5
AFFFFAF5
AFFF5FF5
AFFF5AF5
05555055
 
00000000
AAAAAA00
AFFF5FF0
AFFFFA55
AFFF5FF0
AFFF5AF5
AFFFFA55
05555550
 
00000000
0AAAAA00
AAFF5FF0
AFF55055
AFF50000
AFFF0AA0
0FFFFA55
00555550
 
00055500
AAAAA000
AFF5FF00
AFF50FF0
AFF50AF5
AFF5AA55
AFFFA550
05555500
 
00000000
AAAAAAA0
AFFF5555
AFFFFA00
AFFF5550
AFFF5000
AFFFFAA0
05555555
 
00000000
AAAAAAA0
AFFF5555
AFFFFA00
AFFF5550
AFFF5000
AFFF5000
05555000
 
00000000
0AAAAA00
AAFF5FF0
AFF55055
AFF5AAA0
AFF50FF5
0FFFAA55
00555550
 
00000005
AAAA00A0
AFFF50A5
AFFFFAA5
AFFF55F5
AFFF50A5
AFFF50A5
05555005
 
00500000
AAAAAA00
0FFFF550
0AFFF500
0AFFF500
0AFFF500
AAFFFF00
05555550
 
00000000
0000AAA0
0000AFF5
0000AFF5
AA00AFF5
AFF0AFF5
0FFFAF55
00555550
 
00005550
AAA0AA00
AFFFA550
AFFF5500
AFFFF000
AFF5FF00
AFF50FF0
05550055
 
00555500
AAAA0000
AFFF5000
AFFF5000
AFFF5000
AFFF5000
AFFFFAA0
05555555
 
00000000
AA0000A0
AFF00AA5
AFFFA0F5
AFF555A5
AFF500A5
AFF500A5
05550005
 
00000000
AAA000A0
AFF500A5
AFFF00A5
AFFFF0A5
AFFF5FA5
AFFF50F5
05555005
 
00000000
0AAAAA00
AAFF5FF0
AFFF5AF5
AFFF5AF5
AFFF5AF5
0FFFFA55
00555550
 
00000000
AAAAAA00
AFFF5FF0
AFFF5AF5
AFFFFA55
AFFF5550
AFFF5000
05555000
 
00000000
0AAAAA00
AAFF5FF0
AFFF5AF5
AFF5F0F5
AFFF0F05
0FFFF0F0
00555505
 
00000000
AAAAAA00
AFFF5FF0
AFFF5AF5
AFFFFA55
AFFFFF50
AFFF5FF0
05555055
 
00000000
0AAAAA00
AAFF5550
0FFFFA00
0055FFF0
AAA0AFF5
0FFFAF55
00555550
 
00000000
AAAAAAA0
05FFF555
00AFF500
00AFF500
00AFF500
00AFF500
00055500
 
00000000
AAAA00A0
AFFF50A5
AFFF50A5
AFFF50A5
AFFF50A5
0FFFFA05
00555550
 
00000000
AAAA00A0
AFFF50A5
AFFF5A05
AFFF5A50
AFFFF050
AFFFF500
05555500
 
00000000
AAA000A0
AFF500A5
AFF500A5
AFF5A0A5
AFFFAFA5
0FF55F55
00550050
 
00000000
AAA00AA0
0FFFAA55
00FFF550
00AFF500
0AAFFF00
AAF55FF0
05550055
 
00000000
AAA00AA0
0FFFAA55
00FFF550
00AFF500
00AFF500
00AFF500
00055500
 
00000000
AAAAAAA0
AFFFFFF5
055FFF55
00AAF550
0AAFFFA0
AAFFFFF5
05555555
 
00050000
00AAAAA0
00AFFF55
00AFFF50
00AFFF50
00AFFF50
00AFFFF0
00055555
 
00000000
00000000
AAAA0000
0FFFF000
00FFFF00
000FFFF0
0000FFFF
00000555
 
00000000
0AAAAA00
00FFFF50
00AFFF50
00AFFF50
00AFFF50
0AAFFF50
50555550
 
00000000
000AAA00
00AAFFF0
0AAFF55F
00555500
00000000
00000000
00000000
 
00000000
00000000
00000000
00000000
50000000
00000000
00000000
AAAAAAAA
 
00000000
00000000
00000000
00000000
00000000
00000000
00000000
00000000
 
00000000
000A00A0
00AA5AA5
00AF5AF5
00A55A55
0A05A050
00500500
0A00A000
 
00000000
0AA0AA00
0AF5AF50
00F50F50
0A05A050
00500500
00000000
00000000
 
00000000
00A00A00
AAAFAAF0
05F55F55
0A050A50
0A50A050
AAFAAFA0
0F55F555
 
00000000
0000A000
00AAAFA0
00A5F555
00AFAFA0
0005F5F5
00AAAFA5
0005F555
 
00000000
0A000AA0
A0F0AA55
0F0FA550
005A5500
00AA5A00
0AA5F0F0
AA550F05
 
00000000
0AAA0000
AA5FF000
0FFA5500
0AFF5000
AA5FF0A0
AF50FFA5
0FFAAF55
 
00000000
000AA000
000AF500
0000F500
000A0500
00005000
00000000
00000000
 
00000000
0000AA00
000AA550
00AA5500
00AF5000
00AF5000
000FF000
0000FF00
 
00000000
00AA0000
000FF000
0000FF00
0000AF50
0000AF50
000AA550
00AA5500
 
00000000
00000000
0AA0AA00
00FFA550
AAAFFFA0
05FFF555
0AA5FF00
00550550
 
00000000
00000000
000AA000
000AF500
0AAAFFA0
005FF555
000AF500
00005500
 
00000000
00000000
00000000
00000000
00AA0000
00AF5000
000F5000
00A05000
 
00000000
00000000
00000000
00000000
0AAAAAA0
00555555
00000000
00000000
 
00000000
00000000
00000000
00000000
00000000
00000000
0AA00000
0AF50000
 
00000000
000000A0
00000AA5
0000AA55
000AA550
00AA5500
0AA55000
AA550000
 
00000000
0AAAA000
AA55FF00
AF5A0FF0
AF5A5AF5
AF5A5AF5
0FF05AF5
00FFAA55
 
00000000
000AA000
00AAF500
000FF500
000AF500
000AF500
000AF500
0AAAFFA0
 
00000000
0AAAAA00
AA555FF0
0550AA55
00AAA550
0AA55500
AA550AA0
AFFAAAF5
 
00000000
AAAAAAA0
0555FF55
000AAF50
00005FF0
00000AF5
AA00AA55
0FFAA550
 
00000000
00AA0000
00AF5000
0AA5FA00
0AF5AF50
AAFFAFF0
0555FF55
0000AF50
 
00000000
AAAAAA00
AF555550
AFFAAA00
05555FF0
00000AF5
AA00AA55
0FFAA550
 
00000000
00AAAA00
0AA55550
AAFF0000
AF55FA00
AF500FF0
AF500AF5
0FFAAA55
 
00000000
AAAAAAA0
AF555FF5
0550AA55
000AA550
000AF500
000AF500
000AF500
 
00000000
0AAAA000
AA55FF00
0FFAAF50
AA555FF0
AF500AF5
0FF00AF5
00FFAA55
 
00000000
0AAAA000
AA55FF00
AF500FF0
0FF00AF5
00FFAAF5
00055FF5
0AAAAA55
 
00000000
00000000
00000000
0AA00000
0AF50000
00550000
0AA00000
0AF50000
 
00000000
00000000
0AA00000
0AF50000
00550000
0AA00000
00F50000
0A050000
 
00000000
0000AA00
0000A550
00AA0500
AAA55000
05FF0000
0005F000
0000AF00
 
00000000
00000000
00000000
0AAAAAA0
00555555
0AAAAAA0
00555555
00000000
 
00000000
0AA00000
00F50000
000FA000
0000FFA0
000AA555
00A05500
0AA50000
 
05555555
0AAAAA00
AA555FF0
0550AA55
000AA550
00005500
00AA0000
00AF5000
 
00000000
0AAAAA00
A05555F0
A5AAA0A5
A5A555A5
A5AFA0A5
A50555A5
0FAAAA05
 
00500500
000AAAA0
00AA5FF5
0AA55AF5
0AF50AF5
AAFFAAF5
0FF55FF5
AAF50AF5
 
00000000
AAAAA000
0FF5FF00
0AF5AF50
AAFFAFF0
0FF55FF5
0AF50AF5
AAFFAA55
 
00500500
0AAA0A00
AA55FA50
AF500550
AF500000
AF500000
0FF00AA0
00FFAA55
 
00000500
AAAAA000
0FF5FF00
0AF50FF0
0AF50AF5
0AF50AF5
0AF50AF5
AAFFAA55
 
05500050
AAAAAA00
0FF5FF50
0AF50550
AAFFAAA0
0FF55555
0AF50AA0
AAFFAAF5
 
00555550
AAAAAA00
0FF5FF50
0AF50550
AAFFAAA0
0FF55555
0AF50000
AAF50000
 
00000000
0AAA0A00
AA55FA50
AF500550
AF5AAAA0
AF505FF5
0FF0AAF5
00FFA5F5
 
00000550
AAA00AA0
0FF50AF5
0AF50AF5
AAFFAAF5
0FF55FF5
0AF50AF5
AAF50AF5
 
00055000
00AAAA00
000FF550
000AF500
000AF500
000AF500
000AF500
00AAFF00
 
00000000
0A0AAAA0
0AF05FF5
00550AF5
00000AF5
00000AF5
AA00AA55
0FFAA550
 
00000000
AAA00A00
0FF5AA50
AAFFA550
0FFFF500
0AF5FF00
0AF50FF0
AAF50AF5
 
00050000
AAA00000
0FF50000
0AF50000
0AF50000
0AF50000
0AF50AA0
AAFFAAF5
 
00000000
AA000AA0
0FF0AAF5
0AFFAFF5
0AFF5FF5
0A5F5AF5
0A505AF5
AA500AF5
 
00550000
AAA00AA0
0FFF0AF5
0AFF5AF5
0AF5FAF5
0AF5AFF5
0AF50FF5
AAF50AF5
 
05500000
0AAAA000
AA55FF00
AF500FF0
AF500AF5
AF500AF5
0FF00AF5
00FFAA55
 
00055550
AAAAA000
0FF5FF00
0AF50FF0
0AF50AF5
AAFFAA55
0FF55550
AAF50000
 
00555555
0AAAA000
AA55FF00
AF500FF0
AF5A0AF5
AF5AFAF5
0FF0FFF5
00FFAFF5
 
05555555
AAAAA000
0FF5FF00
0AF50FF0
0AF50AF5
AAFFAA55
0FF5FFF0
AAF50FF5
 
00555500
0AAAAA00
AA555550
0FFAA000
0055FF00
00000FF0
AA000AF5
0FFAAA55
 
00000550
AAAAAAA0
AF5FF555
055AF500
000AF500
000AF500
000AF500
00AAF500
 
00555500
AAA00AA0
0FF50AF5
0AF50AF5
0AF50AF5
0AF50AF5
00FF0AF5
000FFA55
 
00555550
AAA00AA0
0FF50AF5
0AF50AF5
0AF50AF5
0AF50AF5
0AF5AA55
0AFFA550
 
00005500
AA000AA0
0F500AF5
0A5A0AF5
0AFA5AF5
0AFFFAF5
0AF5FFF5
AA550FF5
 
00055550
AAA00AA0
05FFAAF5
000FF555
00AAFF00
0AA55FF0
0AF50AF5
AAF50AF5
 
00555550
AAA00AA0
0FF500F5
00FF0AA5
00AFFA55
000FF550
000AF500
00AAF500
 
00550000
0AAAAAA0
AA555FF5
0550AA55
000AA550
00AA5500
0AA55AA0
0AFFAAF5
 
005AAAA0
00AA5555
0005500A
000000A0
0000AA0F
0A0005FA
0A5A0A0F
0A5A50F0
 
00000550
00000000
00000000
50000000
00000000
50000000
50000000
50000000
 
00000000
00000000
00000000
00000000
00000000
00000000
00000000
00000000
 
00550000
00000000
00000000
00000000
00000000
00000000
00000000
00000000
 
00055000
00000000
00000000
00000000
00000000
00000000
00000000
00000000
 
00555550
00000000
00000000
00000000
00000000
00000000
00000000
00000000
 
05550055
00AA0000
00AF5000
00AF5000
00AF5000
00055000
00AA0000
00055000
 
05555550
AA0AA000
AF5AF500
05505500
00000000
00000000
00000000
00000000
 
00055550
AA0AA000
AFFAF500
AF5FF500
AF5AF500
AFFAF500
AF5FF500
05505500
 
05555550
00A00000
AAAFA000
AF555500
AFFAA000
055FF500
AAAAF500
05F55500
 
05555555
AA0AA000
AF5AF500
05FA5500
0AA55000
AA5FA000
AF5AF500
05505500
 
05550000
0AAA0000
AA5FF000
0FFA5500
0AFFFA00
AA5FF550
0FFAFF00
00555550
 
00055505
0000AA00
000AA550
00005500
00000000
00000000
00000000
00000000
 
05550055
00AA0000
0AA55000
0AF50000
0AF50000
0AF50000
00FF0000
00055000
 
00055550
00AA0000
000FF000
000AF500
000AF500
000AF500
00AA5500
00055000
 
00555500
00000000
AA0AA000
0FFA5500
AAFFF000
0FFF5500
AA5FF000
05505500
 
05550055
00000000
00AA0000
00AF5000
AAAFFA00
05FF5550
00AF5000
00055000
 
05555555
00000000
00000000
00000000
00000000
00000000
00AA0000
00A55000
 
05500055
00000000
00000000
00000000
AAAAA000
05555500
00000000
00000000
 
05550055
00000000
00000000
00000000
00000000
00AA0000
00AF5000
00055000
 
00055550
0000A000
000AA500
00AA5500
0AA55000
AA550000
A5500000
05000000
 
05550000
AAAAA000
AF5FF500
AF5AF500
AF5AF500
AF5AF500
AFFAF500
05555500
 
00055555
0AAA0000
0AFF5000
00FF5000
00AF5000
00AF5000
00AF5000
00055000
 
05550055
AAAAA000
AF5FF500
055AF500
AAAAF500
AF555500
AFFAA000
05555500
 
00555550
AAAAA000
AF5FF500
05FAF500
000FF500
AA0AF500
AFFAF500
05555500
 
00055500
AA0AA000
AF5AF500
AFFAF500
AFFFF500
055FF500
000AF500
00005500
 
00005550
AAAAA000
AF555500
AFFAA000
055FF500
AA0AF500
AFFAF500
05555500
 
00555500
AAAAA000
AF555500
AFFAA000
AF5FF500
AF5AF500
AFFAF500
05555500
 
05500055
AAAAA000
055FF500
000AF500
00AA5500
0AA55000
0AF50000
00550000
 
05550055
AAAAA000
AF5FF500
0FFA5500
AA5FF000
AF5AF500
AFFAF500
05555500
 
00055500
AAAAA000
AF5FF500
AF5AF500
AFFAF500
055FF500
AAAAF500
05555500
 
00555555
00000000
00AA0000
00055000
00000000
00AA0000
00055000
00000000
 
00505005
00000000
00000000
00AA0000
00055000
00000000
00AA0000
00A55000
 
00000000
00000000
000AA000
00AA5500
0AA55000
00FF0000
000FF000
00005500
 
00000000
00000000
00000000
0AAAA000
00555500
0AAAA000
00555500
00000000
 
00000000
00000000
0AA00000
00FF0000
000FF000
00AA5500
0AA55000
00550000
 
00000000
0AAA0000
AA5FF000
05FA5500
0AA55000
00550000
0AA00000
00550000
 
00000000
0AAA0000
AA5FF000
AFFAF500
AFFFF500
AF555500
0FFA0000
00555000
 
00000000
AAAAA000
AF5FF500
AFFAF500
AF5FF500
AF5AF500
AF5AF500
05505500
 
00000000
AAAAA000
AF5FF500
AFFA5500
AF5FF000
AF5AF500
AFFAF500
05555500
 
00000000
AAAAA000
AF555500
AF500000
AF500000
AF500000
AFFAA000
05555500
 
00050000
AAAA0000
AF5FF000
AF5AF500
AF5AF500
AF5AF500
AFFA5500
05555000
 
00000000
AAAAA000
AF555500
AFFA0000
AF555000
AF500000
AFFAA000
05555500
 
00000000
AAAAA000
AF555500
AFFA0000
AF555000
AF500000
AF500000
05500000
 
00000000
AAAAA000
AF555500
AF500000
AF5AA000
AF5AF500
AFFAF500
05555500
 
00000000
AA0AA000
AF5AF500
AFFAF500
AF5FF500
AF5AF500
AF5AF500
05505500
 
00000000
0AAAA000
00FF5500
00AF5000
00AF5000
00AF5000
0AAFF000
00555500
 
00000000
000AA000
000AF500
000AF500
000AF500
AA0AF500
AFFAF500
05555500
 
00000000
AA0AA000
AF5AF500
AFF05500
AF5FA000
AF5AF500
AF5AF500
05505500
 
00050000
AA000000
AF500000
AF500000
AF500000
AF500000
AFFAA000
05555500
 
00000000
AA0AA000
AFFAF500
AF5FF500
AF5AF500
AF5AF500
AF5AF500
05505500
 
00000000
AAAAA000
AF5FF500
AF5AF500
AF5AF500
AF5AF500
AF5AF500
05505500
 
00000000
AAAAA000
AF5FF500
AF5AF500
AF5AF500
AF5AF500
AFFAF500
05555500
 
00000000
AAAAA000
AF5FF500
AF5AF500
AFFAF500
AF555500
AF500000
05500000
 
00000000
AAAAA000
AF5FF500
AF5AF500
AFFAF500
AF5F5500
AFFAF000
05555500
 
00000000
AAAAA000
AF5FF500
AF5AF500
AFFA5500
AF5FF000
AF5AF500
05505500
 
00000000
AAAAA000
AF555500
AFFAA000
055FF500
000AF500
AAAAF500
05555500
 
00000000
AAAAAA00
05FF5550
00AF5000
00AF5000
00AF5000
00AF5000
00055000
 
00000000
AA0AA000
AF5AF500
AF5AF500
AF5AF500
AF5AF500
AFFAF500
05555500
 
00000000
AA0AA000
AF5AF500
AF5AF500
AF5AF500
0FFA5500
0AFF5000
00555000
 
00000000
AA0AA000
AF5AF500
AF5AF500
AF5AF500
AFFAF500
AF5FF500
05505500
 
00000000
AA0AA000
AF5AF500
0FFA5500
0AFF5000
AA5FF000
AF5AF500
05505500
 
00000000
AA0AA000
AF5AF500
AFFAF500
0FFF5500
0AFF5000
0AFF5000
00555000
 
00000000
AAAAA000
055FF500
00AA5500
0AA55000
AA550000
AFFAA000
05555500
 
00050000
0AAA0000
0AF55000
0AF50000
0AF50000
0AF50000
0AFF0000
00555000
 
00000000
00000000
AA000000
0FF00000
00FF0000
000FF000
0000FF00
00000550
 
00000000
0AAA0000
00FF5000
00AF5000
00AF5000
00AF5000
0AAF5000
00555000
 
00000000
00000000
00A00000
0AAF0000
AA5FF000
A550F500
05000500
00000000
 
00000000
00000000
00000000
00000000
00000000
00000000
00000000
AAAAAA00
 
00000000
00AAA000
0AA55500
AAFF0000
0FF55000
0AF50000
AAFFA000
05555500
 
00000000
00000000
AAAAA000
055FF500
AAAAF500
AF5FF500
AFFAF500
05555500
 
00000000
AA000000
AFFAA000
AF5FF500
AF5AF500
AF5AF500
AFFAF500
05555500
 
00000000
00000000
AAAAA000
AF555500
AF500000
AF500000
AFFAA000
05555500
 
00000000
000AA000
AAAAF500
AF5FF500
AF5AF500
AF5AF500
AFFAF500
05555500
 
00000000
00000000
AAAAA000
AF5FF500
AFFAF500
AF555500
AFFAA000
05555500
 
00000000
0AAAA000
0AF55500
0AFF0000
0AF55000
0AF50000
0AF50000
00550000
 
00000000
00000000
AAAAA000
AF5FF500
AF5AF500
AFFAF500
055FF500
AAAAF500
 
00000000
AA000000
AFFAA000
AF5FF500
AF5AF500
AF5AF500
AF5AF500
05505500
 
00000000
00000000
0AAAA000
00FF5500
00AF5000
00AF5000
0AAFF000
00555500
 
00000000
00000000
000AA000
000AF500
000AF500
000AF500
AA0AF500
AFFAF500
 
00000000
AA000000
AF5AA000
AFFA5500
AFFF5000
AF5FF000
AF5AF500
05505500
 
00000000
0AA00000
0AF50000
0AF50000
0AF50000
0AF50000
0AFFA000
00555500
 
00000000
00000000
AA0AA000
AFFAF500
AF5FF500
AF5AF500
AF5AF500
05505500
 
00000000
00000000
AAAAA000
AF5FF500
AF5AF500
AF5AF500
AF5AF500
05505500
 
00000000
00000000
AAAAA000
AF5FF500
AF5AF500
AF5AF500
AFFAF500
05555500
 
00000000
00000000
AAAAA000
AF5FF500
AF5AF500
AFFAF500
AF555500
AF500000
 
00000000
00000000
AAAAA000
AF5FF500
AF5AF500
AFFAF500
055FF500
000AFF00
 
00000000
00000000
AAAAA000
AF5FF500
AF505500
AF500000
AF500000
05500000
 
00000000
00000000
AAAAA000
AF555500
AFFAA000
055FF500
AAAAF500
05555500
 
00000000
0AA00000
AAFF0000
0FF55000
0AF50000
0AF50000
0AFFA000
00555500
 
00000000
00000000
AA0AA000
AF5AF500
AF5AF500
AF5AF500
AFFAF500
05555500
 
00000000
00000000
AA0AA000
AF5AF500
0FFA5500
0AFF5000
00F55000
00050000
 
00000000
00000000
AA0AA000
AFFAF500
AFFFF500
AFFFF500
0F5F5500
00505000
 
00000000
00000000
AA0AA000
0FFA5500
00F55000
0AAF0000
AA5FF000
05505500
 
00000000
00000000
AA0AA000
AF5AF500
AF5AF500
AFFAF500
055FF500
AAAAF500
 
00000000
00000000
AAAAA000
05FF5500
0AA55000
AA550000
AFFAA000
05555500
 
00000000
0AAA0000
0AF55000
AA550000
0FF00000
0AF50000
0AFF0000
00555000
 
00000000
00AA0000
00AF5000
00AF5000
00AF5000
00AF5000
00AF5000
00055000
 
00000000
0AAA0000
00FF5000
000FF000
00AA5500
00AF5000
0AAF5000
00555000
 
00000000
00000000
A000A000
AF0AA500
0FFA5500
00F55000
00050000
00000000
 
05555550
0AA00000
AAFF0000
AFFF5000
0FF55000
0AF50000
0AF50000
00550000
 
FFFFFFFF
FFFFFFFF
FFFFFFFF
FFFFFFFF
FFFFFFFF
FFFFFFFF
FFFFFFFF
FFFFFFFF
 
AAAAAAAA
AAAAAAAA
AAAAAAAA
AAAAAAAA
AAAAAAAA
AAAAAAAA
AAAAAAAA
AAAAAAAA
 
55555555
55555555
55555555
55555555
55555555
55555555
55555555
55555555
 
00000000
00000000
00000000
00000000
00000000
00000000
00000000
00000000
 
0FFFFFFF
00FFFFF0
000FFF00
0000F000
00000000
00000000
00000000
00000000
 
00000000
0000000F
000000FF
00000FFF
0000FFFF
00000FFF
000000FF
0000000F
 
00000000
00000000
00000000
00000000
000F0000
00FFF000
0FFFFF00
FFFFFFF0
 
F0000000
FF000000
FFF00000
FFFF0000
FFF00000
FF000000
F0000000
00000000
 
FFFFFFFF
FFFFFFF0
FFFFFF00
FFFFF000
FFFF0000
FFF00000
FF000000
F0000000
 
FFFFFFFF
0FFFFFFF
00FFFFFF
000FFFFF
0000FFFF
00000FFF
000000FF
0000000F
 
0FFFFFFF
00FFFFF0
000FFF00
0000F000
0000F000
000FFF00
00FFFFF0
0FFFFFFF
 
F0F0F0F0
0F0F0F0F
F0F0F0F0
0F0F0F0F
F0F0F0F0
0F0F0F0F
F0F0F0F0
0F0F0F0F
 
F0F0F0F0
0F0F0F0F
F0F0F0F0
0F0F0F0F
00000000
00000000
00000000
00000000
 
00000000
00000000
00000000
00000000
F0F0F0F0
0F0F0F0F
F0F0F0F0
0F0F0F0F
 
F0F00000
0F0F0000
F0F00000
0F0F0000
F0F00000
0F0F0000
F0F00000
0F0F0000
 
0000F0F0
00000F0F
0000F0F0
00000F0F
0000F0F0
00000F0F
0000F0F0
00000F0F
 
00000000
00000000
00000000
00000000
00000000
00000000
00000000
00000000
 
0000FFFF
0000FFFF
0000FFFF
0000FFFF
00000000
00000000
00000000
00000000
 
FFFF0000
FFFF0000
FFFF0000
FFFF0000
00000000
00000000
00000000
00000000
 
FFFFFFFF
FFFFFFFF
FFFFFFFF
FFFFFFFF
00000000
00000000
00000000
00000000
 
00000000
00000000
00000000
00000000
0000FFFF
0000FFFF
0000FFFF
0000FFFF
 
0000FFFF
0000FFFF
0000FFFF
0000FFFF
0000FFFF
0000FFFF
0000FFFF
0000FFFF
 
FFFF0000
FFFF0000
FFFF0000
FFFF0000
0000FFFF
0000FFFF
0000FFFF
0000FFFF
 
FFFFFFFF
FFFFFFFF
FFFFFFFF
FFFFFFFF
0000FFFF
0000FFFF
0000FFFF
0000FFFF
 
00000000
00000000
00000000
00000000
FFFF0000
FFFF0000
FFFF0000
FFFF0000
 
0000FFFF
0000FFFF
0000FFFF
0000FFFF
FFFF0000
FFFF0000
FFFF0000
FFFF0000
 
FFFF0000
FFFF0000
FFFF0000
FFFF0000
FFFF0000
FFFF0000
FFFF0000
FFFF0000
 
FFFFFFFF
FFFFFFFF
FFFFFFFF
FFFFFFFF
FFFF0000
FFFF0000
FFFF0000
FFFF0000
 
00000000
00000000
00000000
00000000
FFFFFFFF
FFFFFFFF
FFFFFFFF
FFFFFFFF
 
0000FFFF
0000FFFF
0000FFFF
0000FFFF
FFFFFFFF
FFFFFFFF
FFFFFFFF
FFFFFFFF
 
FFFF0000
FFFF0000
FFFF0000
FFFF0000
FFFFFFFF
FFFFFFFF
FFFFFFFF
FFFFFFFF
 
FFFFFFFF
FFFFFFFF
FFFFFFFF
FFFFFFFF
FFFFFFFF
FFFFFFFF
FFFFFFFF
FFFFFFFF
 
00000000
00000000
00000000
00000000
00000000
00000000
00000000
00000000
 
00000000
00AAAA00
00AFFF50
00AFFF50
00AFFF50
00055550
00AAAA00
00055550
 
00000000
0AAA0A00
0AFF5A50
00555050
00000000
00000000
00000000
00000000
 
00000000
0AAA0A00
AAFFFAF0
0FFF5F55
0AFF5A50
AAFFFAF0
0FFF5F55
00555050
 
00000000
00AAA000
AAAFFFA0
A5FFF555
AFAFFFA0
05FFF5F5
AAAFFFA5
05FFF555
 
00000000
0AA00AAA
0AF5AAF5
005FAF55
00AAF550
0AAF5FA0
AAF55AF5
05550055
 
00000000
0AAAA000
FAFF5F00
0FFFF050
AAFFF5A0
AFFF5F05
0FFFF0F0
00555505
 
00000000
000AA000
00AAF500
00A55500
000F0000
00005000
00000000
00000000
 
000000A0
0000AA05
000AA550
000AF500
000AF500
000AF500
0000FF00
000005F0
 
0A000000
00FA0000
000FF000
000AF500
000AF500
000AF500
00AA5500
0A055000
 
00000000
00000000
0AAA0A00
00FFF050
AAAFFFA0
05FFF555
0AAF5F00
00555050
 
00000000
000AA000
0000F500
00000500
0AAAAAAA
00555555
0000A000
000AAF00
 
00000000
00000000
00000000
00000000
00000000
5AAAAA00
00FFFF50
0AAFF550
 
00000000
00000000
00000000
00000000
0AAAAA00
00555550
00000000
00000000
 
00000000
00000000
00000000
00000000
00000000
0AAAA000
0AFFF500
00555500
 
00000000
00000000
0000AAAA
000AAFF5
00AAFF55
0AAFF550
AAFF5500
05555000
 
00000000
0AAAA0A0
AAFF5F05
FFF5F0F0
AF5F0FA5
A5F05AF5
0F0FAA55
00505550
 
00000000
0AAAA000
AAFFF500
0FFFF500
0AFFF500
0AFFF500
AAFFFF00
05555550
 
00000000
0AAAAA00
AAFFFFF0
0555FFF5
00AAAF55
AAAF5550
AFFFFAA0
05555555
 
00000000
0AAAAA00
AA55FFF0
055AAF55
000AFFF0
AA00FFF5
0FFAAF55
00555550
 
00000000
000AAA00
00AAFF50
0AA5FF50
AA55AF50
AFFAAFF0
0555FF55
00000550
 
00000000
AAAAAAA0
AFFF5555
AFFFFA00
0555FFF0
AA00AFF5
0FFAAF55
00555550
 
00000000
0AAAAAA0
AAFF5555
AFFFFA00
AFFF5FF0
AFFF5AF5
0FFFFA55
00555550
 
00000000
AAAAAAA0
AFFFFFF5
055FFF55
00AAF550
0AAF5500
0AFF5000
00555000
 
00000000
0AAAAA00
AAFF5FF0
0FFFFA55
AAFF5FF0
AFFF5AF5
0FFFFA55
00555550
 
00000000
0AAAAA00
AAFF5FF0
AFFF5AF5
0FFFFAF5
0055FFF5
0AAAAF55
00555550
 
00000000
00000000
00AA0000
00AF5000
00055000
00AA0000
00AF5000
00055000
 
00000000
00000000
00AA0000
00AF5000
00055000
00AA0000
000F5000
00A05000
 
00000000
00000000
000AAAA0
00AAFF55
0AAFF550
00FFFF00
000FFFF0
00005555
 
00000000
00000000
00000000
0AAAAAA0
00555555
0AAAAAA0
00555555
00000000
 
00000000
00000000
0AAAA000
00FFFF00
000FFFF0
00AAFF55
0AAFF550
00555500
 
00000000
0AAAAA00
AA5FFFF0
055AFFF5
00AAFF55
00055550
00AAA000
00055500
 
00000000
0AAAAA00
AA55FFF0
AF5AAFF5
AF5AFFF5
AF505555
0FFAAA00
00555550
 
00000000
0AAAAA00
AAFF5FF0
AFFF5AF5
AFFFFAF5
AFFF5FF5
AFFF5AF5
05555055
 
00000000
AAAAAA00
AFFF5FF0
AFFFFA55
AFFF5FF0
AFFF5AF5
AFFFFA55
05555550
 
00000000
0AAAAA00
AAFF5FF0
AFF55055
AFF50000
AFFF0AA0
0FFFFA55
00555550
 
00055500
AAAAA000
AFF5FF00
AFF50FF0
AFF50AF5
AFF5AA55
AFFFA550
05555500
 
00000000
AAAAAAA0
AFFF5555
AFFFFA00
AFFF5550
AFFF5000
AFFFFAA0
05555555
 
00000000
AAAAAAA0
AFFF5555
AFFFFA00
AFFF5550
AFFF5000
AFFF5000
05555000
 
00000000
0AAAAA00
AAFF5FF0
AFF55055
AFF5AAA0
AFF50FF5
0FFFAA55
00555550
 
00000005
AAAA00A0
AFFF50A5
AFFFFAA5
AFFF55F5
AFFF50A5
AFFF50A5
05555005
 
00500000
AAAAAA00
0FFFF550
0AFFF500
0AFFF500
0AFFF500
AAFFFF00
05555550
 
00000000
0000AAA0
0000AFF5
0000AFF5
AA00AFF5
AFF0AFF5
0FFFAF55
00555550
 
00005550
AAA0AA00
AFFFA550
AFFF5500
AFFFF000
AFF5FF00
AFF50FF0
05550055
 
00555500
AAAA0000
AFFF5000
AFFF5000
AFFF5000
AFFF5000
AFFFFAA0
05555555
 
00000000
AA0000A0
AFF00AA5
AFFFA0F5
AFF555A5
AFF500A5
AFF500A5
05550005
 
00000000
AAA000A0
AFF500A5
AFFF00A5
AFFFF0A5
AFFF5FA5
AFFF50F5
05555005
 
00000000
0AAAAA00
AAFF5FF0
AFFF5AF5
AFFF5AF5
AFFF5AF5
0FFFFA55
00555550
 
00000000
AAAAAA00
AFFF5FF0
AFFF5AF5
AFFFFA55
AFFF5550
AFFF5000
05555000
 
00000000
0AAAAA00
AAFF5FF0
AFFF5AF5
AFF5F0F5
AFFF0F05
0FFFF0F0
00555505
 
00000000
AAAAAA00
AFFF5FF0
AFFF5AF5
AFFFFA55
AFFFFF50
AFFF5FF0
05555055
 
00000000
0AAAAA00
AAFF5550
0FFFFA00
0055FFF0
AAA0AFF5
0FFFAF55
00555550
 
00000000
AAAAAAA0
05FFF555
00AFF500
00AFF500
00AFF500
00AFF500
00055500
 
00000000
AAAA00A0
AFFF50A5
AFFF50A5
AFFF50A5
AFFF50A5
0FFFFA05
00555550
 
00000000
AAAA00A0
AFFF50A5
AFFF5A05
AFFF5A50
AFFFF050
AFFFF500
05555500
 
00000000
AAA000A0
AFF500A5
AFF500A5
AFF5A0A5
AFFFAFA5
0FF55F55
00550050
 
00000000
AAA00AA0
0FFFAA55
00FFF550
00AFF500
0AAFFF00
AAF55FF0
05550055
 
00000000
AAA00AA0
0FFFAA55
00FFF550
00AFF500
00AFF500
00AFF500
00055500
 
00000000
AAAAAAA0
AFFFFFF5
055FFF55
00AAF550
0AAFFFA0
AAFFFFF5
05555555
 
00050000
00AAAAA0
00AFFF55
00AFFF50
00AFFF50
00AFFF50
00AFFFF0
00055555
 
00000000
00000000
AAAA0000
0FFFF000
00FFFF00
000FFFF0
0000FFFF
00000555
 
00000000
0AAAAA00
00FFFF50
00AFFF50
00AFFF50
00AFFF50
0AAFFF50
50555550
 
00000000
000AAA00
00AAFFF0
0AAFF55F
00555500
00000000
00000000
00000000
 
00000000
00000000
00000000
00000000
50000000
00000000
00000000
AAAAAAAA
 
00000000
00000000
00000000
00000000
00000000
00000000
00000000
00000000
 
00000000
000A00A0
00AA5AA5
00AF5AF5
00A55A55
0A05A050
00500500
0A00A000
 
00000000
0AA0AA00
0AF5AF50
00F50F50
0A05A050
00500500
00000000
00000000
 
00000000
00A00A00
AAAFAAF0
05F55F55
0A050A50
0A50A050
AAFAAFA0
0F55F555
 
00000000
0000A000
00AAAFA0
00A5F555
00AFAFA0
0005F5F5
00AAAFA5
0005F555
 
00000000
0A000AA0
A0F0AA55
0F0FA550
005A5500
00AA5A00
0AA5F0F0
AA550F05
 
00000000
0AAA0000
AA5FF000
0FFA5500
0AFF5000
AA5FF0A0
AF50FFA5
0FFAAF55
 
00000000
000AA000
000AF500
0000F500
000A0500
00005000
00000000
00000000
 
00000000
0000AA00
000AA550
00AA5500
00AF5000
00AF5000
000FF000
0000FF00
 
00000000
00AA0000
000FF000
0000FF00
0000AF50
0000AF50
000AA550
00AA5500
 
00000000
00000000
0AA0AA00
00FFA550
AAAFFFA0
05FFF555
0AA5FF00
00550550
 
00000000
00000000
000AA000
000AF500
0AAAFFA0
005FF555
000AF500
00005500
 
00000000
00000000
00000000
00000000
00AA0000
00AF5000
000F5000
00A05000
 
00000000
00000000
00000000
00000000
0AAAAAA0
00555555
00000000
00000000
 
00000000
00000000
00000000
00000000
00000000
00000000
0AA00000
0AF50000
 
00000000
000000A0
00000AA5
0000AA55
000AA550
00AA5500
0AA55000
AA550000
 
00000000
0AAAA000
AA55FF00
AF5A0FF0
AF5A5AF5
AF5A5AF5
0FF05AF5
00FFAA55
 
00000000
000AA000
00AAF500
000FF500
000AF500
000AF500
000AF500
0AAAFFA0
 
00000000
0AAAAA00
AA555FF0
0550AA55
00AAA550
0AA55500
AA550AA0
AFFAAAF5
 
00000000
AAAAAAA0
0555FF55
000AAF50
00005FF0
00000AF5
AA00AA55
0FFAA550
 
00000000
00AA0000
00AF5000
0AA5FA00
0AF5AF50
AAFFAFF0
0555FF55
0000AF50
 
00000000
AAAAAA00
AF555550
AFFAAA00
05555FF0
00000AF5
AA00AA55
0FFAA550
 
00000000
00AAAA00
0AA55550
AAFF0000
AF55FA00
AF500FF0
AF500AF5
0FFAAA55
 
00000000
AAAAAAA0
AF555FF5
0550AA55
000AA550
000AF500
000AF500
000AF500
 
00000000
0AAAA000
AA55FF00
0FFAAF50
AA555FF0
AF500AF5
0FF00AF5
00FFAA55
 
00000000
0AAAA000
AA55FF00
AF500FF0
0FF00AF5
00FFAAF5
00055FF5
0AAAAA55
 
00000000
00000000
00000000
0AA00000
0AF50000
00550000
0AA00000
0AF50000
 
00000000
00000000
0AA00000
0AF50000
00550000
0AA00000
00F50000
0A050000
 
00000000
0000AA00
0000A550
00AA0500
AAA55000
05FF0000
0005F000
0000AF00
 
00000000
00000000
00000000
0AAAAAA0
00555555
0AAAAAA0
00555555
00000000
 
00000000
0AA00000
00F50000
000FA000
0000FFA0
000AA555
00A05500
0AA50000
 
05555555
0AAAAA00
AA555FF0
0550AA55
000AA550
00005500
00AA0000
00AF5000
 
00000000
0AAAAA00
A05555F0
A5AAA0A5
A5A555A5
A5AFA0A5
A50555A5
0FAAAA05
 
00500500
000AAAA0
00AA5FF5
0AA55AF5
0AF50AF5
AAFFAAF5
0FF55FF5
AAF50AF5
 
00000000
AAAAA000
0FF5FF00
0AF5AF50
AAFFAFF0
0FF55FF5
0AF50AF5
AAFFAA55
 
00500500
0AAA0A00
AA55FA50
AF500550
AF500000
AF500000
0FF00AA0
00FFAA55
 
00000500
AAAAA000
0FF5FF00
0AF50FF0
0AF50AF5
0AF50AF5
0AF50AF5
AAFFAA55
 
05500050
AAAAAA00
0FF5FF50
0AF50550
AAFFAAA0
0FF55555
0AF50AA0
AAFFAAF5
 
00555550
AAAAAA00
0FF5FF50
0AF50550
AAFFAAA0
0FF55555
0AF50000
AAF50000
 
00000000
0AAA0A00
AA55FA50
AF500550
AF5AAAA0
AF505FF5
0FF0AAF5
00FFA5F5
 
00000550
AAA00AA0
0FF50AF5
0AF50AF5
AAFFAAF5
0FF55FF5
0AF50AF5
AAF50AF5
 
00055000
00AAAA00
000FF550
000AF500
000AF500
000AF500
000AF500
00AAFF00
 
00000000
0A0AAAA0
0AF05FF5
00550AF5
00000AF5
00000AF5
AA00AA55
0FFAA550
 
00000000
AAA00A00
0FF5AA50
AAFFA550
0FFFF500
0AF5FF00
0AF50FF0
AAF50AF5
 
00050000
AAA00000
0FF50000
0AF50000
0AF50000
0AF50000
0AF50AA0
AAFFAAF5
 
00000000
AA000AA0
0FF0AAF5
0AFFAFF5
0AFF5FF5
0A5F5AF5
0A505AF5
AA500AF5
 
00550000
AAA00AA0
0FFF0AF5
0AFF5AF5
0AF5FAF5
0AF5AFF5
0AF50FF5
AAF50AF5
 
05500000
0AAAA000
AA55FF00
AF500FF0
AF500AF5
AF500AF5
0FF00AF5
00FFAA55
 
00055550
AAAAA000
0FF5FF00
0AF50FF0
0AF50AF5
AAFFAA55
0FF55550
AAF50000
 
00555555
0AAAA000
AA55FF00
AF500FF0
AF5A0AF5
AF5AFAF5
0FF0FFF5
00FFAFF5
 
05555555
AAAAA000
0FF5FF00
0AF50FF0
0AF50AF5
AAFFAA55
0FF5FFF0
AAF50FF5
 
00555500
0AAAAA00
AA555550
0FFAA000
0055FF00
00000FF0
AA000AF5
0FFAAA55
 
00000550
AAAAAAA0
AF5FF555
055AF500
000AF500
000AF500
000AF500
00AAF500
 
00555500
AAA00AA0
0FF50AF5
0AF50AF5
0AF50AF5
0AF50AF5
00FF0AF5
000FFA55
 
00555550
AAA00AA0
0FF50AF5
0AF50AF5
0AF50AF5
0AF50AF5
0AF5AA55
0AFFA550
 
00005500
AA000AA0
0F500AF5
0A5A0AF5
0AFA5AF5
0AFFFAF5
0AF5FFF5
AA550FF5
 
00055550
AAA00AA0
05FFAAF5
000FF555
00AAFF00
0AA55FF0
0AF50AF5
AAF50AF5
 
00555550
AAA00AA0
0FF500F5
00FF0AA5
00AFFA55
000FF550
000AF500
00AAF500
 
00550000
0AAAAAA0
AA555FF5
0550AA55
000AA550
00AA5500
0AA55AA0
0AFFAAF5
 
005AAAA0
00AA5555
0005500A
000000A0
0000AA0F
0A0005FA
0A5A0A0F
0A5A50F0
 
00000550
00000000
00000000
50000000
00000000
50000000
50000000
50000000
 
00000000
00000000
00000000
00000000
00000000
00000000
00000000
00000000
 
00550000
00000000
00000000
00000000
00000000
00000000
00000000
00000000
 
00055000
00000000
00000000
00000000
00000000
00000000
00000000
00000000
 
00555550
00000000
00000000
00000000
00000000
00000000
00000000
00000000
 
05550055
00AA0000
00AF5000
00AF5000
00AF5000
00055000
00AA0000
00055000
 
05555550
AA0AA000
AF5AF500
05505500
00000000
00000000
00000000
00000000
 
00055550
AA0AA000
AFFAF500
AF5FF500
AF5AF500
AFFAF500
AF5FF500
05505500
 
05555550
00A00000
AAAFA000
AF555500
AFFAA000
055FF500
AAAAF500
05F55500
 
05555555
AA0AA000
AF5AF500
05FA5500
0AA55000
AA5FA000
AF5AF500
05505500
 
05550000
0AAA0000
AA5FF000
0FFA5500
0AFFFA00
AA5FF550
0FFAFF00
00555550
 
00055505
0000AA00
000AA550
00005500
00000000
00000000
00000000
00000000
 
05550055
00AA0000
0AA55000
0AF50000
0AF50000
0AF50000
00FF0000
00055000
 
00055550
00AA0000
000FF000
000AF500
000AF500
000AF500
00AA5500
00055000
 
00555500
00000000
AA0AA000
0FFA5500
AAFFF000
0FFF5500
AA5FF000
05505500
 
05550055
00000000
00AA0000
00AF5000
AAAFFA00
05FF5550
00AF5000
00055000
 
05555555
00000000
00000000
00000000
00000000
00000000
00AA0000
00A55000
 
05500055
00000000
00000000
00000000
AAAAA000
05555500
00000000
00000000
 
05550055
00000000
00000000
00000000
00000000
00AA0000
00AF5000
00055000
 
00055550
0000A000
000AA500
00AA5500
0AA55000
AA550000
A5500000
05000000
 
05550000
AAAAA000
AF5FF500
AF5AF500
AF5AF500
AF5AF500
AFFAF500
05555500
 
00055555
0AAA0000
0AFF5000
00FF5000
00AF5000
00AF5000
00AF5000
00055000
 
05550055
AAAAA000
AF5FF500
055AF500
AAAAF500
AF555500
AFFAA000
05555500
 
00555550
AAAAA000
AF5FF500
05FAF500
000FF500
AA0AF500
AFFAF500
05555500
 
00055500
AA0AA000
AF5AF500
AFFAF500
AFFFF500
055FF500
000AF500
00005500
 
00005550
AAAAA000
AF555500
AFFAA000
055FF500
AA0AF500
AFFAF500
05555500
 
00555500
AAAAA000
AF555500
AFFAA000
AF5FF500
AF5AF500
AFFAF500
05555500
 
05500055
AAAAA000
055FF500
000AF500
00AA5500
0AA55000
0AF50000
00550000
 
05550055
AAAAA000
AF5FF500
0FFA5500
AA5FF000
AF5AF500
AFFAF500
05555500
 
00055500
AAAAA000
AF5FF500
AF5AF500
AFFAF500
055FF500
AAAAF500
05555500
 
00555555
00000000
00AA0000
00055000
00000000
00AA0000
00055000
00000000
 
00505005
00000000
00000000
00AA0000
00055000
00000000
00AA0000
00A55000
 
00000000
00000000
000AA000
00AA5500
0AA55000
00FF0000
000FF000
00005500
 
00000000
00000000
00000000
0AAAA000
00555500
0AAAA000
00555500
00000000
 
00000000
00000000
0AA00000
00FF0000
000FF000
00AA5500
0AA55000
00550000
 
00000000
0AAA0000
AA5FF000
05FA5500
0AA55000
00550000
0AA00000
00550000
 
00000000
0AAA0000
AA5FF000
AFFAF500
AFFFF500
AF555500
0FFA0000
00555000
 
00000000
AAAAA000
AF5FF500
AFFAF500
AF5FF500
AF5AF500
AF5AF500
05505500
 
00000000
AAAAA000
AF5FF500
AFFA5500
AF5FF000
AF5AF500
AFFAF500
05555500
 
00000000
AAAAA000
AF555500
AF500000
AF500000
AF500000
AFFAA000
05555500
 
00050000
AAAA0000
AF5FF000
AF5AF500
AF5AF500
AF5AF500
AFFA5500
05555000
 
00000000
AAAAA000
AF555500
AFFA0000
AF555000
AF500000
AFFAA000
05555500
 
00000000
AAAAA000
AF555500
AFFA0000
AF555000
AF500000
AF500000
05500000
 
00000000
AAAAA000
AF555500
AF500000
AF5AA000
AF5AF500
AFFAF500
05555500
 
00000000
AA0AA000
AF5AF500
AFFAF500
AF5FF500
AF5AF500
AF5AF500
05505500
 
00000000
0AAAA000
00FF5500
00AF5000
00AF5000
00AF5000
0AAFF000
00555500
 
00000000
000AA000
000AF500
000AF500
000AF500
AA0AF500
AFFAF500
05555500
 
00000000
AA0AA000
AF5AF500
AFF05500
AF5FA000
AF5AF500
AF5AF500
05505500
 
00050000
AA000000
AF500000
AF500000
AF500000
AF500000
AFFAA000
05555500
 
00000000
AA0AA000
AFFAF500
AF5FF500
AF5AF500
AF5AF500
AF5AF500
05505500
 
00000000
AAAAA000
AF5FF500
AF5AF500
AF5AF500
AF5AF500
AF5AF500
05505500
 
00000000
AAAAA000
AF5FF500
AF5AF500
AF5AF500
AF5AF500
AFFAF500
05555500
 
00000000
AAAAA000
AF5FF500
AF5AF500
AFFAF500
AF555500
AF500000
05500000
 
00000000
AAAAA000
AF5FF500
AF5AF500
AFFAF500
AF5F5500
AFFAF000
05555500
 
00000000
AAAAA000
AF5FF500
AF5AF500
AFFA5500
AF5FF000
AF5AF500
05505500
 
00000000
AAAAA000
AF555500
AFFAA000
055FF500
000AF500
AAAAF500
05555500
 
00000000
AAAAAA00
05FF5550
00AF5000
00AF5000
00AF5000
00AF5000
00055000
 
00000000
AA0AA000
AF5AF500
AF5AF500
AF5AF500
AF5AF500
AFFAF500
05555500
 
00000000
AA0AA000
AF5AF500
AF5AF500
AF5AF500
0FFA5500
0AFF5000
00555000
 
00000000
AA0AA000
AF5AF500
AF5AF500
AF5AF500
AFFAF500
AF5FF500
05505500
 
00000000
AA0AA000
AF5AF500
0FFA5500
0AFF5000
AA5FF000
AF5AF500
05505500
 
00000000
AA0AA000
AF5AF500
AFFAF500
0FFF5500
0AFF5000
0AFF5000
00555000
 
00000000
AAAAA000
055FF500
00AA5500
0AA55000
AA550000
AFFAA000
05555500
 
00050000
0AAA0000
0AF55000
0AF50000
0AF50000
0AF50000
0AFF0000
00555000
 
00000000
00000000
AA000000
0FF00000
00FF0000
000FF000
0000FF00
00000550
 
00000000
0AAA0000
00FF5000
00AF5000
00AF5000
00AF5000
0AAF5000
00555000
 
00000000
00000000
00A00000
0AAF0000
AA5FF000
A550F500
05000500
00000000
 
00000000
00000000
00000000
00000000
00000000
00000000
00000000
AAAAAA00
 
00000000
00AAA000
0AA55500
AAFF0000
0FF55000
0AF50000
AAFFA000
05555500
 
00000000
00000000
AAAAA000
055FF500
AAAAF500
AF5FF500
AFFAF500
05555500
 
00000000
AA000000
AFFAA000
AF5FF500
AF5AF500
AF5AF500
AFFAF500
05555500
 
00000000
00000000
AAAAA000
AF555500
AF500000
AF500000
AFFAA000
05555500
 
00000000
000AA000
AAAAF500
AF5FF500
AF5AF500
AF5AF500
AFFAF500
05555500
 
00000000
00000000
AAAAA000
AF5FF500
AFFAF500
AF555500
AFFAA000
05555500
 
00000000
0AAAA000
0AF55500
0AFF0000
0AF55000
0AF50000
0AF50000
00550000
 
00000000
00000000
AAAAA000
AF5FF500
AF5AF500
AFFAF500
055FF500
AAAAF500
 
00000000
AA000000
AFFAA000
AF5FF500
AF5AF500
AF5AF500
AF5AF500
05505500
 
00000000
00000000
0AAAA000
00FF5500
00AF5000
00AF5000
0AAFF000
00555500
 
00000000
00000000
000AA000
000AF500
000AF500
000AF500
AA0AF500
AFFAF500
 
00000000
AA000000
AF5AA000
AFFA5500
AFFF5000
AF5FF000
AF5AF500
05505500
 
00000000
0AA00000
0AF50000
0AF50000
0AF50000
0AF50000
0AFFA000
00555500
 
00000000
00000000
AA0AA000
AFFAF500
AF5FF500
AF5AF500
AF5AF500
05505500
 
00000000
00000000
AAAAA000
AF5FF500
AF5AF500
AF5AF500
AF5AF500
05505500
 
00000000
00000000
AAAAA000
AF5FF500
AF5AF500
AF5AF500
AFFAF500
05555500
 
00000000
00000000
AAAAA000
AF5FF500
AF5AF500
AFFAF500
AF555500
AF500000
 
00000000
00000000
AAAAA000
AF5FF500
AF5AF500
AFFAF500
055FF500
000AFF00
 
00000000
00000000
AAAAA000
AF5FF500
AF505500
AF500000
AF500000
05500000
 
00000000
00000000
AAAAA000
AF555500
AFFAA000
055FF500
AAAAF500
05555500
 
00000000
0AA00000
AAFF0000
0FF55000
0AF50000
0AF50000
0AFFA000
00555500
 
00000000
00000000
AA0AA000
AF5AF500
AF5AF500
AF5AF500
AFFAF500
05555500
 
00000000
00000000
AA0AA000
AF5AF500
0FFA5500
0AFF5000
00F55000
00050000
 
00000000
00000000
AA0AA000
AFFAF500
AFFFF500
AFFFF500
0F5F5500
00505000
 
00000000
00000000
AA0AA000
0FFA5500
00F55000
0AAF0000
AA5FF000
05505500
 
00000000
00000000
AA0AA000
AF5AF500
AF5AF500
AFFAF500
055FF500
AAAAF500
 
00000000
00000000
AAAAA000
05FF5500
0AA55000
AA550000
AFFAA000
05555500
 
00000000
0AAA0000
0AF55000
AA550000
0FF00000
0AF50000
0AFF0000
00555000
 
00000000
00AA0000
00AF5000
00AF5000
00AF5000
00AF5000
00AF5000
00055000
 
00000000
0AAA0000
00FF5000
000FF000
00AA5500
00AF5000
0AAF5000
00555000
 
00000000
00000000
A000A000
AF0AA500
0FFA5500
00F55000
00050000
00000000
 
05555550
0AA00000
AAFF0000
AFFF5000
0FF55000
0AF50000
0AF50000
00550000
 

