 00 00 00 00 00 00 00 00 00 00 00 00 00 00 00 00
 00 00 00 00 00 00 00 00 00 00 00 00 00 00 00 00
 00 00 00 00 00 00 00 00 00 00 00 00 00 00 00 00
 00 00 00 00 00 00 00 00 00 00 00 00 00 00 00 00
 00 00 00 00 00 00 00 00 00 00 00 00 00 00 00 00
 00 00 00 00 00 00 00 00 00 00 00 00 00 00 00 00
 00 00 00 00 00 00 00 00 00 00 00 00 00 00 00 00
 00 00 00 00 00 00 00 00 00 00 00 00 00 00 00 00
 00 00 00 00 00 00 00 00 00 00 00 00 00 00 00 00
 00 50 55 00 00 50 55 55 00 00 00 55 00 00 00 55
 55 05 00 00 55 55 00 00 55 55 00 00 50 55 00 00
 55 55 00 00 55 55 00 00 55 55 00 00 55 55 00 00
 00 55 00 00 00 00 00 00 00 00 00 00 00 00 00 00
 00 00 00 00 00 50 55 00 00 00 00 00 00 00 00 00
 00 00 00 00 05 00 00 00 05 00 00 00 00 00 00 00
 00 00 00 00 05 00 00 00 00 00 00 00 00 00 00 00
 00 00 00 00 00 00 00 00 00 00 00 00 00 00 00 00
 00 00 05 00 00 00 00 00 00 50 05 00 00 50 05 00
 50 55 55 00 00 55 55 00 00 55 55 00 00 50 55 00
 00 00 05 00 00 00 00 00 00 00 00 00 00 00 00 00
 00 50 55 55 00 00 00 00 00 00 00 00 00 00 00 00
 00 00 00 00 00 00 00 00 00 00 00 00 00 00 00 00
 55 55 00 50 00 50 00 00 00 50 00 00 00 00 00 00
 00 00 00 00 00 00 00 00 00 00 00 50 00 00 00 50
 00 00 00 00 05 00 00 00 05 00 00 00 55 55 55 00
 55 55 55 55 55 55 55 55 55 55 55 05 55 55 55 05
 00 50 55 05 00 50 55 05 00 50 55 05 00 50 00 00
 55 50 00 00 00 00 00 00 00 00 00 00 00 00 00 00
 00 00 55 05 00 50 55 05 00 50 55 05 00 50 55 55
 00 55 55 55 00 50 55 55 00 00 55 55 00 00 55 55
 55 55 05 00 55 55 05 00 55 55 05 00 55 55 25 01
 55 55 75 51 55 55 77 77 55 00 d7 7c 55 00 d7 7c
 00 00 00 00 00 00 00 00 00 00 00 00 00 00 00 00
 00 00 00 00 00 00 00 00 00 00 00 00 00 00 00 00
 00 00 00 00 00 00 00 00 00 00 00 00 00 00 00 00
 00 00 00 00 00 00 00 00 00 00 00 00 00 00 00 00
 00 00 00 00 00 00 00 00 00 00 00 00 00 00 00 00
 00 00 00 00 00 00 00 00 00 00 00 00 00 00 00 00
 00 00 00 00 00 00 00 00 00 00 00 00 00 00 00 00
 00 00 00 00 00 00 00 00 00 00 00 00 00 00 00 00
 00 00 00 00 00 00 00 00 00 00 00 00 00 00 00 00
 00 00 00 00 00 00 00 00 00 00 00 50 00 00 11 c7
 00 50 00 00 00 00 00 00 00 00 00 00 00 00 00 00
 00 00 00 00 00 10 00 00 11 c7 15 17 cc cc cc cf
 00 00 00 00 00 00 50 00 00 00 00 00 00 00 00 00
 00 00 00 00 00 00 00 00 00 00 00 00 77 11 11 05
 00 00 00 00 00 00 00 00 00 00 00 00 00 00 00 00
 00 00 00 00 00 00 00 00 00 00 00 00 00 00 00 00
 00 50 05 00 00 00 00 00 00 00 00 00 00 00 00 00
 00 00 00 00 00 00 00 00 00 00 00 50 00 00 00 55
 00 00 00 00 00 55 05 00 00 55 05 00 00 55 05 00
 50 55 00 00 55 05 00 00 55 05 00 00 55 05 00 00
 00 00 00 00 00 00 50 00 00 00 50 55 00 00 50 55
 00 00 50 11 00 00 10 11 00 00 10 11 00 00 50 11
 00 00 00 50 00 00 00 00 05 00 00 00 05 00 00 00
 51 00 00 00 51 00 00 00 51 05 00 55 05 55 55 55
 55 55 55 05 55 55 55 05 55 55 55 55 55 55 55 55
 55 55 55 55 55 55 55 05 55 55 55 05 50 55 55 00
 00 00 00 00 00 00 00 00 00 00 00 00 00 00 00 00
 00 00 00 00 00 00 00 00 00 00 00 00 00 00 00 00
 00 00 00 55 00 00 50 55 00 50 55 55 00 50 55 55
 00 55 55 55 00 55 55 55 00 55 55 55 00 55 55 55
 55 00 70 7c 55 00 50 51 05 00 20 57 05 00 20 57
 05 00 50 57 00 00 00 05 00 00 00 00 00 00 00 00
 00 00 00 00 00 00 00 00 00 00 00 00 00 00 00 00
 00 00 00 00 00 00 00 00 00 00 00 00 00 00 00 00
 00 00 00 00 00 00 00 00 00 00 00 00 00 00 00 00
 00 00 00 00 00 00 00 00 00 00 00 00 00 00 00 00
 00 00 00 00 00 00 00 00 00 00 00 00 00 00 00 00
 00 00 00 00 00 00 00 00 00 00 00 00 00 00 00 00
 00 00 00 00 00 00 00 00 00 00 00 00 00 00 50 55
 00 10 97 c9 00 10 97 c9 50 91 cc cc 11 99 c9 cc
 00 00 11 c7 00 75 cc cc 71 cc cc cc cc cc cc cc
 cc cc cc cc cc cc cc cc cc cc cc cc cc cc cc cc
 cc cc cc cf cc cc cc fc cc cc cc cc cc cc cc cc
 cc cc cc cc cc cc cc cc cc cc cc cc cc cc cc cc
 77 11 11 05 ff cc cc 5c fc ff cc cc cc cc cc cc
 cc cc cc cc cc cc cc cc cc cc cc cc cc cc cc cc
 00 00 00 00 50 05 00 00 cc 1c 51 71 ff ff cc fc
 ff fc ff ff ff fc ff ff cc cc cc cc cc cc cc cc
 00 00 00 55 00 55 71 cc 77 cc cc ff ff ff cf cc
 ff cf cc cc ff cf cc cc cc cc cc cc cc cc cc cc
 55 05 00 00 c7 57 55 05 ff cc cc 57 cf cc cc cc
 cc cc cc cc cc cc cc cc cc cc cc cc cc cc cc cc
 00 00 50 11 00 10 05 55 55 75 01 50 cc cc 07 50
 cc ff 0c 00 cc ff 0c 00 cc cc 7c c7 cc cc cc cc
 05 55 55 55 00 00 55 55 05 00 55 55 00 00 55 55
 00 00 50 55 00 00 50 55 7c 00 55 05 cc 05 00 00
 50 55 55 00 05 50 55 00 05 00 00 00 05 00 00 00
 00 00 00 00 00 00 00 00 00 00 00 00 00 00 00 00
 00 00 00 00 00 00 00 00 00 00 00 00 00 00 00 00
 00 00 00 00 00 00 00 00 00 00 00 00 00 00 00 00
 00 55 55 55 00 50 55 05 00 50 55 05 00 00 00 00
 00 00 00 00 00 00 00 00 00 05 00 00 00 55 00 00
 00 00 00 00 00 00 00 00 00 00 00 00 00 00 50 55
 00 00 50 55 00 00 50 55 00 00 50 55 00 00 00 05
 00 00 00 00 00 00 00 00 00 00 00 00 00 00 00 00
 00 00 00 00 00 00 00 00 00 00 00 00 00 00 00 00
 00 00 00 00 00 00 00 00 00 00 00 00 00 00 00 00
 00 00 00 00 00 00 00 00 00 00 00 00 00 00 00 00
 00 00 00 10 00 00 00 10 00 00 50 91 00 00 15 99
 00 00 91 99 00 00 91 99 00 00 91 99 00 00 91 99
 99 99 99 c9 99 99 99 c9 99 99 99 99 99 99 99 99
 99 99 99 99 99 99 99 99 99 99 99 99 99 99 99 99
 9c c9 cc cc 9c c9 cc cc 99 99 cc cc 99 99 99 c9
 99 99 99 9c 99 99 c9 99 99 99 c9 99 99 99 99 99
 cc cc cc cc cc cc cc cc cc cc c9 cc cc cc cc cc
 99 99 99 c9 99 99 99 99 99 99 99 99 99 99 99 99
 cc cc cc cc cc cc cc cc cc cc cc cc cc cc cc cc
 cc cc cc cc c9 cc cc cc c9 cc cc cc c9 cc 9c cc
 cc cc cc cc cc cc cc cc cc cc cc cc cc cc cc cc
 cc cc cc cc cc cc cc cc cc cc cc cc cc cc cc cc
 cc cc cc cc cc cc cc cc cc cc cc cc cc cc cc cc
 cc cc cc cc cc cc cc cc cc cc cc cc cc cc cc cc
 cc cc cc cc cc cc cc cc cc cc cc cc cc cc cc cc
 cc cc cc cc cc cc cc cc cc cc cc cc cc cc cc cc
 cc cc cc cc cc cc cc cc cc cc cc cc cc cc cc cc
 cc cc cc cc cc cc cc cc cc cc cc cc cc cc cc cc
 cc 7c 00 50 cc 7c 00 50 cc 7c 00 55 9c 59 05 50
 cc cc 7c 55 cc cc cc 7c cc cc cc 7c cc cc cf ff
 05 00 00 00 05 00 00 00 05 00 00 00 05 00 00 00
 00 00 00 00 00 00 00 00 00 00 00 00 05 00 00 00
 00 00 00 00 00 00 00 00 00 00 00 00 00 00 00 00
 00 00 00 00 00 00 00 00 00 00 00 00 00 00 00 55
 00 50 05 00 00 50 05 00 00 00 00 00 00 00 00 00
 00 00 00 00 00 00 00 00 00 00 00 00 05 00 00 55
 00 00 50 05 00 00 50 05 00 00 55 55 00 00 00 55
 00 00 05 50 00 50 55 50 00 50 55 50 05 50 57 55
 00 00 00 00 55 00 00 00 55 00 00 00 77 05 00 00
 7f 05 00 00 57 00 00 00 00 00 00 00 00 00 00 00
 00 00 00 00 00 00 00 00 00 00 00 00 00 00 00 00
 00 00 00 00 00 00 00 00 00 00 00 00 00 00 00 00
 00 00 91 99 00 00 91 99 00 00 91 99 00 00 91 99
 00 00 11 11 00 00 10 11 00 00 00 11 00 00 00 11
 99 99 99 99 99 99 99 99 99 99 99 99 99 99 99 99
 11 99 99 99 91 99 99 19 11 91 99 11 11 91 99 11
 99 99 99 99 99 99 99 c9 99 99 99 c9 99 99 99 c9
 99 79 97 cc 79 cc cc cc c7 cc cc cc c7 cc cc cc
 99 99 99 99 cc cc cc c9 cc cc cc c9 cc cc cc cc
 cc cc ff cc cc ff ff cf cc cc ff ff cc cc ff ff
 c9 cc 99 c9 cc cc 99 99 cc cc 99 99 cc 9c 99 99
 cc 9c 99 99 cc cc cc cc cc cc cc cc cc cc cc cc
 cc cc cc cc cc cc cc cc cc cc cc cc c9 cc cc cc
 cc cc cc cc cc cc cc cc cc cc cc cc cc cc cc cc
 cc cc cc cc cc cc cc 9c cc cc cc 9c cc cc cc 9c
 cc cc cc 99 cc cc 9c 99 cc cc 9c 99 cc cc 9c 99
 cc cc cc cc 9c cc cc cc 9c cc cc cc 99 99 c9 cc
 cc 99 cc cc cc 99 99 c9 99 99 99 99 99 99 99 99
 cc cc cc cc cc cc cc cc cc cc cc cc cc cc cc cc
 cc cc cc cc cc cc cc cc 99 99 cc cc 99 99 cc cc
 cc fc fc ff cc fc cf fc cc fc cf fc cc cc cc cc
 cc cc cc cc cc cc cc cc cc cc cc cc cc cc cc cc
 5c 00 00 50 7f 05 00 50 7f 05 00 50 ff 57 00 55
 fc 7c 05 55 cc cc 5c 55 cc cc cc 55 cc cc cc 55
 00 00 50 55 05 00 50 75 05 00 50 75 05 00 50 55
 05 00 50 55 05 00 55 75 05 50 55 75 05 50 55 75
 01 00 55 55 57 55 55 55 57 55 55 55 57 55 55 55
 55 75 77 57 57 77 77 57 57 75 cc 77 57 75 cc 77
 55 55 57 55 55 55 55 55 55 55 55 55 55 55 55 55
 55 55 55 55 55 55 55 00 55 55 05 00 55 55 05 00
 00 00 00 00 00 00 00 00 00 00 00 00 00 00 00 00
 00 00 00 00 00 00 00 05 00 00 00 00 00 00 00 00
 00 00 00 00 00 00 00 00 00 00 00 00 00 00 00 00
 00 00 00 00 00 00 00 00 00 00 00 05 55 00 00 00
 00 00 00 10 00 00 00 c5 00 00 00 f7 00 00 00 f7
 00 00 50 ff 00 00 70 ff 00 00 c5 ff 00 00 f1 ff
 cc 11 19 11 cc 11 11 11 cf 17 11 11 cf 17 11 11
 ff 7c 11 11 ff cc 17 11 ff cc 1c 11 ff cf cc 11
 c7 cc cc cc c7 cc cc cc c1 cc cc cc c1 cc cc cc
 c1 cc cc cc 71 cc cc fc 71 cc cc ff c7 cc cc ff
 77 77 fc ff 77 70 fc ff cc c7 fc cc cc c7 fc cc
 cc cc cc cc cc cc cc cc ff ff cc cc ff cf cc cc
 cf cf cc cc ff cf cc cc fc cf cc cc fc cf cc cc
 cc ff cc cc cc ff cc cc fc ff cc cc fc cf cc cc
 cc cc cc cc c9 cc cc cc cc cc cc cc cc cc cc cc
 cc cc cc cc cc cc cc cc cc cc cc cc cc cc cc cc
 cc cc 9c 99 cc 9c 99 99 cc 9c 9c c9 cc 9c 9c c9
 cc 9c 9c 99 cc cc 9c 99 cc cc 9c 99 cc 99 99 c9
 99 99 99 99 9c 99 99 99 99 99 99 99 99 99 99 99
 c9 cc cc c9 c9 cc cc cc c9 cc cc cc cc cc cc cc
 99 99 99 c9 99 99 99 c9 c9 99 99 cc c9 99 99 cc
 cc cc cc cc cc cc cc cc cc cc 9c 99 cc cc 99 99
 cc cc 9c 99 cc cc 9c 99 cc cc 99 c9 cc cc 99 c9
 9c 99 99 99 99 99 cc cc 99 99 c9 cc c9 9c 99 99
 cc cc cc 55 cc cc cc 05 cc cc cc 05 cc cc cc 05
 cc cc cc 55 cc cc cc 55 cc cc cc 55 cc cc cc 71
 00 50 55 55 00 00 55 55 00 00 50 55 00 00 50 55
 05 00 50 55 05 00 50 05 05 00 50 05 7c 00 50 05
 57 55 c7 7c 55 55 7b 7c 55 55 b5 77 55 55 b5 77
 55 55 55 75 00 55 55 75 00 50 55 55 00 00 50 55
 77 c7 57 00 77 cc 57 55 77 7c 55 00 77 7c 55 00
 77 57 05 00 77 55 05 00 57 55 05 00 55 50 55 50
 00 00 00 00 00 00 00 00 00 00 00 55 00 00 00 00
 00 00 00 00 00 00 00 00 00 00 00 00 00 00 00 00
 55 00 00 00 05 00 00 50 05 00 00 00 00 00 00 00
 00 00 00 00 00 00 00 00 00 00 00 00 00 00 00 00
 00 00 f1 ff 05 00 f1 ff 50 05 f7 fc 55 55 f7 cc
 00 00 fc cc 00 00 fc cc 00 00 cc cc 00 00 cc cc
 ff cf cc 11 ff cf cc 51 ff cf 7c 51 ff ff 7c 11
 ff cf 7c 11 ff cf 7c 11 ff cf 7c 11 fc cf 7c 27
 c7 cc cc ff c1 cc cc ff 75 cc cc ff 15 cc cc cc
 15 c7 cc fc 15 c7 cc fc 11 c7 cf fc 71 cc ff cc
 ff cf cc cc ff cf cc ff ff ff cc ff cc ff ff ff
 ff ff ff ff ff ff ff ff ff ff ff ff ff ff ff ff
 fc cf cc cc ff ff cc cc ff ff cc cc ff cf cc cc
 ff cf cc cc ff cf cc cc ff cf cc cc fc cf cc cc
 cc cc cc cc cc cc cc cc cc cc cc cc cc cc cc cc
 cc cc cc cc cc cc cc cc cc cc cc cc cc cc cc cc
 cc 99 99 c9 cc 99 99 c9 cc 99 99 99 cc 9c 99 99
 cc cc 99 99 cc cc 99 99 cc cc 99 c9 cc cc cc cc
 cc cc cc cc cc cc cc cc 99 c9 cc cc 99 c9 cc cc
 99 99 cc 99 99 99 cc 99 9c 99 99 99 9c 99 99 99
 cc cc 99 99 cc 99 99 99 9c 99 99 99 9c 99 99 99
 99 99 99 c9 99 99 99 c9 99 99 99 99 99 99 99 99
 c9 9c 99 99 c9 99 99 99 c9 99 c9 99 cc 99 cc 99
 9c c9 cc cc 9c c9 cc cc 99 c9 99 c9 99 99 99 c9
 cc cc cc 71 c9 cc cc ff c9 cc cc ff c9 cc fc ff
 99 cc fc cf 99 cc fc cf cc cc cc cc cc cc cc cc
 7c 00 50 05 cf 05 55 55 cf 05 50 55 cf 51 55 55
 cc cc cc 51 cc cc cc 51 cc cc cc 57 fc cc cc 55
 00 00 50 55 00 50 00 55 00 50 55 05 05 50 55 05
 55 55 55 55 55 55 55 55 55 55 05 10 55 55 00 55
 55 50 55 50 00 50 55 55 00 55 55 75 50 77 77 c7
 10 77 77 cc 10 77 77 cc 15 77 77 cc 55 77 77 cc
 00 00 00 00 00 00 00 00 00 00 00 00 00 00 00 00
 00 00 00 00 00 00 00 00 00 00 00 00 00 00 00 00
 00 00 00 00 00 00 00 00 00 00 00 00 00 00 00 00
 00 00 00 00 00 00 00 00 00 00 00 00 00 00 00 00
 00 00 cc cc 00 00 cc cc 00 00 cc cc 00 00 cc cc
 00 00 cc cc 00 00 c7 cc 00 00 c7 cc 00 00 c1 cc
 cc cf 7c 77 cc cf 7c 77 cc cc 7c 22 cc cc 17 51
 cc cc 11 51 cc 7c 11 05 cc 7c 11 05 cc 7c 11 05
 11 c7 fc ff 11 c7 fc ff 55 71 fc ff 00 10 fc ff
 00 10 fc ff 00 50 f7 ff 00 50 f7 ff 00 00 f1 ff
 ff ff ff ff ff ff ff ff ff ff ff ff ff ff ff ff
 ff ff ff ff ff ff ff ff ff ff ff ff ff ff ff ff
 cc cf cc cc cc cf cc cc ff cf cc cc ff cf cc cc
 ff cf cc cc ff ff cc cc ff ff cc cc ff ff cc cc
 cc cc cc cc cc cc cc cc cc cc cc cc cc cc cc cc
 cc cc cc cc cc cc cc 9c cc cc cc 9c cc cc cc 99
 cc cc cc cc cc cc cc cc cc cc cc cc cc 9c c9 cc
 cc 99 99 cc 99 99 99 cc 99 99 99 cc 99 99 99 99
 9c 99 99 99 9c 99 99 99 9c 99 99 99 9c 99 99 c9
 9c 99 99 cc 9c 99 c9 cc 9c 99 c9 cc 99 99 cc cc
 99 99 99 99 99 99 99 99 99 99 99 99 99 99 99 99
 99 99 99 99 9c 99 99 99 9c 99 99 99 9c 99 99 c9
 c9 99 c9 99 c9 99 c9 99 99 99 c9 99 c9 99 c9 99
 cc 99 99 99 99 99 99 99 99 99 99 99 99 99 99 99
 cc cc cc fc cc cc cc fc cc cc cc cc cc cc cc cc
 cc cc fc cf cc fc ff cf cc fc ff cf cc fc ff cf
 ff cf cc 1c ff cf cc 1c fc cc cc 9c cc cc cc 99
 cc cc 9c 99 cc cc 99 99 cc cc 99 99 9c c9 99 99
 97 19 55 55 97 19 55 55 cc cc 1c 55 c9 cc cc 55
 cc cc cc 5c cc cc cc 7c cc cc cc 7c cc fc ff cc
 55 75 77 77 55 75 77 77 55 55 75 55 55 5b 55 55
 55 7b 55 55 55 75 57 55 55 75 57 55 59 55 55 55
 00 00 00 00 00 00 00 00 00 00 00 00 00 00 00 00
 00 00 00 00 00 00 00 00 00 00 00 00 00 00 00 00
 00 00 00 00 00 00 00 00 00 00 00 00 00 00 00 00
 00 00 00 00 00 00 00 10 00 00 00 15 00 00 00 15
 00 00 c1 cc 00 00 70 cc 00 00 70 cc 00 00 10 cc
 00 00 00 c7 00 00 00 c1 00 00 00 75 00 00 00 75
 cc 7c 11 99 cc 7c 11 99 cc 7c 11 99 cc 77 11 99
 cc 77 11 19 cc 17 11 11 cc 17 11 11 cc 17 11 11
 51 00 f1 ff 11 11 f7 ff 11 11 f7 ff 11 11 77 ff
 11 21 72 c7 21 17 11 11 27 11 11 11 27 11 11 11
 ff ff ff ff ff ff ff cf ff ff ff cf ff ff ff cf
 ff ff cf cc c7 ff cf cc 51 71 cf cc 51 71 cf cc
 ff cf cc cc cc cf cc cc cc cf cc cc cc cc cc cc
 cc cc cc cc fc cc cc cc cc cc cc cc cc cc cc cc
 cc cc 9c 99 9c 99 99 99 9c 99 99 99 9c 99 99 99
 cc 99 99 99 cc 99 99 99 cc 99 99 99 cc 99 99 99
 99 99 99 99 99 99 99 99 99 99 99 99 99 99 99 99
 99 99 99 99 99 99 99 99 99 99 99 99 99 99 99 99
 99 99 99 c9 99 99 99 c9 99 99 99 c9 99 99 99 cc
 99 99 99 9c 99 99 99 99 99 99 99 99 99 99 99 99
 9c 99 99 c9 9c 99 99 99 9c 99 99 99 99 99 99 99
 99 99 99 99 99 99 99 99 99 99 99 99 99 99 99 99
 99 99 99 99 99 99 99 99 99 99 99 99 99 99 c9 99
 99 99 c7 99 99 79 c7 9c 99 77 c7 cc 99 77 c7 cc
 c9 fc ff cf 99 cc ff ff 99 cc ff ff 99 c9 ff ff
 99 c9 ff ff 99 c9 cc fc 99 c9 cc fc 99 c9 cc fc
 9c 99 99 c9 cc 99 99 99 cc 99 99 99 cf 9c 99 99
 cf 9c 99 99 cf 9c 99 99 cf cc 99 99 cf cc 99 99
 c9 cc cc 9f 99 cc cc 9c 99 cc cc 9c 99 cc cc cc
 99 99 cc cc 99 99 cc cc 99 99 cc cc 99 99 cc cc
 17 55 55 55 77 55 55 55 77 55 55 55 77 51 55 75
 cc 5c 55 77 cc 7c 55 75 cc cf 55 55 cc cf 55 55
 00 00 00 00 00 00 00 00 00 00 00 00 00 00 00 00
 00 00 00 00 00 00 00 00 00 50 55 55 55 77 77 77
 00 00 00 50 00 00 00 50 00 00 00 50 00 00 00 50
 00 00 00 50 00 00 00 00 00 00 00 00 05 00 00 00
 05 00 00 15 55 00 00 15 55 00 00 10 55 00 00 10
 55 05 00 10 50 05 00 15 50 55 50 c1 00 15 75 cc
 77 17 11 27 77 99 71 77 11 91 77 17 11 91 77 17
 11 99 79 11 cc 99 99 99 cc 99 99 99 cc 99 99 19
 12 11 11 11 12 11 51 11 00 50 11 11 00 50 11 11
 00 00 51 55 11 00 51 05 99 11 51 55 91 11 55 05
 11 50 cc cc 11 11 71 cc 11 11 15 71 11 11 15 71
 11 51 55 15 50 51 50 05 55 05 00 00 55 05 00 50
 cc cc cc c9 cc c7 9c 99 77 97 99 99 77 97 99 99
 91 99 99 99 91 99 99 99 95 99 99 99 91 99 99 99
 cc 99 99 99 99 99 99 99 99 99 99 99 99 99 99 99
 99 99 99 99 99 99 99 99 99 99 99 99 99 99 99 99
 99 99 99 99 99 99 99 99 99 99 99 99 99 99 99 99
 99 99 99 99 99 99 99 99 99 99 99 99 99 99 99 99
 99 99 99 99 99 99 99 99 99 99 99 99 99 99 99 99
 99 99 99 99 99 99 99 19 99 99 99 99 99 99 99 99
 99 99 99 99 19 99 99 99 11 11 99 99 11 11 99 99
 51 15 91 c9 11 15 91 77 11 11 91 c9 11 91 99 c9
 99 77 cc cc c9 c7 cc cc cc c7 cc cc cc c7 cc cc
 cc cc cc cc cc cc cc cc cc 99 99 99 cc 99 99 99
 99 c9 cc cc 99 c9 cc cc 99 99 cc cc 99 99 cc cc
 9c 99 c9 cc cc 99 99 cc 99 99 99 9c 99 99 99 99
 ff cf 99 99 ff ff 99 99 ff cf cc 99 ff cf cc 99
 cc cc cc 99 cc cc cc 99 cc cc 99 99 c9 cc 99 99
 99 99 c9 cc 99 99 99 c9 99 99 99 99 99 99 99 99
 99 99 99 cc 99 c9 cc cc 99 cc cc cc 99 c9 9c 99
 c7 cc 05 50 9c c9 0c 00 cc c9 5c 55 cc c9 5c 55
 7c cc 9c 55 1c c7 9c 51 cc c1 9c 59 cc 99 9c 9c
 55 77 77 77 77 cc 77 77 dd cd 7c 77 dc cc 77 77
 cc 77 77 77 cc 77 77 77 bb 7b 77 77 bb bb 77 17
 05 00 00 00 07 00 00 00 5c 00 00 00 5c 00 00 00
 57 00 00 00 57 00 00 00 07 00 00 50 05 00 00 70
 00 15 75 cc 00 15 cc cc 00 10 cc cc 50 c1 cc 9c
 75 cc cc cc 75 cc cc cc cc cc cc cc cc cc 99 cc
 cc 99 99 19 9c 99 99 19 cc 99 9c 99 c9 99 99 99
 cc 99 99 99 cc 99 99 99 cc 99 99 99 9c 99 99 99
 91 11 55 05 99 11 11 15 99 99 99 51 99 99 99 11
 99 99 99 11 99 99 99 11 99 99 99 11 c9 99 99 19
 55 05 00 50 11 15 15 11 11 11 11 11 11 11 11 99
 11 11 11 91 11 11 11 91 11 11 11 11 11 11 11 15
 91 99 99 99 99 99 99 99 99 99 91 99 99 19 91 99
 99 19 91 99 99 19 91 99 99 01 91 99 11 05 10 99
 99 99 99 99 99 99 99 99 99 99 99 99 99 99 99 99
 99 99 99 99 99 99 99 99 99 99 19 99 99 99 19 91
 99 99 99 99 99 99 99 99 99 99 99 99 99 99 99 99
 99 99 91 99 99 99 91 99 99 99 11 99 99 99 11 91
 99 99 99 99 99 99 99 99 99 99 99 99 99 99 99 99
 99 99 99 99 99 99 99 99 99 99 99 99 99 99 99 99
 11 91 99 c9 99 99 99 99 99 99 99 99 99 99 99 99
 99 99 99 99 99 99 99 99 99 99 99 99 99 99 99 99
 cc 99 99 99 99 99 99 99 99 99 99 99 99 99 99 99
 99 99 99 99 99 99 99 99 99 99 99 99 99 99 99 99
 99 99 99 99 99 99 99 99 99 99 99 99 99 99 99 99
 99 99 99 99 99 99 99 99 99 99 99 99 99 99 99 99
 c9 cc 99 99 99 cc 99 99 99 c9 99 99 99 99 99 99
 99 99 99 99 99 99 99 99 99 99 99 99 99 99 c9 99
 99 c9 9c 99 99 99 c9 9c 99 99 9c 9c 91 99 99 99
 91 99 99 99 91 99 99 99 99 99 99 99 99 99 99 c9
 cc 99 9c 9c cc c9 9c 9c cc cc 9c c9 c9 cc 9c c9
 99 c9 9c cc 99 c9 9c cc 99 c9 9c cc 9c 99 9c c9
 bb 5b 55 00 bb 5b 55 00 bb 7b 05 00 bb 7b 05 00
 77 c7 07 00 55 55 05 00 55 55 05 00 00 00 00 00
 00 00 00 c0 00 00 00 c0 00 00 00 c0 00 00 00 c1
 00 00 00 9c 00 00 10 9c 00 00 10 9c 00 00 70 c9
 cc cc cc cc cc cc cc cc cc cc cc cc 9c c9 cc 9c
 11 c9 cc 99 99 99 9c 99 99 99 9c 99 cc 99 99 99
 9c 99 99 99 9c 99 99 99 99 99 99 19 99 99 99 19
 99 99 99 19 99 99 99 99 99 99 99 99 99 91 c9 99
 c9 9c 91 99 c9 9c 91 99 91 9c 19 99 71 99 19 11
 11 99 99 11 11 91 79 55 11 91 79 55 11 11 11 55
 19 11 11 55 19 11 11 55 99 11 11 51 19 11 11 11
 11 11 11 11 11 11 51 55 11 11 51 55 11 11 51 55
 51 55 10 91 51 55 10 91 55 11 55 91 15 11 01 95
 11 11 01 90 11 11 51 15 11 11 51 15 11 11 51 15
 99 99 19 91 99 99 19 91 99 91 19 11 99 91 19 11
 19 11 19 11 11 11 19 11 11 11 19 11 11 11 11 11
 99 91 11 11 99 91 11 11 99 91 19 11 19 11 19 11
 11 11 11 11 11 11 11 11 11 11 11 11 11 11 11 11
 99 99 99 99 99 99 99 99 91 99 19 91 91 19 11 91
 11 11 11 11 11 11 11 11 11 11 11 11 11 11 11 19
 99 99 99 99 99 99 99 99 99 99 99 99 99 99 99 99
 11 99 99 19 11 11 11 11 11 11 11 11 11 11 11 91
 99 99 99 99 99 99 99 99 99 99 99 99 91 99 99 99
 91 99 99 99 99 99 99 99 99 99 99 99 99 99 99 99
 99 99 99 99 99 99 99 99 99 99 99 99 99 99 99 99
 99 99 99 99 99 99 99 99 99 99 99 99 99 99 99 99
 99 99 99 9c 99 99 99 9c 99 99 99 99 99 99 99 99
 99 99 99 99 99 99 99 99 99 99 99 99 99 99 99 99
 99 99 99 99 99 99 99 99 99 99 99 99 99 99 99 99
 99 99 19 91 99 99 11 91 99 99 11 91 99 99 11 99
 99 99 9c 75 99 99 9c 75 99 99 7c 55 99 99 c9 51
 99 99 c9 57 99 99 c9 5c 99 99 c9 5c 99 99 c9 5c
 00 50 55 05 50 75 77 55 50 75 77 55 77 cc cc 77
 cc cc dd cd 77 77 cc cc bb bb 77 77 bb bb 77 77
 00 00 71 cc 05 00 c7 cc 05 00 c7 cc 05 10 cc cc
 07 75 cc 1c 5c c1 cc 1c 57 c7 9c 19 57 c7 9c 19
 9c 99 99 19 1c 99 99 99 1c 99 99 99 11 99 99 99
 11 99 99 c9 91 99 99 99 99 99 99 99 99 99 99 99
 11 11 99 99 11 11 11 91 11 11 11 91 19 11 11 91
 9c 99 99 11 99 99 99 11 99 99 99 11 99 99 99 11
 11 51 55 55 19 51 00 55 19 51 00 55 99 11 55 05
 99 11 11 05 11 11 11 55 11 11 11 51 11 11 11 51
 11 11 55 55 11 11 51 15 11 11 51 15 11 11 11 11
 11 11 11 11 11 11 11 11 11 11 11 11 11 11 11 11
 11 11 11 11 11 11 11 11 11 11 11 11 11 11 11 11
 11 11 11 11 11 11 11 11 11 11 55 11 11 11 55 11
 11 11 11 11 11 11 11 11 11 11 11 11 11 11 11 11
 11 11 11 11 11 11 11 11 11 11 11 11 11 11 11 11
 11 11 11 11 11 11 11 11 11 11 11 11 11 11 11 11
 11 11 11 11 11 11 11 11 11 11 11 11 11 11 11 11
 11 11 11 19 11 11 99 19 11 11 99 19 11 11 11 11
 11 11 11 11 11 11 11 91 11 11 11 91 11 11 11 91
 11 11 11 99 11 11 91 99 11 11 91 99 11 11 99 99
 99 99 99 99 99 99 99 99 99 99 99 99 99 99 99 99
 99 99 99 99 99 99 99 99 99 99 99 99 99 99 99 99
 99 99 99 99 99 99 99 99 99 99 99 99 99 99 99 99
 99 99 99 99 99 99 99 99 99 99 99 99 99 99 99 99
 99 99 99 99 99 99 99 99 99 99 99 99 99 99 99 99
 99 99 99 99 99 99 99 99 99 99 99 99 99 99 99 99
 99 99 99 99 99 99 99 99 99 99 99 99 99 99 99 99
 99 99 11 c9 99 99 11 c9 99 99 11 c9 99 99 11 91
 99 99 19 91 99 99 19 19 99 99 99 19 99 99 99 19
 99 99 79 5c 19 99 79 1c 19 99 79 1c 17 91 7c 1c
 77 77 7c 7c 77 77 77 77 72 7f 77 77 72 7f 77 77
 5b bb 7b 77 55 55 55 55 77 55 05 50 77 55 05 50
 cc 0c 50 50 cc 5c 50 55 7b 77 55 00 55 c7 7c 05
 55 15 99 11 55 15 99 91 55 95 99 99 55 95 99 99
 55 95 99 c9 55 91 99 c9 50 99 99 99 10 99 99 9c
 99 99 99 99 99 99 99 99 99 99 99 99 99 99 99 99
 9c 99 99 99 99 99 99 99 99 9c 99 99 99 99 11 91
 99 99 99 11 99 99 99 11 99 99 99 11 99 99 99 11
 99 99 99 11 99 99 99 11 99 99 99 11 99 99 99 19
 99 19 11 11 99 99 11 11 99 99 19 11 99 99 19 11
 99 99 99 11 91 99 99 11 11 99 99 11 11 11 11 11
 11 11 11 11 11 11 11 11 11 11 11 11 11 11 11 11
 11 11 11 11 11 11 11 11 11 11 11 11 11 11 11 15
 11 11 55 11 11 11 55 15 11 11 55 15 11 11 55 15
 11 11 15 15 11 51 10 15 11 51 50 10 11 01 00 10
 11 11 11 11 11 11 11 11 11 11 11 11 11 11 11 11
 11 11 11 11 11 11 91 11 11 11 91 11 11 11 91 11
 11 11 11 11 11 11 11 11 11 11 11 11 11 11 11 11
 11 11 11 11 11 11 91 99 11 11 91 99 11 19 91 99
 11 11 11 99 11 11 11 99 11 11 11 91 11 11 11 91
 11 11 19 91 11 11 91 99 19 11 91 99 99 19 91 99
 99 99 99 99 99 99 99 99 99 99 99 99 99 99 99 99
 99 99 99 99 99 99 99 99 99 99 99 99 99 99 99 99
 99 99 99 99 99 99 99 99 99 99 99 99 99 99 99 99
 99 99 99 99 99 99 99 99 99 99 99 99 99 99 99 99
 99 99 99 99 99 99 99 99 99 99 99 99 99 99 99 99
 99 99 99 99 99 99 99 99 99 99 99 99 99 99 99 99
 99 99 99 99 99 99 99 99 99 99 99 99 99 99 99 99
 99 99 99 99 99 99 99 99 99 99 99 99 99 99 99 99
 99 99 19 19 99 99 19 11 99 99 11 11 99 99 11 11
 99 99 11 11 99 19 11 11 99 19 11 11 99 19 11 11
 72 ff 7d 27 72 ff 7f 57 72 ff 7f 5d 72 ff 7f 5d
 22 f8 7f 2f 21 f8 7f 7f 21 88 78 2f 21 88 78 2f
 55 c7 7c 05 75 dc dd 07 c7 dc cc 07 7b c7 7c 05
 bb 77 77 05 bb 77 77 05 bb 57 55 00 bb 5b 05 00
 10 99 99 9c 90 9c 77 9c 70 7c 77 97 c0 7c 7c 17
 70 77 ff 17 70 77 ff 17 10 d7 8f 17 50 f7 ff 17
 99 99 11 91 99 99 11 91 99 19 11 91 11 11 11 99
 50 10 11 99 50 10 11 99 55 15 11 91 71 11 11 91
 99 99 99 19 99 99 99 99 99 99 99 99 99 99 19 91
 99 99 19 91 99 99 19 91 99 99 11 91 99 99 11 11
 11 11 11 11 99 19 11 11 99 19 11 11 99 99 11 11
 99 99 11 11 99 99 11 11 19 11 11 11 99 99 11 11
 11 11 11 15 11 11 51 50 11 11 51 00 11 11 11 05
 11 11 11 01 11 11 11 01 11 11 11 11 11 11 11 11
 11 01 00 10 11 05 00 10 11 00 00 10 05 00 00 10
 05 00 00 15 05 00 00 15 00 00 00 11 50 50 10 11
 11 11 91 11 11 11 11 11 11 11 11 11 11 11 11 11
 11 11 11 11 11 11 11 11 11 11 99 19 11 11 99 19
 11 19 91 99 11 19 91 19 11 99 99 99 11 99 99 91
 91 99 99 91 91 99 99 91 99 99 99 99 91 99 99 99
 99 19 91 99 91 91 99 19 99 99 99 19 99 99 99 19
 99 99 99 19 99 99 99 19 99 99 99 99 99 99 99 91
 99 99 99 99 91 99 99 99 11 99 99 99 11 91 99 99
 11 91 99 99 11 91 99 99 11 91 99 99 11 11 99 99
 99 99 99 99 99 99 99 99 99 99 99 99 99 99 99 99
 99 99 99 99 99 99 99 99 99 99 99 99 99 99 99 99
 99 99 99 99 99 99 99 99 99 99 99 99 99 99 99 99
 99 99 99 99 99 99 99 99 99 99 99 99 99 99 99 99
 99 99 99 99 99 99 99 99 99 99 99 99 99 99 99 99
 99 99 91 99 99 99 91 99 99 99 91 99 99 99 91 99
 99 19 11 11 99 19 11 11 99 99 11 11 99 99 11 91
 99 99 11 99 99 99 11 99 99 99 19 99 99 99 19 99
 21 88 78 2f 21 88 28 2f 21 88 28 2f 21 87 28 2f
 21 87 2f 2f 21 87 2f 2f 11 87 2f 2f 11 87 2f 28
 bb 5b 55 55 bb 5b 55 55 55 75 55 c7 50 55 75 c7
 00 50 75 c7 55 55 77 c7 55 55 77 c7 57 bb 75 c7
 05 f7 ff 17 05 f7 ff 17 57 ff ff 17 27 ff 8f 72
 dd ff 7f 72 fd ff 7f 71 fd ff 7f 71 fd 8f 28 91
 77 99 11 91 77 99 11 91 c7 99 19 99 97 99 19 91
 97 99 99 91 99 99 99 99 99 99 99 99 99 99 99 99
 99 99 11 11 99 99 11 11 99 99 19 11 99 99 19 11
 99 99 11 11 99 99 51 11 99 99 51 11 11 99 59 15
 99 99 19 11 99 99 19 11 99 99 19 11 91 99 11 11
 11 99 51 11 11 11 55 15 11 11 55 15 51 55 55 10
 11 11 11 11 11 11 11 11 11 11 11 11 11 11 11 11
 11 11 11 11 11 11 11 11 11 11 11 11 11 11 11 11
 15 10 11 11 15 10 11 11 11 11 11 11 11 11 11 11
 11 11 11 11 11 11 11 11 11 11 11 11 11 11 11 11
 11 91 99 19 11 91 99 19 11 91 99 99 11 99 99 99
 11 99 99 99 11 99 99 99 11 99 99 99 91 99 99 91
 99 99 99 99 99 99 99 99 99 99 99 99 99 99 99 99
 99 99 99 99 99 99 99 99 99 99 99 99 99 99 99 99
 99 99 99 19 99 99 99 19 99 99 99 99 99 99 99 99
 99 99 99 99 99 99 99 99 99 99 99 99 99 99 99 99
 11 11 99 99 11 11 99 99 11 11 99 99 99 11 99 99
 99 99 99 99 99 99 99 99 99 99 99 99 99 99 99 99
 99 99 99 99 99 99 99 99 99 99 99 99 99 99 99 99
 99 99 99 99 99 99 99 99 99 99 99 99 99 99 99 99
 99 99 99 99 99 99 99 99 99 99 99 99 99 99 99 99
 99 99 99 99 99 99 99 99 99 99 99 99 99 99 99 99
 99 99 11 99 99 99 11 99 99 99 99 99 99 19 99 99
 99 19 91 99 99 19 91 99 99 19 91 99 99 19 91 99
 99 99 99 99 99 99 99 99 99 99 99 99 99 99 99 99
 99 99 99 99 99 99 99 99 99 99 99 99 99 99 99 99
 11 87 28 28 11 87 28 28 19 87 27 77 11 87 27 77
 11 87 27 27 11 77 27 57 11 77 27 57 11 87 27 57
